		  ||HCol1||@,FS137,8,B0,0,-35/
           ||HCol1||@,FS137,12,B1,30,-40/
		   ||HCol2||@,FS137,8,B0,30,-40/
     ||HCol3||@,FS137,8,B0,30,-45/
            ||HCol4||@,FS137,8,B0,0,-50/-@,FS137,8,B0,60,-50/||HCol5||@,FS137,8,B0,100,-50/
      ph@,FS137,8,B0,0,-55/||HCol6||@,FS137,8,B0,100,-55/
  e-mail@,FS137,8,B0,0,-60/||HCol7||@,FS137,8,B0,100,-60/
------------------CASH BILL-------------------@,FS137,8,B0,0,-65/
Bill No:@,FS137,8,B0,0,-75/||HCol8||@,FS137,8,B0,150,-75/
Bill Date:@,FS137,8,B0,0,-80/||HCol9||@,FS137,8,B0,150,-80/
Tin No:@,FS137,8,B0,0,-85/||HCol10||@,FS137,8,B0,150,-85/
----------------------------------------------@,FS137,8,B0,0,-95/
Product       Qty     MRP    Rate   Amount@,FS137,8,B0,0,-105/
----------------------------------------------@,FS137,8,B0,0,-115/
||DCol1||@,FS232,8,B1,0,-125/||DCol2||@,FS232,8,B1,80,-125/||DCol3||@,FS232,8,B1,140,-125/||DCol4||@,FS232,8,B1,200,-125/||DCol5||@,FS232,8,B1,260,-125/
----------------------------------------------@,FS137,8,B0,0,-115/
  Qty:@,FS137,8,B0,0,-125/||HCol21||@,FS137,8,B0,60,-125/Total Amt:@,FS137,8,B0,100,-125/||HCol22||@,FS137,8,B0,200,-125
                  Round Off:@,FS137,8,B0,0,-130/||HCol23||@,FS137,8,B0,200,-130/
                 Net Amount:@,FS137,8,B0,0,-135/||HCol27||@,FS137,8,B0,200,-135/
----------------------------------------------@,FS137,8,B0,0,-145/
Paymode ;-@,FS137,8,B0,0,-150/
||DPCol1||@,FS137,8,B0,0,-155/||DPCol2||@,FS137,8,B0,150,-155/
----------------------------------------------@,FS137,8,B0,0,-145/
        Received Amt :@,FS137,8,B0,0,-155/||HCol25||@,FS137,8,B0,150,-155/
        Balance :@,FS137,8,B0,0,-160/||HCol26||@,FS137,8,B0,150,-160/
----------------------------------------------@,FS137,8,B0,0,-170/
 Today Savings :@,FS137,8,B0,0,-180/||HCol28||@,FS137,8,B0,150,-180/
----------------------------------------------@,FS137,8,B0,0,-190/
           (Inclusive of VAT)@,FS137,8,B0,0,-200/
       GRACE ONLY WHOLESALE PRICE@,FS137,8,B0,0,-210/
         THANK YOU VISIT AGAIN@,FS137,8,B0,0,-220/
 @,FS137,8,B0,0,-230/
----------------------------------------------@,FS137,8,B0,0,-240/
Pass Item@,FS137,8,B0,0,-250,||HColY29||/
----------------------------------------------@,FS137,8,B0,0,-260,||HColY29||/
Product       Qty     MRP    Rate   Amount@,FS137,8,B0,0,-270,||HColY29||/
----------------------------------------------@,FS137,8,B0,0,-280,||HColY29||/
||DDCol1||@,FS232,8,B1,0,-290/||DDCol2||@,FS232,8,B1,80,-290/||DDCol3||@,FS232,8,B1,140,-290/||DDCol4||@,FS232,8,B1,200,-290/||DDCol5||@,FS232,8,B1,260,-290/
----------------------------------------------@,FS137,8,B0,0,-280,||HColY29||/
 Cashier ID :@,FS137,8,B0,0,-260/||HCol19||@,FS137,8,B0,150,-260/
 Dt:@,FS137,8,B0,0,-260/||HCol20||@,FS137,8,B0,70,-260/
     Powered by www.retailpos.co.in@,FS137,8,B0,0,-260/