
 Error: Object cannot be cast from DBNull to other types.; Date & Time 13/02/2016 11:29:44; MethodName: fncMember; Form Name: PrinterTemplate.clsPrinterTemplate; User Code:admin
-----------------------------------------------------------------------------

 Error: Object cannot be cast from DBNull to other types.; Date & Time 13/02/2016 11:29:45; MethodName: fncMember; Form Name: PrinterTemplate.clsPrinterTemplate; User Code:admin
-----------------------------------------------------------------------------

 Error: Could not find file 'C:\BillText.txt'.; Date & Time 13/02/2016 11:29:45; MethodName: pd_PrintPage; Form Name: PrinterTemplate.clsPrinterTemplate; User Code:admin
-----------------------------------------------------------------------------

 Error: Object reference not set to an instance of an object.; Date & Time 13/02/2016 11:29:45; MethodName: fncCreditNotePrint; Form Name: clsPrint; User Code:admin
-----------------------------------------------------------------------------

 Error: Object cannot be cast from DBNull to other types.; Date & Time 13/02/2016 11:30:43; MethodName: fncMember; Form Name: PrinterTemplate.clsPrinterTemplate; User Code:admin
-----------------------------------------------------------------------------

 Error: Object cannot be cast from DBNull to other types.; Date & Time 13/02/2016 11:38:21; MethodName: fncMember; Form Name: PrinterTemplate.clsPrinterTemplate; User Code:admin
-----------------------------------------------------------------------------

 Error: Could not find file 'C:\BillText.txt'.; Date & Time 13/02/2016 11:38:22; MethodName: pd_PrintPage; Form Name: PrinterTemplate.clsPrinterTemplate; User Code:admin
-----------------------------------------------------------------------------

 Error: Object reference not set to an instance of an object.; Date & Time 13/02/2016 11:38:22; MethodName: fncCreditNotePrint; Form Name: clsPrint; User Code:admin
-----------------------------------------------------------------------------

 Error: Object cannot be cast from DBNull to other types.; Date & Time 13/02/2016 11:42:46; MethodName: fncMember; Form Name: PrinterTemplate.clsPrinterTemplate; User Code:admin
-----------------------------------------------------------------------------

 Error: Could not find file 'C:\BillText.txt'.; Date & Time 13/02/2016 11:46:54; MethodName: pd_PrintPage; Form Name: PrinterTemplate.clsPrinterTemplate; User Code:admin
-----------------------------------------------------------------------------

 Error: Object reference not set to an instance of an object.; Date & Time 13/02/2016 11:46:54; MethodName: fncCreditNotePrint; Form Name: clsPrint; User Code:admin
-----------------------------------------------------------------------------

 Error: Could not find file 'C:\BillText.txt'.; Date & Time 13/02/2016 11:47:47; MethodName: pd_PrintPage; Form Name: PrinterTemplate.clsPrinterTemplate; User Code:admin
-----------------------------------------------------------------------------

 Error: Object reference not set to an instance of an object.; Date & Time 13/02/2016 11:47:48; MethodName: fncCreditNotePrint; Form Name: clsPrint; User Code:admin
-----------------------------------------------------------------------------

 Error: Could not find file 'C:\BillText.txt'.; Date & Time 13/02/2016 11:56:45; MethodName: pd_PrintPage; Form Name: PrinterTemplate.clsPrinterTemplate; User Code:admin
-----------------------------------------------------------------------------

 Error: Object reference not set to an instance of an object.; Date & Time 13/02/2016 11:56:45; MethodName: fncCreditNotePrint; Form Name: clsPrint; User Code:admin
-----------------------------------------------------------------------------

 Error: Could not find file 'C:\BillText.txt'.; Date & Time 13/02/2016 12:04:49; MethodName: pd_PrintPage; Form Name: PrinterTemplate.clsPrinterTemplate; User Code:admin
-----------------------------------------------------------------------------

 Error: Could not find file 'C:\BillText.txt'.; Date & Time 13/02/2016 12:05:25; MethodName: pd_PrintPage; Form Name: PrinterTemplate.clsPrinterTemplate; User Code:admin
-----------------------------------------------------------------------------

 Error: Procedure or function USP_SET_ESTIMATION_DETAIL has too many arguments specified.; Date & Time 13/02/2016 13:23:20; MethodName: getExecuteSPTransactions; Form Name: System.Data.SqlClient.SqlException; User Code:admin
-----------------------------------------------------------------------------

 Error: Procedure or function USP_SET_ESTIMATION_DETAIL has too many arguments specified.; Date & Time 13/02/2016 13:23:22; MethodName: txtItem_KeyDown; Form Name: PosForms.frmPOS; User Code:admin
-----------------------------------------------------------------------------

 Error: Input string was not in a correct format.; Date & Time 13/02/2016 13:25:56; MethodName: fncCommondetail; Form Name: PrinterTemplate.clsPrinterTemplate; User Code:admin
-----------------------------------------------------------------------------

 Error: Incorrect syntax near ','.; Date & Time 13/02/2016 13:25:57; MethodName: fncItemDetail; Form Name: PrinterTemplate.clsPrinterTemplate; User Code:admin
-----------------------------------------------------------------------------

 Error: Invalid column name 'PEH_ESTIMATION_NO'.; Date & Time 13/02/2016 13:25:58; MethodName: fncMember; Form Name: PrinterTemplate.clsPrinterTemplate; User Code:admin
-----------------------------------------------------------------------------

 Error: Invalid column name 'PEH_ESTIMATION_NO'.
Invalid column name 'PEH_CASHIER_ID'.; Date & Time 13/02/2016 13:25:58; MethodName: fncFooter; Form Name: PrinterTemplate.clsPrinterTemplate; User Code:admin
-----------------------------------------------------------------------------

 Error: Input string was not in a correct format.; Date & Time 13/02/2016 13:34:40; MethodName: fncCommondetail; Form Name: PrinterTemplate.clsPrinterTemplate; User Code:admin
-----------------------------------------------------------------------------

 Error: Incorrect syntax near ','.; Date & Time 13/02/2016 13:34:40; MethodName: fncItemDetail; Form Name: PrinterTemplate.clsPrinterTemplate; User Code:admin
-----------------------------------------------------------------------------

 Error: Invalid column name 'PEH_ESTIMATION_NO'.; Date & Time 13/02/2016 13:34:41; MethodName: fncMember; Form Name: PrinterTemplate.clsPrinterTemplate; User Code:admin
-----------------------------------------------------------------------------

 Error: Invalid column name 'PEH_ESTIMATION_NO'.
Invalid column name 'PEH_CASHIER_ID'.; Date & Time 13/02/2016 13:34:41; MethodName: fncFooter; Form Name: PrinterTemplate.clsPrinterTemplate; User Code:admin
-----------------------------------------------------------------------------

 Error: Input string was not in a correct format.; Date & Time 13/02/2016 13:37:03; MethodName: fncCommondetail; Form Name: PrinterTemplate.clsPrinterTemplate; User Code:admin
-----------------------------------------------------------------------------

 Error: Incorrect syntax near ','.; Date & Time 13/02/2016 13:37:03; MethodName: fncItemDetail; Form Name: PrinterTemplate.clsPrinterTemplate; User Code:admin
-----------------------------------------------------------------------------

 Error: Invalid column name 'PEH_ESTIMATION_NO'.; Date & Time 13/02/2016 13:37:05; MethodName: fncMember; Form Name: PrinterTemplate.clsPrinterTemplate; User Code:admin
-----------------------------------------------------------------------------

 Error: Invalid column name 'PEH_ESTIMATION_NO'.
Invalid column name 'PEH_CASHIER_ID'.; Date & Time 13/02/2016 13:37:05; MethodName: fncFooter; Form Name: PrinterTemplate.clsPrinterTemplate; User Code:admin
-----------------------------------------------------------------------------

 Error: Input string was not in a correct format.; Date & Time 13/02/2016 13:37:55; MethodName: fncCommondetail; Form Name: PrinterTemplate.clsPrinterTemplate; User Code:admin
-----------------------------------------------------------------------------

 Error: Incorrect syntax near ','.; Date & Time 13/02/2016 13:37:55; MethodName: fncItemDetail; Form Name: PrinterTemplate.clsPrinterTemplate; User Code:admin
-----------------------------------------------------------------------------

 Error: Invalid column name 'PEH_ESTIMATION_NO'.; Date & Time 13/02/2016 13:37:56; MethodName: fncMember; Form Name: PrinterTemplate.clsPrinterTemplate; User Code:admin
-----------------------------------------------------------------------------

 Error: Invalid column name 'PEH_ESTIMATION_NO'.
Invalid column name 'PEH_CASHIER_ID'.; Date & Time 13/02/2016 13:37:56; MethodName: fncFooter; Form Name: PrinterTemplate.clsPrinterTemplate; User Code:admin
-----------------------------------------------------------------------------

 Error: Input string was not in a correct format.; Date & Time 13/02/2016 13:40:09; MethodName: fncCommondetail; Form Name: PrinterTemplate.clsPrinterTemplate; User Code:admin
-----------------------------------------------------------------------------

 Error: Incorrect syntax near ','.; Date & Time 13/02/2016 13:40:09; MethodName: fncItemDetail; Form Name: PrinterTemplate.clsPrinterTemplate; User Code:admin
-----------------------------------------------------------------------------

 Error: Invalid column name 'PEH_ESTIMATION_NO'.; Date & Time 13/02/2016 13:40:11; MethodName: fncMember; Form Name: PrinterTemplate.clsPrinterTemplate; User Code:admin
-----------------------------------------------------------------------------

 Error: Invalid column name 'PEH_ESTIMATION_NO'.
Invalid column name 'PEH_CASHIER_ID'.; Date & Time 13/02/2016 13:40:11; MethodName: fncFooter; Form Name: PrinterTemplate.clsPrinterTemplate; User Code:admin
-----------------------------------------------------------------------------

 Error: Could not find file 'C:\BillText.txt'.; Date & Time 13/02/2016 14:04:33; MethodName: pd_PrintPage; Form Name: PrinterTemplate.clsPrinterTemplate; User Code:admin
-----------------------------------------------------------------------------

 Error: Could not find file 'C:\BillText.txt'.; Date & Time 13/02/2016 14:06:04; MethodName: pd_PrintPage; Form Name: PrinterTemplate.clsPrinterTemplate; User Code:admin
-----------------------------------------------------------------------------

 Error: Object reference not set to an instance of an object.; Date & Time 13/02/2016 14:06:05; MethodName: fncCreditNotePrint; Form Name: clsPrint; User Code:admin
-----------------------------------------------------------------------------

 Error: Error in File C:\Users\UPS-TT~1\AppData\Local\Temp\rptbill {AA2D82B5-20E7-43FD-AB3B-BBAA95C0A278}.rpt:
The rowset column could not be found.; Date & Time 07/02/2016 16:15:04; MethodName: frmInVoiceReport_Load; Form Name: PosForms.frmInvoiceReport; User Code:AA
-----------------------------------------------------------------------------

 Error: A connection was successfully established with the server, but then an error occurred during the pre-login handshake. (provider: TCP Provider, error: 0 - An existing connection was forcibly closed by the remote host.); Date & Time 07/02/2016 16:18:27; MethodName: btnLogOn_Click; Form Name: RetailPointofSale.frmLogOn; User Code:
-----------------------------------------------------------------------------

 Error: A connection was successfully established with the server, but then an error occurred during the pre-login handshake. (provider: TCP Provider, error: 0 - An existing connection was forcibly closed by the remote host.); Date & Time 07/02/2016 16:18:28; MethodName: btnLogOn_Click; Form Name: RetailPointofSale.frmLogOn; User Code:
-----------------------------------------------------------------------------

 Error: A connection was successfully established with the server, but then an error occurred during the pre-login handshake. (provider: TCP Provider, error: 0 - An existing connection was forcibly closed by the remote host.); Date & Time 07/02/2016 16:18:30; MethodName: btnLogOn_Click; Form Name: RetailPointofSale.frmLogOn; User Code:
-----------------------------------------------------------------------------

 Error: A connection was successfully established with the server, but then an error occurred during the pre-login handshake. (provider: TCP Provider, error: 0 - An existing connection was forcibly closed by the remote host.); Date & Time 07/02/2016 16:18:35; MethodName: btnLogOn_Click; Form Name: RetailPointofSale.frmLogOn; User Code:
-----------------------------------------------------------------------------

 Error: A connection was successfully established with the server, but then an error occurred during the pre-login handshake. (provider: TCP Provider, error: 0 - An existing connection was forcibly closed by the remote host.); Date & Time 07/02/2016 16:18:36; MethodName: btnLogOn_Click; Form Name: RetailPointofSale.frmLogOn; User Code:
-----------------------------------------------------------------------------

 Error: A connection was successfully established with the server, but then an error occurred during the pre-login handshake. (provider: TCP Provider, error: 0 - An existing connection was forcibly closed by the remote host.); Date & Time 07/02/2016 16:18:37; MethodName: btnLogOn_Click; Form Name: RetailPointofSale.frmLogOn; User Code:
-----------------------------------------------------------------------------

 Error: A connection was successfully established with the server, but then an error occurred during the pre-login handshake. (provider: TCP Provider, error: 0 - An existing connection was forcibly closed by the remote host.); Date & Time 07/02/2016 16:18:39; MethodName: btnLogOn_Click; Form Name: RetailPointofSale.frmLogOn; User Code:
-----------------------------------------------------------------------------

 Error: A connection was successfully established with the server, but then an error occurred during the pre-login handshake. (provider: TCP Provider, error: 0 - An existing connection was forcibly closed by the remote host.); Date & Time 07/02/2016 16:18:40; MethodName: btnLogOn_Click; Form Name: RetailPointofSale.frmLogOn; User Code:
-----------------------------------------------------------------------------

 Error: A connection was successfully established with the server, but then an error occurred during the pre-login handshake. (provider: TCP Provider, error: 0 - An existing connection was forcibly closed by the remote host.); Date & Time 07/02/2016 16:18:41; MethodName: btnLogOn_Click; Form Name: RetailPointofSale.frmLogOn; User Code:
-----------------------------------------------------------------------------

 Error: A connection was successfully established with the server, but then an error occurred during the pre-login handshake. (provider: TCP Provider, error: 0 - An existing connection was forcibly closed by the remote host.); Date & Time 07/02/2016 16:18:43; MethodName: btnLogOn_Click; Form Name: RetailPointofSale.frmLogOn; User Code:
-----------------------------------------------------------------------------

 Error: A connection was successfully established with the server, but then an error occurred during the pre-login handshake. (provider: TCP Provider, error: 0 - An existing connection was forcibly closed by the remote host.); Date & Time 07/02/2016 16:18:44; MethodName: btnLogOn_Click; Form Name: RetailPointofSale.frmLogOn; User Code:
-----------------------------------------------------------------------------

 Error: A connection was successfully established with the server, but then an error occurred during the pre-login handshake. (provider: TCP Provider, error: 0 - An existing connection was forcibly closed by the remote host.); Date & Time 07/02/2016 16:18:48; MethodName: btnLogOn_Click; Form Name: RetailPointofSale.frmLogOn; User Code:
-----------------------------------------------------------------------------

 Error: A connection was successfully established with the server, but then an error occurred during the pre-login handshake. (provider: TCP Provider, error: 0 - An existing connection was forcibly closed by the remote host.); Date & Time 07/02/2016 16:18:49; MethodName: btnLogOn_Click; Form Name: RetailPointofSale.frmLogOn; User Code:
-----------------------------------------------------------------------------

 Error: A connection was successfully established with the server, but then an error occurred during the pre-login handshake. (provider: TCP Provider, error: 0 - An existing connection was forcibly closed by the remote host.); Date & Time 07/02/2016 16:18:50; MethodName: btnLogOn_Click; Form Name: RetailPointofSale.frmLogOn; User Code:
-----------------------------------------------------------------------------

 Error: A connection was successfully established with the server, but then an error occurred during the pre-login handshake. (provider: TCP Provider, error: 0 - An existing connection was forcibly closed by the remote host.); Date & Time 07/02/2016 16:18:51; MethodName: btnLogOn_Click; Form Name: RetailPointofSale.frmLogOn; User Code:
-----------------------------------------------------------------------------

 Error: A connection was successfully established with the server, but then an error occurred during the pre-login handshake. (provider: TCP Provider, error: 0 - An existing connection was forcibly closed by the remote host.); Date & Time 07/02/2016 16:18:52; MethodName: btnLogOn_Click; Form Name: RetailPointofSale.frmLogOn; User Code:
-----------------------------------------------------------------------------

 Error: Value of '-1855' is not valid for 'bottom'. 'bottom' must be greater than or equal to 0.; Date & Time 07/02/2016 16:52:28; MethodName: frmInVoiceReport_Load; Form Name: PosForms.frmInvoiceReport; User Code:AA
-----------------------------------------------------------------------------

 Error: Object reference not set to an instance of an object.; Date & Time 07/02/2016 16:52:35; MethodName: fncCreditNotePrint; Form Name: clsPrint; User Code:AA
-----------------------------------------------------------------------------

 Error: Value of '-1855' is not valid for 'bottom'. 'bottom' must be greater than or equal to 0.; Date & Time 07/02/2016 16:52:39; MethodName: frmInVoiceReport_Load; Form Name: PosForms.frmInvoiceReport; User Code:AA
-----------------------------------------------------------------------------

 Error: Object reference not set to an instance of an object.; Date & Time 07/02/2016 16:52:43; MethodName: fncCreditNotePrint; Form Name: clsPrint; User Code:AA
-----------------------------------------------------------------------------

 Error: Value of '-1855' is not valid for 'bottom'. 'bottom' must be greater than or equal to 0.; Date & Time 07/02/2016 16:53:13; MethodName: frmInVoiceReport_Load; Form Name: PosForms.frmInvoiceReport; User Code:AA
-----------------------------------------------------------------------------

 Error: Object reference not set to an instance of an object.; Date & Time 07/02/2016 16:53:17; MethodName: fncCreditNotePrint; Form Name: clsPrint; User Code:AA
-----------------------------------------------------------------------------

 Error: Value of '-1855' is not valid for 'bottom'. 'bottom' must be greater than or equal to 0.; Date & Time 07/02/2016 16:55:38; MethodName: frmInVoiceReport_Load; Form Name: PosForms.frmInvoiceReport; User Code:AA
-----------------------------------------------------------------------------

 Error: Object reference not set to an instance of an object.; Date & Time 07/02/2016 16:55:42; MethodName: fncCreditNotePrint; Form Name: clsPrint; User Code:AA
-----------------------------------------------------------------------------

 Error: Value of '-1855' is not valid for 'bottom'. 'bottom' must be greater than or equal to 0.; Date & Time 07/02/2016 16:56:39; MethodName: frmInVoiceReport_Load; Form Name: PosForms.frmInvoiceReport; User Code:AA
-----------------------------------------------------------------------------

 Error: Object reference not set to an instance of an object.; Date & Time 07/02/2016 16:56:42; MethodName: fncCreditNotePrint; Form Name: clsPrint; User Code:AA
-----------------------------------------------------------------------------

 Error: Value of '-1855' is not valid for 'bottom'. 'bottom' must be greater than or equal to 0.; Date & Time 07/02/2016 16:56:46; MethodName: frmInVoiceReport_Load; Form Name: PosForms.frmInvoiceReport; User Code:AA
-----------------------------------------------------------------------------

 Error: Object reference not set to an instance of an object.; Date & Time 07/02/2016 16:59:30; MethodName: fncCreditNotePrint; Form Name: clsPrint; User Code:AA
-----------------------------------------------------------------------------

 Error: Value of '-1855' is not valid for 'bottom'. 'bottom' must be greater than or equal to 0.; Date & Time 07/02/2016 17:08:15; MethodName: frmInVoiceReport_Load; Form Name: PosForms.frmInvoiceReport; User Code:AA
-----------------------------------------------------------------------------

 Error: Object reference not set to an instance of an object.; Date & Time 07/02/2016 17:08:23; MethodName: fncCreditNotePrint; Form Name: clsPrint; User Code:AA
-----------------------------------------------------------------------------

 Error: Object reference not set to an instance of an object.; Date & Time 07/02/2016 17:08:50; MethodName: fncCreditNotePrint; Form Name: clsPrint; User Code:AA
-----------------------------------------------------------------------------

 Error: Error in File C:\Users\UPS-TT~1\AppData\Local\Temp\rptbill {8E4F036B-541C-4EFA-9388-AE2DBAC88279}.rpt:
Query Engine Error; Date & Time 07/02/2016 17:09:55; MethodName: frmInVoiceReport_Load; Form Name: PosForms.frmInvoiceReport; User Code:AA
-----------------------------------------------------------------------------

 Error: Object reference not set to an instance of an object.; Date & Time 07/02/2016 17:10:02; MethodName: fncCreditNotePrint; Form Name: clsPrint; User Code:AA
-----------------------------------------------------------------------------

 Error: Error in File C:\Users\UPS-TT~1\AppData\Local\Temp\rptbill {B67CA747-2C3D-4C42-B70F-F5B182A1D4CA}.rpt:
Query Engine Error; Date & Time 07/02/2016 17:12:37; MethodName: frmInVoiceReport_Load; Form Name: PosForms.frmInvoiceReport; User Code:AA
-----------------------------------------------------------------------------

 Error: Object reference not set to an instance of an object.; Date & Time 07/02/2016 17:12:39; MethodName: fncCreditNotePrint; Form Name: clsPrint; User Code:AA
-----------------------------------------------------------------------------

 Error: Error in File C:\Users\UPS-TT~1\AppData\Local\Temp\rptbill {51FD84C6-8F17-4351-809C-284493AAC4B0}.rpt:
Query Engine Error; Date & Time 07/02/2016 17:17:07; MethodName: frmInVoiceReport_Load; Form Name: PosForms.frmInvoiceReport; User Code:AA
-----------------------------------------------------------------------------

 Error: Object reference not set to an instance of an object.; Date & Time 07/02/2016 17:17:14; MethodName: fncCreditNotePrint; Form Name: clsPrint; User Code:AA
-----------------------------------------------------------------------------

 Error: Object reference not set to an instance of an object.; Date & Time 07/02/2016 17:17:20; MethodName: fncCreditNotePrint; Form Name: clsPrint; User Code:AA
-----------------------------------------------------------------------------

 Error: Error in File C:\Users\UPS-TT~1\AppData\Local\Temp\rptbill {B1F885F0-F993-41E9-8851-1C80DF511290}.rpt:
Query Engine Error; Date & Time 07/02/2016 17:17:47; MethodName: frmInVoiceReport_Load; Form Name: PosForms.frmInvoiceReport; User Code:AA
-----------------------------------------------------------------------------

 Error: Object reference not set to an instance of an object.; Date & Time 07/02/2016 17:17:48; MethodName: fncCreditNotePrint; Form Name: clsPrint; User Code:AA
-----------------------------------------------------------------------------

 Error: Input array is longer than the number of columns in this table.; Date & Time 15/02/2016 12:19:53; MethodName: txtSMan_KeyDown; Form Name: PosForms.frmPOS; User Code:admin
-----------------------------------------------------------------------------

 Error: Invalid object name 'tblHoldWarehouseDetails'.; Date & Time 15/02/2016 12:39:31; MethodName: fncHold; Form Name: PosForms.frmPOS; User Code:admin
-----------------------------------------------------------------------------

 Error: Input string was not in a correct format.; Date & Time 15/02/2016 12:40:36; MethodName: gvMain_FocusedRowChanged; Form Name: PosForms.frmPOS; User Code:admin
-----------------------------------------------------------------------------

 Error: Invalid object name 'tblHoldAdditionalCharges'.; Date & Time 15/02/2016 12:40:38; MethodName: fncHold; Form Name: PosForms.frmPOS; User Code:admin
-----------------------------------------------------------------------------

 Error: Input string was not in a correct format.; Date & Time 15/02/2016 12:41:14; MethodName: fncHold; Form Name: PosForms.frmPOS; User Code:admin
-----------------------------------------------------------------------------

 Error: Input string was not in a correct format.; Date & Time 15/02/2016 12:41:20; MethodName: gvMain_FocusedRowChanged; Form Name: PosForms.frmPOS; User Code:admin
-----------------------------------------------------------------------------

 Error: Input string was not in a correct format.; Date & Time 15/02/2016 12:41:34; MethodName: gvMain_FocusedRowChanged; Form Name: PosForms.frmPOS; User Code:admin
-----------------------------------------------------------------------------

 Error: Could not find file 'C:\BillText.txt'.; Date & Time 15/02/2016 12:42:04; MethodName: pd_PrintPage; Form Name: PrinterTemplate.clsPrinterTemplate; User Code:admin
-----------------------------------------------------------------------------

 Error: Procedure or function USP_SET_SALES_ORDER_DETAIL has too many arguments specified.; Date & Time 15/02/2016 12:47:50; MethodName: getExecuteSPTransactions; Form Name: System.Data.SqlClient.SqlException; User Code:admin
-----------------------------------------------------------------------------

 Error: Procedure or function USP_SET_SALES_ORDER_DETAIL has too many arguments specified.; Date & Time 15/02/2016 12:47:50; MethodName: frmPOS_KeyDown; Form Name: PosForms.frmPOS; User Code:admin
-----------------------------------------------------------------------------

 Error: Procedure or function USP_SET_SALES_ORDER_DETAIL has too many arguments specified.; Date & Time 15/02/2016 12:48:04; MethodName: getExecuteSPTransactions; Form Name: System.Data.SqlClient.SqlException; User Code:admin
-----------------------------------------------------------------------------

 Error: Procedure or function USP_SET_SALES_ORDER_DETAIL has too many arguments specified.; Date & Time 15/02/2016 12:48:05; MethodName: frmPOS_KeyDown; Form Name: PosForms.frmPOS; User Code:admin
-----------------------------------------------------------------------------

 Error: 'count' must be non-negative.
Parameter name: count; Date & Time 15/02/2016 12:50:31; MethodName: fncPrint; Form Name: PrinterTemplate.clsPrinterTemplate; User Code:admin
-----------------------------------------------------------------------------

 Error: 'count' must be non-negative.
Parameter name: count; Date & Time 15/02/2016 12:50:31; MethodName: fncHeader; Form Name: PrinterTemplate.clsPrinterTemplate; User Code:admin
-----------------------------------------------------------------------------

 Error: Incorrect syntax near ','.; Date & Time 15/02/2016 12:50:31; MethodName: fncItemDetail; Form Name: PrinterTemplate.clsPrinterTemplate; User Code:admin
-----------------------------------------------------------------------------

 Error: 'count' must be non-negative.
Parameter name: count; Date & Time 15/02/2016 12:50:31; MethodName: fncTotalAndDiscount; Form Name: PrinterTemplate.clsPrinterTemplate; User Code:admin
-----------------------------------------------------------------------------

 Error: 'count' must be non-negative.
Parameter name: count; Date & Time 15/02/2016 12:50:31; MethodName: fncSettlementDenomination; Form Name: PrinterTemplate.clsPrinterTemplate; User Code:admin
-----------------------------------------------------------------------------

 Error: There is no row at position 0.; Date & Time 15/02/2016 12:50:33; MethodName: fncMember; Form Name: PrinterTemplate.clsPrinterTemplate; User Code:admin
-----------------------------------------------------------------------------

 Error: 'count' must be non-negative.
Parameter name: count; Date & Time 15/02/2016 12:50:33; MethodName: fncFooter; Form Name: PrinterTemplate.clsPrinterTemplate; User Code:admin
-----------------------------------------------------------------------------

 Error: 'count' must be non-negative.
Parameter name: count; Date & Time 15/02/2016 12:50:33; MethodName: fncPrint; Form Name: PrinterTemplate.clsPrinterTemplate; User Code:admin
-----------------------------------------------------------------------------

 Error: Could not find file 'C:\BillText.txt'.; Date & Time 15/02/2016 12:53:45; MethodName: pd_PrintPage; Form Name: PrinterTemplate.clsPrinterTemplate; User Code:admin
-----------------------------------------------------------------------------

 Error: Could not find file 'C:\BillText.txt'.; Date & Time 15/02/2016 13:36:29; MethodName: pd_PrintPage; Form Name: PrinterTemplate.clsPrinterTemplate; User Code:admin
-----------------------------------------------------------------------------

 Error: Object reference not set to an instance of an object.; Date & Time 15/02/2016 13:36:29; MethodName: fncCreditNotePrint; Form Name: clsPrint; User Code:admin
-----------------------------------------------------------------------------

 Error: Could not find stored procedure 'SP_LoadDiscoutDetailsNEw'.; Date & Time 15/02/2016 13:52:43; MethodName: fncTender; Form Name: PosForms.frmPOS; User Code:admin
-----------------------------------------------------------------------------

 Error: Could not find file 'C:\BillText.txt'.; Date & Time 15/02/2016 15:23:04; MethodName: pd_PrintPage; Form Name: PrinterTemplate.clsPrinterTemplate; User Code:admin
-----------------------------------------------------------------------------

 Error: Could not find file 'C:\BillText.txt'.; Date & Time 15/02/2016 15:42:14; MethodName: pd_PrintPage; Form Name: PrinterTemplate.clsPrinterTemplate; User Code:admin
-----------------------------------------------------------------------------

 Error: Could not find stored procedure 'USP_GET_DELIVERY_INVOICES'.; Date & Time 15/02/2016 16:03:31; MethodName: frmTripSheet_Load; Form Name: PosForms.frmTripSheet; User Code:admin
-----------------------------------------------------------------------------

 Error: An insufficient number of arguments were supplied for the procedure or function dbo.FNC_GET_BREAK_PRICE.; Date & Time 15/02/2016 16:03:51; MethodName: gvItemSearch_KeyDown; Form Name: PosForms.frmDeliveryChallan; User Code:admin
-----------------------------------------------------------------------------

 Error: An insufficient number of arguments were supplied for the procedure or function dbo.FNC_GET_BREAK_PRICE.; Date & Time 15/02/2016 16:04:58; MethodName: gvItemSearch_KeyDown; Form Name: PosForms.frmDeliveryChallan; User Code:admin
-----------------------------------------------------------------------------

 Error: An insufficient number of arguments were supplied for the procedure or function dbo.FNC_GET_BREAK_PRICE.; Date & Time 15/02/2016 16:05:27; MethodName: gvItemSearch_KeyDown; Form Name: PosForms.frmDeliveryChallan; User Code:admin
-----------------------------------------------------------------------------

 Error: Object reference not set to an instance of an object.; Date & Time 15/02/2016 16:18:14; MethodName: fncCreditNotePrint; Form Name: clsPrint; User Code:admin
-----------------------------------------------------------------------------

 Error: Cannot insert the value NULL into column 'DCH_NO', table 'Enterpriserv8_pothys.dbo.TBL_POS_DC_HEADER'; column does not allow nulls. INSERT fails.
The statement has been terminated.; Date & Time 15/02/2016 16:20:14; MethodName: fncTender; Form Name: PosForms.frmDeliveryChallan; User Code:admin
-----------------------------------------------------------------------------

 Error: Cannot insert the value NULL into column 'DCH_NO', table 'Enterpriserv8_pothys.dbo.TBL_POS_DC_HEADER'; column does not allow nulls. INSERT fails.
The statement has been terminated.; Date & Time 15/02/2016 16:20:50; MethodName: fncTender; Form Name: PosForms.frmDeliveryChallan; User Code:admin
-----------------------------------------------------------------------------

 Error: Load report failed.; Date & Time 15/02/2016 16:21:54; MethodName: frmInVoiceReport_Load; Form Name: PosForms.frmInvoiceReport; User Code:admin
-----------------------------------------------------------------------------

 Error: Object reference not set to an instance of an object.; Date & Time 15/02/2016 16:21:57; MethodName: fncCreditNotePrint; Form Name: clsPrint; User Code:admin
-----------------------------------------------------------------------------

 Error: Object reference not set to an instance of an object.; Date & Time 15/02/2016 16:21:59; MethodName: fncCreditNotePrint; Form Name: clsPrint; User Code:admin
-----------------------------------------------------------------------------

 Error: Load report failed.; Date & Time 15/02/2016 16:22:59; MethodName: frmInVoiceReport_Load; Form Name: PosForms.frmInvoiceReport; User Code:admin
-----------------------------------------------------------------------------

 Error: Object reference not set to an instance of an object.; Date & Time 15/02/2016 16:23:08; MethodName: fncCreditNotePrint; Form Name: clsPrint; User Code:admin
-----------------------------------------------------------------------------

 Error: Object reference not set to an instance of an object.; Date & Time 15/02/2016 16:23:12; MethodName: fncCreditNotePrint; Form Name: clsPrint; User Code:admin
-----------------------------------------------------------------------------

 Error: Load report failed.; Date & Time 15/02/2016 16:23:44; MethodName: frmInVoiceReport_Load; Form Name: PosForms.frmInvoiceReport; User Code:admin
-----------------------------------------------------------------------------

 Error: Object reference not set to an instance of an object.; Date & Time 15/02/2016 16:25:56; MethodName: fncCreditNotePrint; Form Name: clsPrint; User Code:admin
-----------------------------------------------------------------------------

 Error: Load report failed.; Date & Time 15/02/2016 16:26:08; MethodName: frmInVoiceReport_Load; Form Name: PosForms.frmInvoiceReport; User Code:admin
-----------------------------------------------------------------------------

 Error: Object reference not set to an instance of an object.; Date & Time 15/02/2016 16:26:24; MethodName: fncCreditNotePrint; Form Name: clsPrint; User Code:admin
-----------------------------------------------------------------------------

 Error: Object reference not set to an instance of an object.; Date & Time 15/02/2016 16:29:01; MethodName: fncCreditNotePrint; Form Name: clsPrint; User Code:admin
-----------------------------------------------------------------------------

 Error: Object reference not set to an instance of an object.; Date & Time 15/02/2016 16:30:19; MethodName: fncCreditNotePrint; Form Name: clsPrint; User Code:admin
-----------------------------------------------------------------------------

 Error: Input string was not in a correct format.; Date & Time 15/02/2016 16:36:09; MethodName: gvMain_FocusedRowChanged; Form Name: PosForms.frmPOS; User Code:admin
-----------------------------------------------------------------------------

 Error: Column 'Helperid' does not belong to table Table.; Date & Time 15/02/2016 16:36:11; MethodName: txtItem_KeyDown; Form Name: PosForms.frmPOS; User Code:admin
-----------------------------------------------------------------------------

 Error: String was not recognized as a valid Boolean.; Date & Time 15/02/2016 16:36:19; MethodName: txtItem_KeyDown; Form Name: PosForms.frmPOS; User Code:admin
-----------------------------------------------------------------------------

 Error: Input string was not in a correct format.; Date & Time 15/02/2016 16:36:52; MethodName: gvMain_FocusedRowChanged; Form Name: PosForms.frmPOS; User Code:admin
-----------------------------------------------------------------------------

 Error: Column 'Helperid' does not belong to table Table.; Date & Time 15/02/2016 16:36:53; MethodName: txtItem_KeyDown; Form Name: PosForms.frmPOS; User Code:admin
-----------------------------------------------------------------------------

 Error: Input string was not in a correct format.; Date & Time 15/02/2016 16:41:05; MethodName: gvMain_FocusedRowChanged; Form Name: PosForms.frmPOS; User Code:admin
-----------------------------------------------------------------------------

 Error: Input string was not in a correct format.; Date & Time 15/02/2016 16:41:35; MethodName: gvMain_FocusedRowChanged; Form Name: PosForms.frmPOS; User Code:admin
-----------------------------------------------------------------------------

 Error: Load report failed.; Date & Time 15/02/2016 16:43:36; MethodName: bbtnFetch_Click; Form Name: frmDCReports; User Code:admin
-----------------------------------------------------------------------------

 Error: Load report failed.; Date & Time 15/02/2016 16:43:38; MethodName: bbtnFetch_Click; Form Name: frmDCReports; User Code:admin
-----------------------------------------------------------------------------

 Error: Load report failed.; Date & Time 15/02/2016 16:43:42; MethodName: bbtnFetch_Click; Form Name: frmDCReports; User Code:admin
-----------------------------------------------------------------------------

 Error: Load report failed.; Date & Time 15/02/2016 16:43:44; MethodName: bbtnFetch_Click; Form Name: frmDCReports; User Code:admin
-----------------------------------------------------------------------------

 Error: Could not find file 'C:\BillText.txt'.; Date & Time 15/02/2016 17:20:24; MethodName: pd_PrintPage; Form Name: PrinterTemplate.clsPrinterTemplate; User Code:admin
-----------------------------------------------------------------------------

 Error: Object reference not set to an instance of an object.; Date & Time 15/02/2016 17:20:24; MethodName: fncCreditNotePrint; Form Name: clsPrint; User Code:admin
-----------------------------------------------------------------------------

 Error: Could not find file 'C:\BillText.txt'.; Date & Time 15/02/2016 17:30:55; MethodName: pd_PrintPage; Form Name: PrinterTemplate.clsPrinterTemplate; User Code:admin
-----------------------------------------------------------------------------

 Error: Could not find file 'C:\BillText.txt'.; Date & Time 15/02/2016 17:33:18; MethodName: pd_PrintPage; Form Name: PrinterTemplate.clsPrinterTemplate; User Code:admin
-----------------------------------------------------------------------------

 Error: Could not find file 'C:\BillText.txt'.; Date & Time 15/02/2016 18:36:43; MethodName: pd_PrintPage; Form Name: PrinterTemplate.clsPrinterTemplate; User Code:admin
-----------------------------------------------------------------------------

 Error: Input string was not in a correct format.; Date & Time 15/02/2016 18:36:58; MethodName: gvMain_FocusedRowChanged; Form Name: PosForms.frmPOS; User Code:admin
-----------------------------------------------------------------------------

 Error: Could not find file 'C:\BillText.txt'.; Date & Time 15/02/2016 18:37:19; MethodName: pd_PrintPage; Form Name: PrinterTemplate.clsPrinterTemplate; User Code:admin
-----------------------------------------------------------------------------

 Error: Could not find file 'C:\BillText.txt'.; Date & Time 15/02/2016 18:48:33; MethodName: pd_PrintPage; Form Name: PrinterTemplate.clsPrinterTemplate; User Code:admin
-----------------------------------------------------------------------------

 Error: Could not find file 'C:\BillText.txt'.; Date & Time 15/02/2016 18:50:13; MethodName: pd_PrintPage; Form Name: PrinterTemplate.clsPrinterTemplate; User Code:admin
-----------------------------------------------------------------------------

 Error: Could not find file 'C:\BillText.txt'.; Date & Time 15/02/2016 18:51:49; MethodName: pd_PrintPage; Form Name: PrinterTemplate.clsPrinterTemplate; User Code:admin
-----------------------------------------------------------------------------

 Error: Could not find file 'C:\BillText.txt'.; Date & Time 15/02/2016 18:52:43; MethodName: pd_PrintPage; Form Name: PrinterTemplate.clsPrinterTemplate; User Code:admin
-----------------------------------------------------------------------------

 Error: Could not find file 'C:\BillText.txt'.; Date & Time 15/02/2016 18:54:11; MethodName: pd_PrintPage; Form Name: PrinterTemplate.clsPrinterTemplate; User Code:admin
-----------------------------------------------------------------------------

 Error: Could not find file 'C:\BillText.txt'.; Date & Time 15/02/2016 19:05:27; MethodName: pd_PrintPage; Form Name: PrinterTemplate.clsPrinterTemplate; User Code:admin
-----------------------------------------------------------------------------

 Error: Could not find file 'C:\BillText.txt'.; Date & Time 15/02/2016 19:06:05; MethodName: pd_PrintPage; Form Name: PrinterTemplate.clsPrinterTemplate; User Code:admin
-----------------------------------------------------------------------------

 Error: Object reference not set to an instance of an object.; Date & Time 15/02/2016 19:06:05; MethodName: fncCreditNotePrint; Form Name: clsPrint; User Code:admin
-----------------------------------------------------------------------------

 Error: 899.10000; Date & Time 15/02/2016 19:26:21; MethodName: fncTender; Form Name: PosForms.frmPOS; User Code:admin
-----------------------------------------------------------------------------

 Error: 699.10000; Date & Time 15/02/2016 19:26:40; MethodName: fncTender; Form Name: PosForms.frmPOS; User Code:admin
-----------------------------------------------------------------------------

 Error: 113.80000; Date & Time 16/02/2016 10:32:33; MethodName: fncTender; Form Name: PosForms.frmPOS; User Code:admin
-----------------------------------------------------------------------------

 Error: Could not find file 'C:\BillText.txt'.; Date & Time 16/02/2016 10:33:28; MethodName: pd_PrintPage; Form Name: PrinterTemplate.clsPrinterTemplate; User Code:admin
-----------------------------------------------------------------------------

 Error: Could not find file 'C:\BillText.txt'.; Date & Time 16/02/2016 11:42:04; MethodName: pd_PrintPage; Form Name: PrinterTemplate.clsPrinterTemplate; User Code:admin
-----------------------------------------------------------------------------

 Error: Index was outside the bounds of the array.; Date & Time 16/02/2016 12:05:41; MethodName: btnLogOn_Click; Form Name: RetailPointofSale.frmLogOn; User Code:admin
-----------------------------------------------------------------------------

 Error: Please be sure a sound file exists at the specified location.; Date & Time 16/02/2016 12:09:15; MethodName: txtItem_KeyDown; Form Name: PosForms.frmPOS; User Code:admin
-----------------------------------------------------------------------------

 Error: Please be sure a sound file exists at the specified location.; Date & Time 16/02/2016 12:09:26; MethodName: txtItem_KeyDown; Form Name: PosForms.frmPOS; User Code:admin
-----------------------------------------------------------------------------

 Error: Please be sure a sound file exists at the specified location.; Date & Time 16/02/2016 12:09:28; MethodName: txtItem_KeyDown; Form Name: PosForms.frmPOS; User Code:admin
-----------------------------------------------------------------------------

 Error: Please be sure a sound file exists at the specified location.; Date & Time 16/02/2016 12:10:36; MethodName: txtItem_KeyDown; Form Name: PosForms.frmPOS; User Code:admin
-----------------------------------------------------------------------------

 Error: Please be sure a sound file exists at the specified location.; Date & Time 16/02/2016 12:10:38; MethodName: txtItem_KeyDown; Form Name: PosForms.frmPOS; User Code:admin
-----------------------------------------------------------------------------

 Error: Cannot open database "RetailposV8_KDI_JAYA_20160126" requested by the login. The login failed.
Login failed for user 'sa'.; Date & Time 16/02/2016 12:11:04; MethodName: fncBillPrint; Form Name: clsPrint; User Code:admin
-----------------------------------------------------------------------------

 Error: Object reference not set to an instance of an object.; Date & Time 16/02/2016 12:11:39; MethodName: fncCreditNotePrint; Form Name: clsPrint; User Code:admin
-----------------------------------------------------------------------------

 Error: Object reference not set to an instance of an object.; Date & Time 16/02/2016 12:12:07; MethodName: fncCreditNotePrint; Form Name: clsPrint; User Code:admin
-----------------------------------------------------------------------------

 Error: Object reference not set to an instance of an object.; Date & Time 16/02/2016 12:12:22; MethodName: fncCreditNotePrint; Form Name: clsPrint; User Code:admin
-----------------------------------------------------------------------------

 Error: Object reference not set to an instance of an object.; Date & Time 16/02/2016 12:12:50; MethodName: fncCreditNotePrint; Form Name: clsPrint; User Code:admin
-----------------------------------------------------------------------------

 Error: Violation of PRIMARY KEY constraint 'PK_tblPayModeDenaminationCur'. Cannot insert duplicate key in object 'dbo.tblPayModeDenaminationCur'.
The statement has been terminated.; Date & Time 16/02/2016 12:15:42; MethodName: fncTender; Form Name: PosForms.frmPOS; User Code:admin
-----------------------------------------------------------------------------

 Error: Please be sure a sound file exists at the specified location.; Date & Time 16/02/2016 12:24:10; MethodName: txtItem_KeyDown; Form Name: PosForms.frmPOS; User Code:admin
-----------------------------------------------------------------------------

 Error: Object reference not set to an instance of an object.; Date & Time 16/02/2016 12:25:08; MethodName: fncCreditNotePrint; Form Name: clsPrint; User Code:admin
-----------------------------------------------------------------------------

 Error: Please be sure a sound file exists at the specified location.; Date & Time 16/02/2016 12:25:29; MethodName: txtItem_KeyDown; Form Name: PosForms.frmPOS; User Code:admin
-----------------------------------------------------------------------------

 Error: Please be sure a sound file exists at the specified location.; Date & Time 16/02/2016 12:25:31; MethodName: txtItem_KeyDown; Form Name: PosForms.frmPOS; User Code:admin
-----------------------------------------------------------------------------

 Error: Please be sure a sound file exists at the specified location.; Date & Time 16/02/2016 12:25:33; MethodName: txtItem_KeyDown; Form Name: PosForms.frmPOS; User Code:admin
-----------------------------------------------------------------------------

 Error: Please be sure a sound file exists at the specified location.; Date & Time 16/02/2016 12:25:35; MethodName: txtItem_KeyDown; Form Name: PosForms.frmPOS; User Code:admin
-----------------------------------------------------------------------------

 Error: Please be sure a sound file exists at the specified location.; Date & Time 16/02/2016 12:25:35; MethodName: txtItem_KeyDown; Form Name: PosForms.frmPOS; User Code:admin
-----------------------------------------------------------------------------

 Error: Please be sure a sound file exists at the specified location.; Date & Time 16/02/2016 12:25:37; MethodName: txtItem_KeyDown; Form Name: PosForms.frmPOS; User Code:admin
-----------------------------------------------------------------------------

 Error: Please be sure a sound file exists at the specified location.; Date & Time 16/02/2016 12:25:47; MethodName: txtItem_KeyDown; Form Name: PosForms.frmPOS; User Code:admin
-----------------------------------------------------------------------------

 Error: Please be sure a sound file exists at the specified location.; Date & Time 16/02/2016 12:25:48; MethodName: txtItem_KeyDown; Form Name: PosForms.frmPOS; User Code:admin
-----------------------------------------------------------------------------

 Error: Cannot open database "RetailposV8_KDI_JAYA_20160126" requested by the login. The login failed.
Login failed for user 'sa'.; Date & Time 16/02/2016 12:26:33; MethodName: fncTender; Form Name: PosForms.frmPOS; User Code:admin
-----------------------------------------------------------------------------

 Error: Object reference not set to an instance of an object.; Date & Time 16/02/2016 12:34:29; MethodName: fncCreditNotePrint; Form Name: clsPrint; User Code:admin
-----------------------------------------------------------------------------

 Error: Object reference not set to an instance of an object.; Date & Time 16/02/2016 12:39:30; MethodName: fncCreditNotePrint; Form Name: clsPrint; User Code:admin
-----------------------------------------------------------------------------

 Error: Object reference not set to an instance of an object.; Date & Time 16/02/2016 12:39:39; MethodName: fncCreditNotePrint; Form Name: clsPrint; User Code:admin
-----------------------------------------------------------------------------

 Error: Please be sure a sound file exists at the specified location.; Date & Time 16/02/2016 12:40:30; MethodName: txtItem_KeyDown; Form Name: PosForms.frmPOS; User Code:admin
-----------------------------------------------------------------------------

 Error: Please be sure a sound file exists at the specified location.; Date & Time 16/02/2016 12:40:33; MethodName: txtItem_KeyDown; Form Name: PosForms.frmPOS; User Code:admin
-----------------------------------------------------------------------------

 Error: Please be sure a sound file exists at the specified location.; Date & Time 16/02/2016 12:40:36; MethodName: txtItem_KeyDown; Form Name: PosForms.frmPOS; User Code:admin
-----------------------------------------------------------------------------

 Error: Object reference not set to an instance of an object.; Date & Time 16/02/2016 12:46:40; MethodName: fncCreditNotePrint; Form Name: clsPrint; User Code:admin
-----------------------------------------------------------------------------

 Error: Could not find file 'C:\BillText.txt'.; Date & Time 16/02/2016 12:56:23; MethodName: pd_PrintPage; Form Name: PrinterTemplate.clsPrinterTemplate; User Code:admin
-----------------------------------------------------------------------------

 Error: Object reference not set to an instance of an object.; Date & Time 16/02/2016 12:56:23; MethodName: fncCreditNotePrint; Form Name: clsPrint; User Code:admin
-----------------------------------------------------------------------------

 Error: Could not find stored procedure 'USP_GET_DELIVERY_INVOICES'.; Date & Time 16/02/2016 13:06:38; MethodName: frmTripSheet_Load; Form Name: PosForms.frmTripSheet; User Code:C2
-----------------------------------------------------------------------------

 Error: Could not find stored procedure 'USP_GET_DELIVERY_INVOICES'.; Date & Time 16/02/2016 13:06:47; MethodName: dtpDeliveryDate_EditValueChanged; Form Name: PosForms.frmTripSheet; User Code:C2
-----------------------------------------------------------------------------

 Error: Could not find stored procedure 'USP_GET_DELIVERY_INVOICES'.; Date & Time 16/02/2016 13:06:48; MethodName: dtpDeliveryDate_EditValueChanged; Form Name: PosForms.frmTripSheet; User Code:C2
-----------------------------------------------------------------------------

 Error: Could not find stored procedure 'USP_GET_DELIVERY_INVOICES'.; Date & Time 16/02/2016 13:06:48; MethodName: dtpDeliveryDate_EditValueChanged; Form Name: PosForms.frmTripSheet; User Code:C2
-----------------------------------------------------------------------------

 Error: Could not find stored procedure 'USP_GET_DELIVERY_INVOICES'.; Date & Time 16/02/2016 13:06:48; MethodName: dtpDeliveryDate_EditValueChanged; Form Name: PosForms.frmTripSheet; User Code:C2
-----------------------------------------------------------------------------

 Error: Could not find stored procedure 'USP_GET_DELIVERY_INVOICES'.; Date & Time 16/02/2016 13:06:48; MethodName: dtpDeliveryDate_EditValueChanged; Form Name: PosForms.frmTripSheet; User Code:C2
-----------------------------------------------------------------------------

 Error: Could not find file 'C:\BillText.txt'.; Date & Time 16/02/2016 15:07:36; MethodName: pd_PrintPage; Form Name: PrinterTemplate.clsPrinterTemplate; User Code:admin
-----------------------------------------------------------------------------

 Error: Object reference not set to an instance of an object.; Date & Time 16/02/2016 15:07:36; MethodName: fncCreditNotePrint; Form Name: clsPrint; User Code:admin
-----------------------------------------------------------------------------

 Error: Timeout expired.  The timeout period elapsed prior to completion of the operation or the server is not responding.; Date & Time 16/02/2016 15:23:24; MethodName: txtItem_KeyDown; Form Name: PosForms.frmPOS; User Code:admin
-----------------------------------------------------------------------------

 Error: Object cannot be cast from DBNull to other types.; Date & Time 16/02/2016 15:30:44; MethodName: fncMember; Form Name: PrinterTemplate.clsPrinterTemplate; User Code:admin
-----------------------------------------------------------------------------

 Error: Object cannot be cast from DBNull to other types.; Date & Time 16/02/2016 15:30:44; MethodName: fncMember; Form Name: PrinterTemplate.clsPrinterTemplate; User Code:admin
-----------------------------------------------------------------------------

 Error: Could not find file 'C:\BillText.txt'.; Date & Time 16/02/2016 15:30:44; MethodName: pd_PrintPage; Form Name: PrinterTemplate.clsPrinterTemplate; User Code:admin
-----------------------------------------------------------------------------

 Error: Object cannot be cast from DBNull to other types.; Date & Time 16/02/2016 15:32:10; MethodName: fncMember; Form Name: PrinterTemplate.clsPrinterTemplate; User Code:admin
-----------------------------------------------------------------------------

 Error: Object cannot be cast from DBNull to other types.; Date & Time 16/02/2016 15:32:10; MethodName: fncMember; Form Name: PrinterTemplate.clsPrinterTemplate; User Code:admin
-----------------------------------------------------------------------------

 Error: Could not find file 'C:\BillText.txt'.; Date & Time 16/02/2016 15:32:10; MethodName: pd_PrintPage; Form Name: PrinterTemplate.clsPrinterTemplate; User Code:admin
-----------------------------------------------------------------------------

 Error: Object cannot be cast from DBNull to other types.; Date & Time 16/02/2016 15:33:02; MethodName: fncMember; Form Name: PrinterTemplate.clsPrinterTemplate; User Code:admin
-----------------------------------------------------------------------------

 Error: Object cannot be cast from DBNull to other types.; Date & Time 16/02/2016 15:33:02; MethodName: fncMember; Form Name: PrinterTemplate.clsPrinterTemplate; User Code:admin
-----------------------------------------------------------------------------

 Error: Could not find file 'C:\BillText.txt'.; Date & Time 16/02/2016 15:33:03; MethodName: pd_PrintPage; Form Name: PrinterTemplate.clsPrinterTemplate; User Code:admin
-----------------------------------------------------------------------------

 Error: 'count' must be non-negative.
Parameter name: count; Date & Time 16/02/2016 15:34:10; MethodName: fncPrint; Form Name: PrinterTemplate.clsPrinterTemplate; User Code:admin
-----------------------------------------------------------------------------

 Error: 'count' must be non-negative.
Parameter name: count; Date & Time 16/02/2016 15:34:11; MethodName: fncHeader; Form Name: PrinterTemplate.clsPrinterTemplate; User Code:admin
-----------------------------------------------------------------------------

 Error: Incorrect syntax near ','.; Date & Time 16/02/2016 15:34:11; MethodName: fncItemDetail; Form Name: PrinterTemplate.clsPrinterTemplate; User Code:admin
-----------------------------------------------------------------------------

 Error: 'count' must be non-negative.
Parameter name: count; Date & Time 16/02/2016 15:34:11; MethodName: fncTotalAndDiscount; Form Name: PrinterTemplate.clsPrinterTemplate; User Code:admin
-----------------------------------------------------------------------------

 Error: 'count' must be non-negative.
Parameter name: count; Date & Time 16/02/2016 15:34:11; MethodName: fncSettlementDenomination; Form Name: PrinterTemplate.clsPrinterTemplate; User Code:admin
-----------------------------------------------------------------------------

 Error: There is no row at position 0.; Date & Time 16/02/2016 15:34:11; MethodName: fncMember; Form Name: PrinterTemplate.clsPrinterTemplate; User Code:admin
-----------------------------------------------------------------------------

 Error: 'count' must be non-negative.
Parameter name: count; Date & Time 16/02/2016 15:34:11; MethodName: fncFooter; Form Name: PrinterTemplate.clsPrinterTemplate; User Code:admin
-----------------------------------------------------------------------------

 Error: 'count' must be non-negative.
Parameter name: count; Date & Time 16/02/2016 15:34:11; MethodName: fncPrint; Form Name: PrinterTemplate.clsPrinterTemplate; User Code:admin
-----------------------------------------------------------------------------

 Error: Please be sure a sound file exists at the specified location.; Date & Time 16/02/2016 15:34:37; MethodName: txtItem_KeyDown; Form Name: PosForms.frmPOS; User Code:admin
-----------------------------------------------------------------------------

 Error: Please be sure a sound file exists at the specified location.; Date & Time 16/02/2016 15:34:38; MethodName: txtItem_KeyDown; Form Name: PosForms.frmPOS; User Code:admin
-----------------------------------------------------------------------------

 Error: Please be sure a sound file exists at the specified location.; Date & Time 16/02/2016 15:34:39; MethodName: txtItem_KeyDown; Form Name: PosForms.frmPOS; User Code:admin
-----------------------------------------------------------------------------

 Error: Please be sure a sound file exists at the specified location.; Date & Time 16/02/2016 16:12:52; MethodName: txtItem_KeyDown; Form Name: PosForms.frmDeliveryChallan; User Code:admin
-----------------------------------------------------------------------------

 Error: Please be sure a sound file exists at the specified location.; Date & Time 16/02/2016 16:12:57; MethodName: txtItem_KeyDown; Form Name: PosForms.frmDeliveryChallan; User Code:admin
-----------------------------------------------------------------------------

 Error: Please be sure a sound file exists at the specified location.; Date & Time 16/02/2016 16:12:58; MethodName: txtItem_KeyDown; Form Name: PosForms.frmDeliveryChallan; User Code:admin
-----------------------------------------------------------------------------

 Error: Please be sure a sound file exists at the specified location.; Date & Time 16/02/2016 16:12:59; MethodName: txtItem_KeyDown; Form Name: PosForms.frmDeliveryChallan; User Code:admin
-----------------------------------------------------------------------------

 Error: Please be sure a sound file exists at the specified location.; Date & Time 16/02/2016 16:13:00; MethodName: txtItem_KeyDown; Form Name: PosForms.frmDeliveryChallan; User Code:admin
-----------------------------------------------------------------------------

 Error: Please be sure a sound file exists at the specified location.; Date & Time 16/02/2016 16:13:01; MethodName: txtItem_KeyDown; Form Name: PosForms.frmDeliveryChallan; User Code:admin
-----------------------------------------------------------------------------

 Error: Object cannot be cast from DBNull to other types.; Date & Time 16/02/2016 16:23:50; MethodName: fncMember; Form Name: PrinterTemplate.clsPrinterTemplate; User Code:admin
-----------------------------------------------------------------------------

 Error: Object cannot be cast from DBNull to other types.; Date & Time 16/02/2016 16:23:50; MethodName: fncMember; Form Name: PrinterTemplate.clsPrinterTemplate; User Code:admin
-----------------------------------------------------------------------------

 Error: Could not find file 'C:\BillText.txt'.; Date & Time 16/02/2016 16:23:51; MethodName: pd_PrintPage; Form Name: PrinterTemplate.clsPrinterTemplate; User Code:admin
-----------------------------------------------------------------------------

 Error: Object reference not set to an instance of an object.; Date & Time 16/02/2016 16:23:51; MethodName: fncCreditNotePrint; Form Name: clsPrint; User Code:admin
-----------------------------------------------------------------------------

 Error: Could not find file 'C:\BillText.txt'.; Date & Time 16/02/2016 16:53:59; MethodName: pd_PrintPage; Form Name: PrinterTemplate.clsPrinterTemplate; User Code:admin
-----------------------------------------------------------------------------

 Error: Object cannot be cast from DBNull to other types.; Date & Time 16/02/2016 16:55:17; MethodName: fncMember; Form Name: PrinterTemplate.clsPrinterTemplate; User Code:admin
-----------------------------------------------------------------------------

 Error: Object cannot be cast from DBNull to other types.; Date & Time 16/02/2016 16:55:17; MethodName: fncMember; Form Name: PrinterTemplate.clsPrinterTemplate; User Code:admin
-----------------------------------------------------------------------------

 Error: Could not find file 'C:\BillText.txt'.; Date & Time 16/02/2016 16:55:17; MethodName: pd_PrintPage; Form Name: PrinterTemplate.clsPrinterTemplate; User Code:admin
-----------------------------------------------------------------------------

 Error: Please be sure a sound file exists at the specified location.; Date & Time 16/02/2016 17:09:15; MethodName: txtItem_KeyDown; Form Name: PosForms.frmDeliveryChallan; User Code:admin
-----------------------------------------------------------------------------

 Error: Input string was not in a correct format.; Date & Time 16/02/2016 17:34:13; MethodName: gvMain_FocusedRowChanged; Form Name: PosForms.frmPOS; User Code:admin
-----------------------------------------------------------------------------

 Error: Input string was not in a correct format.; Date & Time 16/02/2016 17:34:32; MethodName: gvMain_FocusedRowChanged; Form Name: PosForms.frmPOS; User Code:admin
-----------------------------------------------------------------------------

 Error: Input string was not in a correct format.; Date & Time 16/02/2016 17:36:13; MethodName: gvMain_FocusedRowChanged; Form Name: PosForms.frmPOS; User Code:admin
-----------------------------------------------------------------------------

 Error: Could not find file 'C:\BillText.txt'.; Date & Time 16/02/2016 17:36:20; MethodName: pd_PrintPage; Form Name: PrinterTemplate.clsPrinterTemplate; User Code:admin
-----------------------------------------------------------------------------

 Error: Could not find file 'C:\BillText.txt'.; Date & Time 16/02/2016 18:00:50; MethodName: pd_PrintPage; Form Name: PrinterTemplate.clsPrinterTemplate; User Code:admin
-----------------------------------------------------------------------------

 Error: Incorrect syntax near 'C1'.
Unclosed quotation mark after the character string ')'.; Date & Time 16/02/2016 18:09:41; MethodName: txtItem_KeyDown; Form Name: PosForms.frmPOS; User Code:admin
-----------------------------------------------------------------------------

 Error: Please be sure a sound file exists at the specified location.; Date & Time 16/02/2016 19:51:22; MethodName: txtItem_KeyDown; Form Name: PosForms.frmDeliveryChallan; User Code:admin
-----------------------------------------------------------------------------

 Error: Error in File C:\Users\UPS-TT~1\AppData\Local\Temp\rptEstimation {29AD6701-636F-404B-86D7-C8E496BFED0D}.rpt:
Query Engine Error; Date & Time 16/02/2016 20:09:00; MethodName: frmInVoiceReport_Load; Form Name: PosForms.frmInvoiceReport; User Code:admin
-----------------------------------------------------------------------------

 Error: Object reference not set to an instance of an object.; Date & Time 16/02/2016 20:09:01; MethodName: fncCreditNotePrint; Form Name: clsPrint; User Code:admin
-----------------------------------------------------------------------------

 Error: Error in File C:\Users\UPS-TT~1\AppData\Local\Temp\rptEstimation {5AC66C38-115B-4979-8BCD-A8EC96EBD1B0}.rpt:
Query Engine Error; Date & Time 16/02/2016 20:09:03; MethodName: frmInVoiceReport_Load; Form Name: PosForms.frmInvoiceReport; User Code:admin
-----------------------------------------------------------------------------

 Error: Object reference not set to an instance of an object.; Date & Time 16/02/2016 20:09:06; MethodName: fncCreditNotePrint; Form Name: clsPrint; User Code:admin
-----------------------------------------------------------------------------

 Error: Error in File C:\Users\UPS-TT~1\AppData\Local\Temp\rptEstimation {86431C74-81E5-4CAE-B44A-1B986CA062EE}.rpt:
Unable to connect: incorrect log on parameters.; Date & Time 16/02/2016 20:10:08; MethodName: frmInVoiceReport_Load; Form Name: PosForms.frmInvoiceReport; User Code:admin
-----------------------------------------------------------------------------

 Error: Object reference not set to an instance of an object.; Date & Time 16/02/2016 20:10:10; MethodName: fncCreditNotePrint; Form Name: clsPrint; User Code:admin
-----------------------------------------------------------------------------

 Error: Error in File C:\Users\UPS-TT~1\AppData\Local\Temp\rptEstimation {1A671DD0-97D0-4EF3-B933-0BF8E8D07062}.rpt:
Unable to connect: incorrect log on parameters.; Date & Time 16/02/2016 20:10:12; MethodName: frmInVoiceReport_Load; Form Name: PosForms.frmInvoiceReport; User Code:admin
-----------------------------------------------------------------------------

 Error: Object reference not set to an instance of an object.; Date & Time 16/02/2016 20:10:14; MethodName: fncCreditNotePrint; Form Name: clsPrint; User Code:admin
-----------------------------------------------------------------------------

 Error: Error in File C:\Users\UPS-TT~1\AppData\Local\Temp\rptEstimation {C56312BE-27A6-42EB-AAB2-EBACC33ABE41}.rpt:
Unable to connect: incorrect log on parameters.; Date & Time 16/02/2016 20:11:56; MethodName: frmInVoiceReport_Load; Form Name: PosForms.frmInvoiceReport; User Code:admin
-----------------------------------------------------------------------------

 Error: Error in File C:\Users\UPS-TT~1\AppData\Local\Temp\rptEstimation {94FE7627-5987-4CD2-8BB7-5B55332A0F38}.rpt:
Unable to connect: incorrect log on parameters.; Date & Time 16/02/2016 20:19:24; MethodName: frmInVoiceReport_Load; Form Name: PosForms.frmInvoiceReport; User Code:admin
-----------------------------------------------------------------------------

 Error: Object reference not set to an instance of an object.; Date & Time 16/02/2016 20:19:26; MethodName: fncCreditNotePrint; Form Name: clsPrint; User Code:admin
-----------------------------------------------------------------------------

 Error: Error in File C:\Users\UPS-TT~1\AppData\Local\Temp\rptEstimation {35F859A0-7560-4E89-ADA0-DC9D39C1164D}.rpt:
Unable to connect: incorrect log on parameters.; Date & Time 16/02/2016 20:24:38; MethodName: frmInVoiceReport_Load; Form Name: PosForms.frmInvoiceReport; User Code:admin
-----------------------------------------------------------------------------
