
 Error: Cannot find the object "TBL_WEIGHING_MACHINE_SETTINGS" because it does not exist or you do not have permissions.; Date & Time 26/11/2021 16:35:04; MethodName: TBL_WEIGHING_MACHINE_SETTINGS; Form Name: Download ; User Code:SASI
-----------------------------------------------------------------------------

 Error: Cannot find the object "TBL_WEIGHING_MACHINE_SETTINGS" because it does not exist or you do not have permissions.; Date & Time 26/11/2021 16:46:31; MethodName: TBL_WEIGHING_MACHINE_SETTINGS; Form Name: Download ; User Code:SASI
-----------------------------------------------------------------------------

 Error: Cannot find the object "TBL_AUDIT_MASTER" because it does not exist or you do not have permissions.; Date & Time 26/11/2021 18:02:09; MethodName: TBL_AUDIT_MASTER; Form Name: Download ; User Code:SASI
-----------------------------------------------------------------------------

 Error: Cannot find the object "TBL_MASTER_CODE_CONTROL" because it does not exist or you do not have permissions.; Date & Time 26/11/2021 18:07:44; MethodName: TBL_MASTER_CODE_CONTROL; Form Name: Download ; User Code:SASI
-----------------------------------------------------------------------------
