
 Error: The SMTP server requires a secure connection or the client was not authenticated. The server response was: 5.7.0 Authentication Required. Learn more at; Date & Time 11-06-2021 11:18:32; MethodName: fncSendMail; Form Name: RetailPointofSale.frmLogOn; User Code:
-----------------------------------------------------------------------------
