
 Error: method=getCustomerOffers&data={
  "businessId": "30537638",
  "customer_number": "9962282507",
  "pageType": "register",
  "generateOtp": "Y"
}; Date & Time 22-05-2021 14:25:43; MethodName: Request; Form Name: CRM upload Get Offers; User Code:admin
-----------------------------------------------------------------------------

 Error: {"status":"success","message":"get offers data","customerName":"Vijay ","customerNumber":"9962282507","loyalty":{},"offers":[],"membership":[]}; Date & Time 22-05-2021 14:25:44; MethodName: Response; Form Name: CRM upload; User Code:admin
-----------------------------------------------------------------------------

 Error: method=getCustomerOffers&data={
  "businessId": "30537638",
  "customer_number": "9952033449",
  "pageType": "register",
  "generateOtp": "Y"
}; Date & Time 22-05-2021 14:34:00; MethodName: Request; Form Name: CRM upload Get Offers; User Code:admin
-----------------------------------------------------------------------------

 Error: {"status":"success","message":"get offers data","customerName":"VIJAY\/PARVATHI  ","customerNumber":"9952033449","loyalty":{},"offers":[],"membership":[]}; Date & Time 22-05-2021 14:34:01; MethodName: Response; Form Name: CRM upload; User Code:admin
-----------------------------------------------------------------------------

 Error: Index was outside the bounds of the array.; Date & Time 22-05-2021 14:57:45; MethodName: fncCommondetail; Form Name: PrinterTemplate.clsSettlement; User Code:admin
-----------------------------------------------------------------------------

 Error: Could not find stored procedure 'USP_GET_SALES_SETTLEMENT'.; Date & Time 22-05-2021 14:57:52; MethodName: fncCashDetails; Form Name: PrinterTemplate.clsSettlement; User Code:admin
-----------------------------------------------------------------------------

 Error: Index was outside the bounds of the array.; Date & Time 22-05-2021 18:13:55; MethodName: fncCommondetail; Form Name: PrinterTemplate.clsSettlement; User Code:admin
-----------------------------------------------------------------------------

 Error: Index was outside the bounds of the array.; Date & Time 22-05-2021 18:18:41; MethodName: fncCommondetail; Form Name: PrinterTemplate.clsSettlement; User Code:admin
-----------------------------------------------------------------------------

 Error: Index was outside the bounds of the array.; Date & Time 22-05-2021 18:30:06; MethodName: fncCommondetail; Form Name: PrinterTemplate.clsSettlement; User Code:admin
-----------------------------------------------------------------------------
