
 Error: Error in File C:\Users\chida\AppData\Local\Temp\rpt40ColumBill {0A2E9EB7-7C64-4B81-9565-19480D7B19F3}.rpt:
The rowset column could not be found.; Date & Time 24/05/2019 9:45:10; MethodName: frmInVoiceReport_Load; Form Name: PosForms.frmInvoiceReport; User Code:admin
-----------------------------------------------------------------------------

 Error: Error in File C:\Users\chida\AppData\Local\Temp\rpt40ColumBill {68697E9D-C672-429B-937F-2A38D9353D0D}.rpt:
The rowset column could not be found.; Date & Time 24/05/2019 10:11:35; MethodName: frmInVoiceReport_Load; Form Name: PosForms.frmInvoiceReport; User Code:admin
-----------------------------------------------------------------------------
