
 Error: ; Date & Time 14-05-2021 11:15:01; MethodName: btnAdd_Click; Form Name: D; User Code:admin
-----------------------------------------------------------------------------

 Error: ; Date & Time 14-05-2021 11:15:03; MethodName: btnAdd_Click; Form Name: E; User Code:admin
-----------------------------------------------------------------------------

 Error: ; Date & Time 14-05-2021 11:15:04; MethodName: fncAddToGrid; Form Name: F; User Code:admin
-----------------------------------------------------------------------------

 Error: ; Date & Time 14-05-2021 11:15:05; MethodName: fncAddToGrid; Form Name: G; User Code:admin
-----------------------------------------------------------------------------

 Error: ; Date & Time 14-05-2021 11:15:07; MethodName: fncAddToGrid; Form Name: H; User Code:admin
-----------------------------------------------------------------------------

 Error: ; Date & Time 14-05-2021 11:15:09; MethodName: btnAdd_Click; Form Name: I; User Code:admin
-----------------------------------------------------------------------------

 Error: ; Date & Time 14-05-2021 11:15:09; MethodName: btnAdd_Click; Form Name: 0.00; User Code:admin
-----------------------------------------------------------------------------

 Error: ; Date & Time 14-05-2021 11:15:11; MethodName: btnAdd_Click; Form Name: M; User Code:admin
-----------------------------------------------------------------------------
