
 Error: The system cannot find the file specified; Date & Time 24-09-2021 15:30:45; MethodName: frmShiftLogin_Load; Form Name: PosForms.frmShiftLogin; User Code:admin
-----------------------------------------------------------------------------
