
 Error: Keyword not supported: 'ecqbzzqatrmtwnphmy8ltort7dr3sfbjg8tkk/+ihxwzuydata source'.; Date & Time 05/01/2022 13:05:30; MethodName: btnLogOn_Click; Form Name: RetailPointofSale.frmLogOn; User Code:
-----------------------------------------------------------------------------

 Error: Keyword not supported: 'ecqbzzqatrmtwnphmy8ltort7dr3sfbjg8tkk/+ihxwzuydata source'.; Date & Time 05/01/2022 13:07:34; MethodName: btnLogOn_Click; Form Name: RetailPointofSale.frmLogOn; User Code:
-----------------------------------------------------------------------------

 Error: Keyword not supported: 'ecqbzzqatrmtwnphmy8ltort7dr3sfbjg8tkk/+ihxwzuydata source'.; Date & Time 05/01/2022 13:08:22; MethodName: btnLogOn_Click; Form Name: RetailPointofSale.frmLogOn; User Code:
-----------------------------------------------------------------------------

 Error: Invalid object name 'tbl_pos_sales_header'.; Date & Time 05/01/2022 13:18:56; MethodName: btnLogOn_Click; Form Name: RetailPointofSale.frmLogOn; User Code:admin
-----------------------------------------------------------------------------

 Error: Cannot open database "StandAloneDP" requested by the login. The login failed.
Login failed for user 'sa'.; Date & Time 05/01/2022 14:48:51; MethodName: fncDownloadStandAloneData; Form Name: clsDataMovingMaster; User Code:admin
-----------------------------------------------------------------------------

 Error: Cannot open database "StandAloneDP" requested by the login. The login failed.
Login failed for user 'sa'.; Date & Time 05/01/2022 14:49:03; MethodName: btnLogOn_Click; Form Name: RetailPointofSale.frmLogOn; User Code:admin
-----------------------------------------------------------------------------

 Error: Input string was not in a correct format.; Date & Time 05/01/2022 18:19:33; MethodName: fncLoadSelectedCustomer; Form Name: PosForms.frmCustomerSearch; User Code:NAGARAJ
-----------------------------------------------------------------------------

 Error: Input string was not in a correct format.; Date & Time 05/01/2022 18:46:28; MethodName: txtQty_KeyDown; Form Name: PosForms.frmPOS; User Code:NAGARAJ
-----------------------------------------------------------------------------
