
 Error: The port is closed.; Date & Time 17-05-2022 10:17:46; MethodName: fncSetWeightzero; Form Name: PosForms.frmPOS; User Code:admin
-----------------------------------------------------------------------------

 Error: Input string was not in a correct format.; Date & Time 17-05-2022 10:46:38; MethodName: gvMain_FocusedRowChanged; Form Name: PosForms.frmPOS; User Code:admin
-----------------------------------------------------------------------------

 Error: The port is closed.; Date & Time 17-05-2022 10:47:27; MethodName: fncSetWeightzero; Form Name: PosForms.frmPOS; User Code:admin
-----------------------------------------------------------------------------

 Error: There is no row at position 0.; Date & Time 17-05-2022 10:48:17; MethodName: fncTerminalDetails; Form Name: PrinterTemplate.clsSettlement; User Code:admin
-----------------------------------------------------------------------------

 Error: Input string was not in a correct format.; Date & Time 17-05-2022 10:50:55; MethodName: gvMain_FocusedRowChanged; Form Name: PosForms.frmPOS; User Code:admin
-----------------------------------------------------------------------------

 Error: The port is closed.; Date & Time 17-05-2022 10:51:05; MethodName: fncSetWeightzero; Form Name: PosForms.frmPOS; User Code:admin
-----------------------------------------------------------------------------

 Error: The port is closed.; Date & Time 17-05-2022 10:51:10; MethodName: fncSetWeightzero; Form Name: PosForms.frmPOS; User Code:admin
-----------------------------------------------------------------------------

 Error: Input string was not in a correct format.; Date & Time 17-05-2022 10:51:51; MethodName: gvMain_FocusedRowChanged; Form Name: PosForms.frmPOS; User Code:admin
-----------------------------------------------------------------------------

 Error: The port is closed.; Date & Time 17-05-2022 10:52:04; MethodName: fncSetWeightzero; Form Name: PosForms.frmPOS; User Code:admin
-----------------------------------------------------------------------------

 Error: Input string was not in a correct format.; Date & Time 17-05-2022 10:53:04; MethodName: gvMain_FocusedRowChanged; Form Name: PosForms.frmPOS; User Code:admin
-----------------------------------------------------------------------------

 Error: The port is closed.; Date & Time 17-05-2022 10:55:09; MethodName: fncSetWeightzero; Form Name: PosForms.frmPOS; User Code:admin
-----------------------------------------------------------------------------

 Error: The port is closed.; Date & Time 17-05-2022 12:03:27; MethodName: fncSetWeightzero; Form Name: PosForms.frmPOS; User Code:admin
-----------------------------------------------------------------------------

 Error: Error in File C:\Users\UNIPRO\AppData\Local\Temp\rpt40ColumBillWholeSaleUOMwise {7FDF1102-3B54-4308-8356-52ECAD60C43B}.rpt:
Failed to open a rowset.; Date & Time 17-05-2022 12:05:38; MethodName: frmInVoiceReport_Load; Form Name: PosForms.frmInvoiceReport; User Code:admin
-----------------------------------------------------------------------------

 Error: Error in File C:\Users\UNIPRO\AppData\Local\Temp\rpt40ColumBillWholeSaleUOMwise {7946A04D-6597-4E87-BA33-14A6836DBFC0}.rpt:
Failed to open a rowset.; Date & Time 17-05-2022 12:13:10; MethodName: frmInVoiceReport_Load; Form Name: PosForms.frmInvoiceReport; User Code:admin
-----------------------------------------------------------------------------

 Error: The port is closed.; Date & Time 17-05-2022 13:06:23; MethodName: fncSetWeightzero; Form Name: PosForms.frmPOS; User Code:admin
-----------------------------------------------------------------------------

 Error: Error in File C:\Users\UNIPRO\AppData\Local\Temp\rpt40ColumBillWholeSaleUOMwise {A049E60C-00E7-4C9E-B107-00004711C2E1}.rpt:
Failed to open a rowset.; Date & Time 17-05-2022 13:08:42; MethodName: frmInVoiceReport_Load; Form Name: PosForms.frmInvoiceReport; User Code:admin
-----------------------------------------------------------------------------

 Error: The port is closed.; Date & Time 17-05-2022 13:08:47; MethodName: fncSetWeightzero; Form Name: PosForms.frmPOS; User Code:admin
-----------------------------------------------------------------------------

 Error: The port is closed.; Date & Time 17-05-2022 13:08:52; MethodName: fncSetWeightzero; Form Name: PosForms.frmPOS; User Code:admin
-----------------------------------------------------------------------------

 Error: Index and length must refer to a location within the string.
Parameter name: length; Date & Time 17-05-2022 13:09:28; MethodName: fncMember; Form Name: PrinterTemplate.clsPrinterTemplate; User Code:admin
-----------------------------------------------------------------------------

 Error: The port is closed.; Date & Time 17-05-2022 15:56:01; MethodName: fncSetWeightzero; Form Name: PosForms.frmPOS; User Code:admin
-----------------------------------------------------------------------------

 Error: Index and length must refer to a location within the string.
Parameter name: length; Date & Time 17-05-2022 16:48:32; MethodName: fncMember; Form Name: PrinterTemplate.clsPrinterTemplate; User Code:admin
-----------------------------------------------------------------------------

 Error: Index and length must refer to a location within the string.
Parameter name: length; Date & Time 17-05-2022 16:58:31; MethodName: fncMember; Form Name: PrinterTemplate.clsPrinterTemplate; User Code:admin
-----------------------------------------------------------------------------

 Error: Index and length must refer to a location within the string.
Parameter name: length; Date & Time 17-05-2022 17:36:54; MethodName: fncMember; Form Name: PrinterTemplate.clsPrinterTemplate; User Code:admin
-----------------------------------------------------------------------------

 Error: The port is closed.; Date & Time 17-05-2022 17:38:26; MethodName: fncSetWeightzero; Form Name: PosForms.frmPOS; User Code:admin
-----------------------------------------------------------------------------

 Error: Index and length must refer to a location within the string.
Parameter name: length; Date & Time 17-05-2022 17:44:23; MethodName: fncMember; Form Name: PrinterTemplate.clsPrinterTemplate; User Code:admin
-----------------------------------------------------------------------------

 Error: Index and length must refer to a location within the string.
Parameter name: length; Date & Time 17-05-2022 17:52:04; MethodName: fncMember; Form Name: PrinterTemplate.clsPrinterTemplate; User Code:admin
-----------------------------------------------------------------------------

 Error: Index and length must refer to a location within the string.
Parameter name: length; Date & Time 17-05-2022 17:52:24; MethodName: fncMember; Form Name: PrinterTemplate.clsPrinterTemplate; User Code:admin
-----------------------------------------------------------------------------

 Error: The port is closed.; Date & Time 17-05-2022 17:53:00; MethodName: fncSetWeightzero; Form Name: PosForms.frmPOS; User Code:admin
-----------------------------------------------------------------------------

 Error: Index and length must refer to a location within the string.
Parameter name: length; Date & Time 17-05-2022 17:53:44; MethodName: fncMember; Form Name: PrinterTemplate.clsPrinterTemplate; User Code:admin
-----------------------------------------------------------------------------

 Error: The port is closed.; Date & Time 17-05-2022 17:54:33; MethodName: fncSetWeightzero; Form Name: PosForms.frmPOS; User Code:admin
-----------------------------------------------------------------------------

 Error: Index and length must refer to a location within the string.
Parameter name: length; Date & Time 17-05-2022 18:00:04; MethodName: fncMember; Form Name: PrinterTemplate.clsPrinterTemplate; User Code:admin
-----------------------------------------------------------------------------
