
 Error: Length cannot be less than zero.
Parameter name: length; Date & Time 05/09/2019 10:57:55; MethodName: fncPaymentOnline; Form Name: PosForms.frmCurrencyPopup; User Code:admin
-----------------------------------------------------------------------------

 Error: Length cannot be less than zero.
Parameter name: length; Date & Time 05/09/2019 10:59:11; MethodName: fncPaymentOnline; Form Name: PosForms.frmCurrencyPopup; User Code:admin
-----------------------------------------------------------------------------

 Error: Column 'AreaCode' does not belong to table .; Date & Time 05/09/2019 11:31:29; MethodName: fncLoadSelectedCustomer; Form Name: PosForms.frmCustomerSearch; User Code:admin
-----------------------------------------------------------------------------

 Error: Length cannot be less than zero.
Parameter name: length; Date & Time 05/09/2019 11:31:52; MethodName: fncPaymentOnline; Form Name: PosForms.frmCreditCardPopup; User Code:admin
-----------------------------------------------------------------------------

 Error: Column 'AreaCode' does not belong to table .; Date & Time 05/09/2019 11:32:47; MethodName: fncLoadSelectedCustomer; Form Name: PosForms.frmCustomerSearch; User Code:admin
-----------------------------------------------------------------------------

 Error: Column 'AreaCode' does not belong to table .; Date & Time 05/09/2019 11:37:20; MethodName: fncLoadSelectedCustomer; Form Name: PosForms.frmCustomerSearch; User Code:admin
-----------------------------------------------------------------------------

 Error: A network-related or instance-specific error occurred while establishing a connection to SQL Server. The server was not found or was not accessible. Verify that the instance name is correct and that SQL Server is configured to allow remote connections. (provider: Named Pipes Provider, error: 40 - Could not open a connection to SQL Server); Date & Time 05/09/2019 17:12:54; MethodName: frmLogOn_Shown; Form Name: RetailPointofSale.frmLogOn; User Code:
-----------------------------------------------------------------------------
