
 Error: Could not find stored procedure 'USP_SHIFT_DELETE_LOG'.; Date & Time 19-03-2021 13:14:43; MethodName: frmPOSSales; Form Name: PosForms.frmMain; User Code:admin
-----------------------------------------------------------------------------

 Error: Invalid object name 'TBL_POS_SHIFT_DELETE'.; Date & Time 19-03-2021 13:15:39; MethodName: frmPOSSales; Form Name: PosForms.frmMain; User Code:admin
-----------------------------------------------------------------------------

 Error: Load report failed.; Date & Time 19-03-2021 14:42:08; MethodName: frmInVoiceReport_Load; Form Name: PosForms.frmInvoiceReport; User Code:admin
-----------------------------------------------------------------------------

 Error: Load report failed.; Date & Time 19-03-2021 16:06:07; MethodName: frmInVoiceReport_Load; Form Name: PosForms.frmInvoiceReport; User Code:admin
-----------------------------------------------------------------------------
