
 Error: Day End updated successfully; Date & Time 25/07/2019 11:25:10; MethodName: getExecuteSPTransactions; Form Name: System.Data.SqlClient.SqlException; User Code:admin
-----------------------------------------------------------------------------

 Error: Cannot open database "EntrepriserV8_VVMART" requested by the login. The login failed.
Login failed for user 'sa'.; Date & Time 25/07/2019 15:47:09; MethodName: frmLogOn_Shown; Form Name: RetailPointofSale.frmLogOn; User Code:
-----------------------------------------------------------------------------

 Error: Cannot open database "EntrepriserV8_VVMART" requested by the login. The login failed.
Login failed for user 'sa'.; Date & Time 25/07/2019 15:47:52; MethodName: frmLogOn_Shown; Form Name: RetailPointofSale.frmLogOn; User Code:
-----------------------------------------------------------------------------

 Error: Cannot open database "EntrepriserV8_VVMART" requested by the login. The login failed.
Login failed for user 'sa'.; Date & Time 25/07/2019 15:50:17; MethodName: frmLogOn_Shown; Form Name: RetailPointofSale.frmLogOn; User Code:
-----------------------------------------------------------------------------

 Error: Cannot open database "EntrepriserV8_VVMART" requested by the login. The login failed.
Login failed for user 'sa'.; Date & Time 25/07/2019 15:50:31; MethodName: btnLogOn_Click; Form Name: RetailPointofSale.frmLogOn; User Code:
-----------------------------------------------------------------------------

 Error: Cannot open database "EntrepriserV8_VVMART" requested by the login. The login failed.
Login failed for user 'sa'.; Date & Time 25/07/2019 15:50:38; MethodName: btnLogOn_Click; Form Name: RetailPointofSale.frmLogOn; User Code:
-----------------------------------------------------------------------------

 Error: String or binary data would be truncated.
The statement has been terminated.; Date & Time 25/07/2019 15:53:30; MethodName: Bill Save; Form Name: USP_SET_SALES_HEADER; User Code:admin
-----------------------------------------------------------------------------

 Error: String or binary data would be truncated.
The statement has been terminated.; Date & Time 25/07/2019 15:53:33; MethodName: fncTender; Form Name: PosForms.frmPOS; User Code:admin
-----------------------------------------------------------------------------

 Error: Load report failed.; Date & Time 25/07/2019 16:06:31; MethodName: frmInVoiceReport_Load; Form Name: PosForms.frmInvoiceReport; User Code:admin
-----------------------------------------------------------------------------

 Error: String or binary data would be truncated.
The statement has been terminated.; Date & Time 25/07/2019 16:06:51; MethodName: Bill Save; Form Name: USP_SET_SALES_HEADER; User Code:admin
-----------------------------------------------------------------------------

 Error: String or binary data would be truncated.
The statement has been terminated.; Date & Time 25/07/2019 16:06:53; MethodName: fncTender; Form Name: PosForms.frmPOS; User Code:admin
-----------------------------------------------------------------------------

 Error: String or binary data would be truncated.
The statement has been terminated.; Date & Time 25/07/2019 16:06:55; MethodName: Bill Save; Form Name: USP_SET_SALES_HEADER; User Code:admin
-----------------------------------------------------------------------------

 Error: String or binary data would be truncated.
The statement has been terminated.; Date & Time 25/07/2019 16:06:58; MethodName: fncTender; Form Name: PosForms.frmPOS; User Code:admin
-----------------------------------------------------------------------------

 Error: String or binary data would be truncated.
The statement has been terminated.; Date & Time 25/07/2019 16:07:08; MethodName: Bill Save; Form Name: USP_SET_SALES_HEADER; User Code:admin
-----------------------------------------------------------------------------

 Error: String or binary data would be truncated.
The statement has been terminated.; Date & Time 25/07/2019 16:07:09; MethodName: fncTender; Form Name: PosForms.frmPOS; User Code:admin
-----------------------------------------------------------------------------

 Error: Index was outside the bounds of the array.; Date & Time 25/07/2019 16:13:03; MethodName: fncCommondetail; Form Name: PrinterTemplate.clsSettlement; User Code:admin
-----------------------------------------------------------------------------

 Error: Could not find stored procedure 'USP_GET_SALES_SETTLEMENT'.; Date & Time 25/07/2019 16:13:19; MethodName: fncCashDetails; Form Name: PrinterTemplate.clsSettlement; User Code:admin
-----------------------------------------------------------------------------

 Error: Could not find stored procedure 'USP_GET_SALES_SETTLEMENT'.; Date & Time 25/07/2019 16:14:42; MethodName: fncCashDetails; Form Name: PrinterTemplate.clsSettlement; User Code:admin
-----------------------------------------------------------------------------
