
 Error: Column 'CUST_TOTAL_ECO_POINTS' does not belong to table .; Date & Time 25/05/2019 11:19:11; MethodName: fncLoadSelectedCustomer; Form Name: PosForms.frmCustomerSearch; User Code:admin
-----------------------------------------------------------------------------

 Error: Object reference not set to an instance of an object.; Date & Time 25/05/2019 11:20:24; MethodName: btnEdit_Click; Form Name: PosForms.frmCustomerSearch; User Code:admin
-----------------------------------------------------------------------------

 Error: Column 'CUST_TOTAL_ECO_POINTS' does not belong to table .; Date & Time 25/05/2019 11:20:34; MethodName: fncReloadCustomer; Form Name: PosForms.frmCustomer; User Code:admin
-----------------------------------------------------------------------------

 Error: Column 'CUST_TOTAL_ECO_POINTS' does not belong to table .; Date & Time 25/05/2019 11:24:09; MethodName: fncReloadCustomer; Form Name: PosForms.frmCustomer; User Code:admin
-----------------------------------------------------------------------------

 Error: Column 'CUST_TOTAL_ECO_POINTS' does not belong to table .; Date & Time 25/05/2019 11:28:21; MethodName: fncReloadCustomer; Form Name: PosForms.frmCustomer; User Code:admin
-----------------------------------------------------------------------------

 Error: Object reference not set to an instance of an object.; Date & Time 25/05/2019 11:57:18; MethodName: txtCustomerCode_KeyDown; Form Name: PosForms.frmCustomerSearch; User Code:admin
-----------------------------------------------------------------------------

 Error: Column 'CUST_TOTAL_ECO_POINTS' does not belong to table .; Date & Time 25/05/2019 12:05:54; MethodName: fncLoadSelectedCustomer; Form Name: PosForms.frmCustomerSearch; User Code:admin
-----------------------------------------------------------------------------

 Error: Column 'CUST_TOTAL_ECO_POINTS' does not belong to table .; Date & Time 25/05/2019 12:07:43; MethodName: fncReloadCustomer; Form Name: PosForms.frmCustomer; User Code:admin
-----------------------------------------------------------------------------

 Error: Column 'CUST_TOTAL_ECO_POINTS' does not belong to table .; Date & Time 25/05/2019 12:08:54; MethodName: fncReloadCustomer; Form Name: PosForms.frmCustomer; User Code:admin
-----------------------------------------------------------------------------

 Error: Error converting data type nvarchar to numeric.; Date & Time 25/05/2019 12:12:43; MethodName: Bill Save; Form Name: ; User Code:admin
-----------------------------------------------------------------------------

 Error: Error converting data type nvarchar to numeric.; Date & Time 25/05/2019 12:12:50; MethodName: Bill Save; Form Name: ; User Code:admin
-----------------------------------------------------------------------------

 Error: Error converting data type nvarchar to numeric.; Date & Time 25/05/2019 12:13:03; MethodName: Bill Save; Form Name: ; User Code:admin
-----------------------------------------------------------------------------

 Error: Timeout expired.  The timeout period elapsed prior to completion of the operation or the server is not responding.; Date & Time 25/05/2019 12:18:48; MethodName: frmRecallPOSActivities_Load; Form Name: PosForms.frmRecallPOSActivities; User Code:admin
-----------------------------------------------------------------------------

 Error: Object reference not set to an instance of an object.; Date & Time 25/05/2019 12:20:39; MethodName: fncLoadSelectedCustomer; Form Name: PosForms.frmCustomerSearch; User Code:admin
-----------------------------------------------------------------------------

 Error: Column 'CUST_TOTAL_ECO_POINTS' does not belong to table .; Date & Time 25/05/2019 12:20:55; MethodName: fncReloadCustomer; Form Name: PosForms.frmCustomer; User Code:admin
-----------------------------------------------------------------------------

 Error: Column 'CUST_TOTAL_ECO_POINTS' does not belong to table .; Date & Time 25/05/2019 12:36:02; MethodName: fncReloadCustomer; Form Name: PosForms.frmCustomer; User Code:admin
-----------------------------------------------------------------------------

 Error: Column 'CUST_TOTAL_ECO_POINTS' does not belong to table .; Date & Time 25/05/2019 12:36:34; MethodName: fncReloadCustomer; Form Name: PosForms.frmCustomer; User Code:admin
-----------------------------------------------------------------------------
