
 Error: Load report failed.; Date & Time 03/12/2022 11:11:07; MethodName: frmInVoiceReport_Load; Form Name: PosForms.frmInvoiceReport; User Code:admin
-----------------------------------------------------------------------------
