
 Error: Column 'AreaCode' does not belong to table .; Date & Time 29/06/2019 10:38:58; MethodName: fncLoadSelectedCustomer; Form Name: PosForms.frmCustomerSearch; User Code:admin
-----------------------------------------------------------------------------

 Error: Column 'AreaCode' does not belong to table .; Date & Time 29/06/2019 10:49:09; MethodName: fncLoadSelectedCustomer; Form Name: PosForms.frmCustomerSearch; User Code:admin
-----------------------------------------------------------------------------

 Error: Deleted row information cannot be accessed through the row.; Date & Time 29/06/2019 10:51:51; MethodName: gvMain_FocusedRowChanged; Form Name: PosForms.frmPOS; User Code:admin
-----------------------------------------------------------------------------

 Error: Deleted row information cannot be accessed through the row.; Date & Time 29/06/2019 10:51:59; MethodName: gvMain_FocusedRowChanged; Form Name: PosForms.frmPOS; User Code:admin
-----------------------------------------------------------------------------

 Error: Column 'AreaCode' does not belong to table .; Date & Time 29/06/2019 10:52:40; MethodName: fncLoadSelectedCustomer; Form Name: PosForms.frmCustomerSearch; User Code:admin
-----------------------------------------------------------------------------

 Error: Subquery returned more than 1 value. This is not permitted when the subquery follows =, !=, <, <= , >, >= or when the subquery is used as an expression.
Cannot insert the value NULL into column 'PPD_PPH_SEQ', table 'EnterpriserV8_Lates.dbo.TBL_POS_PAYMODE_DETAIL'; column does not allow nulls. INSERT fails.
The statement has been terminated.; Date & Time 29/06/2019 10:59:20; MethodName: Bill Save; Form Name: [USP_SET_PAYMODE_DETAIL]; User Code:admin
-----------------------------------------------------------------------------

 Error: Column 'MasterDiscount' does not belong to table .; Date & Time 29/06/2019 15:50:40; MethodName: txtPrice_KeyDown; Form Name: PosForms.frmPOS; User Code:admin
-----------------------------------------------------------------------------

 Error: Column 'MasterDiscount' does not belong to table .; Date & Time 29/06/2019 15:50:41; MethodName: txtPrice_KeyDown; Form Name: PosForms.frmPOS; User Code:admin
-----------------------------------------------------------------------------

 Error: Column 'MasterDiscount' does not belong to table .; Date & Time 29/06/2019 15:50:43; MethodName: txtPrice_KeyDown; Form Name: PosForms.frmPOS; User Code:admin
-----------------------------------------------------------------------------

 Error: Column 'MasterDiscount' does not belong to table .; Date & Time 29/06/2019 15:50:44; MethodName: txtPrice_KeyDown; Form Name: PosForms.frmPOS; User Code:admin
-----------------------------------------------------------------------------

 Error: Column 'MasterDiscount' does not belong to table .; Date & Time 29/06/2019 15:57:03; MethodName: txtPrice_KeyDown; Form Name: PosForms.frmPOS; User Code:admin
-----------------------------------------------------------------------------

 Error: Column 'MasterDiscount' does not belong to table .; Date & Time 29/06/2019 15:57:07; MethodName: txtPrice_KeyDown; Form Name: PosForms.frmPOS; User Code:admin
-----------------------------------------------------------------------------

 Error: Column 'MasterDiscount' does not belong to table .; Date & Time 29/06/2019 15:57:07; MethodName: txtPrice_KeyDown; Form Name: PosForms.frmPOS; User Code:admin
-----------------------------------------------------------------------------

 Error: Column 'MasterDiscount' does not belong to table .; Date & Time 29/06/2019 15:57:08; MethodName: txtPrice_KeyDown; Form Name: PosForms.frmPOS; User Code:admin
-----------------------------------------------------------------------------

 Error: Column 'MasterDiscount' does not belong to table .; Date & Time 29/06/2019 15:57:08; MethodName: txtPrice_KeyDown; Form Name: PosForms.frmPOS; User Code:admin
-----------------------------------------------------------------------------

 Error: Column 'MasterDiscount' does not belong to table .; Date & Time 29/06/2019 15:57:08; MethodName: txtPrice_KeyDown; Form Name: PosForms.frmPOS; User Code:admin
-----------------------------------------------------------------------------

 Error: Column 'MasterDiscount' does not belong to table .; Date & Time 29/06/2019 15:57:08; MethodName: txtPrice_KeyDown; Form Name: PosForms.frmPOS; User Code:admin
-----------------------------------------------------------------------------

 Error: Column 'MasterDiscount' does not belong to table .; Date & Time 29/06/2019 15:57:17; MethodName: txtPrice_KeyDown; Form Name: PosForms.frmPOS; User Code:admin
-----------------------------------------------------------------------------

 Error: Column 'MasterDiscount' does not belong to table .; Date & Time 29/06/2019 15:57:31; MethodName: txtPrice_KeyDown; Form Name: PosForms.frmPOS; User Code:admin
-----------------------------------------------------------------------------

 Error: Column 'MasterDiscount' does not belong to table .; Date & Time 29/06/2019 15:57:32; MethodName: txtPrice_KeyDown; Form Name: PosForms.frmPOS; User Code:admin
-----------------------------------------------------------------------------

 Error: Column 'MasterDiscount' does not belong to table .; Date & Time 29/06/2019 15:57:32; MethodName: txtPrice_KeyDown; Form Name: PosForms.frmPOS; User Code:admin
-----------------------------------------------------------------------------

 Error: Column 'MasterDiscount' does not belong to table .; Date & Time 29/06/2019 15:59:02; MethodName: txtPrice_KeyDown; Form Name: PosForms.frmPOS; User Code:admin
-----------------------------------------------------------------------------

 Error: Column 'MasterDiscount' does not belong to table .; Date & Time 29/06/2019 15:59:03; MethodName: txtPrice_KeyDown; Form Name: PosForms.frmPOS; User Code:admin
-----------------------------------------------------------------------------

 Error: Column 'MasterDiscount' does not belong to table .; Date & Time 29/06/2019 15:59:04; MethodName: txtPrice_KeyDown; Form Name: PosForms.frmPOS; User Code:admin
-----------------------------------------------------------------------------

 Error: Column 'MasterDiscount' does not belong to table .; Date & Time 29/06/2019 15:59:04; MethodName: txtPrice_KeyDown; Form Name: PosForms.frmPOS; User Code:admin
-----------------------------------------------------------------------------

 Error: Column 'MasterDiscount' does not belong to table .; Date & Time 29/06/2019 15:59:04; MethodName: txtPrice_KeyDown; Form Name: PosForms.frmPOS; User Code:admin
-----------------------------------------------------------------------------

 Error: Column 'MasterDiscount' does not belong to table .; Date & Time 29/06/2019 15:59:04; MethodName: txtPrice_KeyDown; Form Name: PosForms.frmPOS; User Code:admin
-----------------------------------------------------------------------------

 Error: Column 'MasterDiscount' does not belong to table .; Date & Time 29/06/2019 15:59:05; MethodName: txtPrice_KeyDown; Form Name: PosForms.frmPOS; User Code:admin
-----------------------------------------------------------------------------

 Error: Column 'MasterDiscount' does not belong to table .; Date & Time 29/06/2019 15:59:05; MethodName: txtPrice_KeyDown; Form Name: PosForms.frmPOS; User Code:admin
-----------------------------------------------------------------------------

 Error: Column 'MasterDiscount' does not belong to table .; Date & Time 29/06/2019 15:59:05; MethodName: txtPrice_KeyDown; Form Name: PosForms.frmPOS; User Code:admin
-----------------------------------------------------------------------------

 Error: Column 'MasterDiscount' does not belong to table .; Date & Time 29/06/2019 15:59:05; MethodName: txtPrice_KeyDown; Form Name: PosForms.frmPOS; User Code:admin
-----------------------------------------------------------------------------

 Error: Column 'MasterDiscount' does not belong to table .; Date & Time 29/06/2019 15:59:05; MethodName: txtPrice_KeyDown; Form Name: PosForms.frmPOS; User Code:admin
-----------------------------------------------------------------------------

 Error: Column 'MasterDiscount' does not belong to table .; Date & Time 29/06/2019 15:59:06; MethodName: txtPrice_KeyDown; Form Name: PosForms.frmPOS; User Code:admin
-----------------------------------------------------------------------------

 Error: Column 'MasterDiscount' does not belong to table .; Date & Time 29/06/2019 15:59:06; MethodName: txtPrice_KeyDown; Form Name: PosForms.frmPOS; User Code:admin
-----------------------------------------------------------------------------

 Error: Column 'MasterDiscount' does not belong to table .; Date & Time 29/06/2019 15:59:07; MethodName: txtPrice_KeyDown; Form Name: PosForms.frmPOS; User Code:admin
-----------------------------------------------------------------------------

 Error: Column 'MasterDiscount' does not belong to table .; Date & Time 29/06/2019 16:25:48; MethodName: txtPrice_KeyDown; Form Name: PosForms.frmPOS; User Code:admin
-----------------------------------------------------------------------------

 Error: Column 'MasterDiscount' does not belong to table .; Date & Time 29/06/2019 16:26:12; MethodName: txtPrice_KeyDown; Form Name: PosForms.frmPOS; User Code:admin
-----------------------------------------------------------------------------

 Error: Column 'MasterDiscount' does not belong to table .; Date & Time 29/06/2019 16:26:22; MethodName: txtPrice_KeyDown; Form Name: PosForms.frmPOS; User Code:admin
-----------------------------------------------------------------------------

 Error: Column 'MasterDiscount' does not belong to table .; Date & Time 29/06/2019 16:26:33; MethodName: txtPrice_KeyDown; Form Name: PosForms.frmPOS; User Code:admin
-----------------------------------------------------------------------------

 Error: Column 'MasterDiscount' does not belong to table .; Date & Time 29/06/2019 16:30:16; MethodName: txtPrice_KeyDown; Form Name: PosForms.frmPOS; User Code:admin
-----------------------------------------------------------------------------

 Error: Column 'MasterDiscount' does not belong to table .; Date & Time 29/06/2019 16:30:23; MethodName: txtPrice_KeyDown; Form Name: PosForms.frmPOS; User Code:admin
-----------------------------------------------------------------------------

 Error: Invalid column name 'PSH_ADDN_DETAIL_1'.
Invalid column name 'PSH_ADDN_DETAIL_2'.; Date & Time 29/06/2019 16:31:13; MethodName: frmTaxSelection_Load; Form Name: PosForms.frmOfficeTax; User Code:admin
-----------------------------------------------------------------------------

 Error: Procedure or function USP_SET_SALES_HEADER has too many arguments specified.; Date & Time 29/06/2019 16:33:09; MethodName: Bill Save; Form Name: ; User Code:admin
-----------------------------------------------------------------------------

 Error: Procedure or function USP_SET_SALES_HEADER has too many arguments specified.; Date & Time 29/06/2019 16:33:39; MethodName: fncTender; Form Name: PosForms.frmPOS; User Code:admin
-----------------------------------------------------------------------------

 Error: Procedure or function USP_SET_SALES_DETAIL has too many arguments specified.; Date & Time 29/06/2019 16:44:58; MethodName: Bill Save; Form Name: USP_SET_SALES_HEADER; User Code:admin
-----------------------------------------------------------------------------

 Error: Procedure or function USP_SET_SALES_DETAIL has too many arguments specified.; Date & Time 29/06/2019 16:45:01; MethodName: fncTender; Form Name: PosForms.frmPOS; User Code:admin
-----------------------------------------------------------------------------

 Error: Procedure or function USP_SET_SALES_DETAIL has too many arguments specified.; Date & Time 29/06/2019 16:46:53; MethodName: Bill Save; Form Name: USP_SET_SALES_HEADER; User Code:admin
-----------------------------------------------------------------------------

 Error: Procedure or function USP_SET_SALES_DETAIL has too many arguments specified.; Date & Time 29/06/2019 16:46:56; MethodName: fncTender; Form Name: PosForms.frmPOS; User Code:admin
-----------------------------------------------------------------------------

 Error: Procedure or function USP_SET_SALES_DETAIL has too many arguments specified.; Date & Time 29/06/2019 16:47:25; MethodName: Bill Save; Form Name: USP_SET_SALES_HEADER; User Code:admin
-----------------------------------------------------------------------------

 Error: Procedure or function USP_SET_SALES_DETAIL has too many arguments specified.; Date & Time 29/06/2019 16:47:26; MethodName: fncTender; Form Name: PosForms.frmPOS; User Code:admin
-----------------------------------------------------------------------------

 Error: Column 'CUST_TOTAL_ECO_POINTS' does not belong to table .; Date & Time 29/06/2019 16:55:05; MethodName: fncLoadEstimation; Form Name: PosForms.frmPOS; User Code:admin
-----------------------------------------------------------------------------

 Error: Column 'CUST_TOTAL_ECO_POINTS' does not belong to table .; Date & Time 29/06/2019 16:55:43; MethodName: fncLoadEstimation; Form Name: PosForms.frmPOS; User Code:admin
-----------------------------------------------------------------------------

 Error: Column 'CUST_TOTAL_ECO_POINTS' does not belong to table .; Date & Time 29/06/2019 17:02:45; MethodName: fncLoadEstimation; Form Name: PosForms.frmPOS; User Code:admin
-----------------------------------------------------------------------------

 Error: Input string was not in a correct format.; Date & Time 29/06/2019 18:10:38; MethodName: gvMain_FocusedRowChanged; Form Name: PosForms.frmPOS; User Code:admin
-----------------------------------------------------------------------------

 Error: Column 'MainUOM' does not belong to table Table.; Date & Time 29/06/2019 18:11:11; MethodName: fncLoadEstimation; Form Name: PosForms.frmPOS; User Code:admin
-----------------------------------------------------------------------------
