
 Error: Error in File C:\Users\UNIPRO\AppData\Local\Temp\rptCashBill {C4C5E9BD-100F-4158-9B40-987340D1D671}.rpt:
Unable to connect: incorrect log on parameters.; Date & Time 09/01/2019 20:26:38; MethodName: frmInVoiceReport_Load; Form Name: PosForms.frmInvoiceReport; User Code:admin
-----------------------------------------------------------------------------

 Error: Error in File C:\Users\UNIPRO\AppData\Local\Temp\rptCashBill {6D4D19EE-51B6-42E7-AEAA-7E1DDE7BB5E8}.rpt:
Unable to connect: incorrect log on parameters.; Date & Time 09/01/2019 20:27:08; MethodName: frmInVoiceReport_Load; Form Name: PosForms.frmInvoiceReport; User Code:admin
-----------------------------------------------------------------------------
