
 Error: The system cannot find the file specified; Date & Time 11-08-2020 14:29:11; MethodName: frmBillCancel_Load; Form Name: PosForms.frmBillCancel; User Code:admin
-----------------------------------------------------------------------------
