
 Error: Error in File C:\Users\UPS_1018\AppData\Local\Temp\rpt40ColumPrintnew_2020 {6BDB911C-6639-498E-84E6-D80B806BF2ED}.rpt:
Unable to connect: incorrect log on parameters.; Date & Time 25/11/2021 16:49:09; MethodName: frmInVoiceReport_Load; Form Name: PosForms.frmInvoiceReport; User Code:AJITH
-----------------------------------------------------------------------------

 Error: Access to the path 'C:\TotalQty.txt' is denied.; Date & Time 25/11/2021 16:49:12; MethodName: fncTotalQtyAndAmt; Form Name: PrinterTemplate.clsPrinterTemplate; User Code:AJITH
-----------------------------------------------------------------------------

 Error: Object reference not set to an instance of an object.; Date & Time 25/11/2021 16:50:20; MethodName: fncPrint; Form Name: PrinterTemplate.clsPrinterTemplate; User Code:SASI
-----------------------------------------------------------------------------

 Error: Access to the path 'C:\CustomerReceipt.txt' is denied.; Date & Time 25/11/2021 16:51:09; MethodName: fncPrint; Form Name: PrinterTemplate.clsReceipts; User Code:SASI
-----------------------------------------------------------------------------

 Error: Object reference not set to an instance of an object.; Date & Time 25/11/2021 16:51:09; MethodName: fncPrint; Form Name: PrinterTemplate.clsReceipts; User Code:SASI
-----------------------------------------------------------------------------

 Error: Cannot insert the value NULL into column 'PayMode', table 'Enterpriser_Dev2008.dbo.TBLHOMEPAYMODEDETAIL'; column does not allow nulls. INSERT fails.
The statement has been terminated.; Date & Time 25/11/2021 17:45:26; MethodName: Bill Save; Form Name: USP_SET_SALES_HOME_DELIVERY_DETAIL; User Code:SASI
-----------------------------------------------------------------------------

 Error: Cannot insert the value NULL into column 'PayMode', table 'Enterpriser_Dev2008.dbo.TBLHOMEPAYMODEDETAIL'; column does not allow nulls. INSERT fails.
The statement has been terminated.; Date & Time 25/11/2021 17:45:32; MethodName: fncTender; Form Name: PosForms.frmPOS; User Code:SASI
-----------------------------------------------------------------------------

 Error: Cannot insert the value NULL into column 'PayMode', table 'Enterpriser_Dev2008.dbo.TBLHOMEPAYMODEDETAIL'; column does not allow nulls. INSERT fails.
The statement has been terminated.; Date & Time 25/11/2021 18:39:22; MethodName: Bill Save; Form Name: USP_SET_SALES_HOME_DELIVERY_DETAIL; User Code:SASI
-----------------------------------------------------------------------------

 Error: Cannot insert the value NULL into column 'PayMode', table 'Enterpriser_Dev2008.dbo.TBLHOMEPAYMODEDETAIL'; column does not allow nulls. INSERT fails.
The statement has been terminated.; Date & Time 25/11/2021 18:39:24; MethodName: fncTender; Form Name: PosForms.frmPOS; User Code:SASI
-----------------------------------------------------------------------------

 Error: Cannot insert the value NULL into column 'PayMode', table 'Enterpriser_Dev2008.dbo.TBLHOMEPAYMODEDETAIL'; column does not allow nulls. INSERT fails.
The statement has been terminated.; Date & Time 25/11/2021 18:41:07; MethodName: Bill Save; Form Name: USP_SET_SALES_HOME_DELIVERY_DETAIL; User Code:SASI
-----------------------------------------------------------------------------

 Error: Cannot insert the value NULL into column 'PayMode', table 'Enterpriser_Dev2008.dbo.TBLHOMEPAYMODEDETAIL'; column does not allow nulls. INSERT fails.
The statement has been terminated.; Date & Time 25/11/2021 18:41:09; MethodName: fncTender; Form Name: PosForms.frmPOS; User Code:SASI
-----------------------------------------------------------------------------

 Error: Cannot insert the value NULL into column 'PayMode', table 'Enterpriser_Dev2008.dbo.TBLHOMEPAYMODEDETAIL'; column does not allow nulls. INSERT fails.
The statement has been terminated.; Date & Time 25/11/2021 18:49:47; MethodName: Bill Save; Form Name: USP_SET_SALES_HOME_DELIVERY_DETAIL; User Code:SASI
-----------------------------------------------------------------------------

 Error: Cannot insert the value NULL into column 'PayMode', table 'Enterpriser_Dev2008.dbo.TBLHOMEPAYMODEDETAIL'; column does not allow nulls. INSERT fails.
The statement has been terminated.; Date & Time 25/11/2021 18:50:04; MethodName: fncTender; Form Name: PosForms.frmPOS; User Code:SASI
-----------------------------------------------------------------------------

 Error: Cannot insert the value NULL into column 'ModifyDate', table 'Enterpriser_Dev2008.dbo.TBLHOMEPAYMODEDETAIL'; column does not allow nulls. UPDATE fails.
The statement has been terminated.; Date & Time 25/11/2021 18:56:03; MethodName: Bill Save; Form Name: USP_SET_HOMEDELIVERY_DISPATCH; User Code:SASI
-----------------------------------------------------------------------------

 Error: Cannot insert the value NULL into column 'ModifyDate', table 'Enterpriser_Dev2008.dbo.TBLHOMEPAYMODEDETAIL'; column does not allow nulls. UPDATE fails.
The statement has been terminated.; Date & Time 25/11/2021 18:56:11; MethodName: fncTender; Form Name: PosForms.frmPOS; User Code:SASI
-----------------------------------------------------------------------------

 Error: Object reference not set to an instance of an object.; Date & Time 25/11/2021 19:05:15; MethodName: fncPrint; Form Name: PrinterTemplate.clsPrinterTemplate; User Code:SASI
-----------------------------------------------------------------------------

 Error: Object reference not set to an instance of an object.; Date & Time 25/11/2021 19:06:09; MethodName: fncPrint; Form Name: PrinterTemplate.clsPrinterTemplate; User Code:SASI
-----------------------------------------------------------------------------

 Error: Divide by zero error encountered.
update; Date & Time 25/11/2021 19:14:41; MethodName: Bill Save; Form Name: ; User Code:SASI
-----------------------------------------------------------------------------

 Error: Divide by zero error encountered.
update; Date & Time 25/11/2021 19:14:46; MethodName: btnSave_Click; Form Name: PosForms.frmInterCompanySales; User Code:SASI
-----------------------------------------------------------------------------

 Error: 'count' must be non-negative.
Parameter name: count; Date & Time 25/11/2021 19:17:35; MethodName: fncPrint; Form Name: PrinterTemplate.clsPrinterTemplate; User Code:SASI
-----------------------------------------------------------------------------

 Error: Object reference not set to an instance of an object.; Date & Time 25/11/2021 19:17:35; MethodName: fncPrint; Form Name: PrinterTemplate.clsPrinterTemplate; User Code:SASI
-----------------------------------------------------------------------------
