
 Error: Column 'Vendor' does not belong to table .; Date & Time 10/07/2019 10:17:23; MethodName: fncReloadCustomer; Form Name: PosForms.frmCustomer; User Code:admin
-----------------------------------------------------------------------------

 Error: Cannot insert the value NULL into column 'SONO', table 'EnterpriserV8_SS.dbo.tblOrderStatus'; column does not allow nulls. INSERT fails.
The statement has been terminated.; Date & Time 10/07/2019 10:20:15; MethodName: Bill Save; Form Name: USP_SET_SALES_HOME_DELIVERY_DETAIL; User Code:admin
-----------------------------------------------------------------------------

 Error: Cannot insert the value NULL into column 'SONO', table 'EnterpriserV8_SS.dbo.tblOrderStatus'; column does not allow nulls. INSERT fails.
The statement has been terminated.; Date & Time 10/07/2019 10:20:53; MethodName: Bill Save; Form Name: USP_SET_SALES_HOME_DELIVERY_DETAIL; User Code:admin
-----------------------------------------------------------------------------

 Error: Cannot insert the value NULL into column 'SONO', table 'EnterpriserV8_SS.dbo.tblOrderStatus'; column does not allow nulls. INSERT fails.
The statement has been terminated.; Date & Time 10/07/2019 10:20:59; MethodName: Bill Save; Form Name: USP_SET_SALES_HOME_DELIVERY_DETAIL; User Code:admin
-----------------------------------------------------------------------------

 Error: method=getCustomerOffers&data={
  "businessId": "30537631",
  "customer_number": "9884660159",
  "pageType": "register",
  "generateOtp": "Y"
}; Date & Time 10/07/2019 11:19:09; MethodName: Request; Form Name: CRM upload Get Offers; User Code:admin
-----------------------------------------------------------------------------

 Error: {"status":"success","message":"get offers data","customerName":"SACHITHANANTHAM.T.N ","customerNumber":"9884660159","loyalty":{},"offers":[],"membership":[]}; Date & Time 10/07/2019 11:19:15; MethodName: Response; Form Name: CRM upload; User Code:admin
-----------------------------------------------------------------------------

 Error: method=getCustomerOffers&data={
  "businessId": "30537631",
  "customer_number": "9841312344",
  "pageType": "register",
  "generateOtp": "Y"
}; Date & Time 10/07/2019 11:23:47; MethodName: Request; Form Name: CRM upload Get Offers; User Code:admin
-----------------------------------------------------------------------------

 Error: {"status":"success","message":"get offers data","customerName":"SANDEEP   DOSHI","customerNumber":"9841312344","loyalty":{},"offers":[],"membership":[]}; Date & Time 10/07/2019 11:23:48; MethodName: Response; Form Name: CRM upload; User Code:admin
-----------------------------------------------------------------------------

 Error: Violation of PRIMARY KEY constraint 'PK_tblSalesHeaderCur'. Cannot insert duplicate key in object 'dbo.tblSalesHeaderCur'.
Violation of PRIMARY KEY constraint 'PK_tblsalesheaderERP'. Cannot insert duplicate key in object 'dbo.tblsalesheaderERP'.
The statement has been terminated.
The statement has been terminated.; Date & Time 10/07/2019 11:24:18; MethodName: Bill Save; Form Name: ; User Code:admin
-----------------------------------------------------------------------------

 Error: Violation of PRIMARY KEY constraint 'PK_tblSalesHeaderCur'. Cannot insert duplicate key in object 'dbo.tblSalesHeaderCur'.
Violation of PRIMARY KEY constraint 'PK_tblsalesheaderERP'. Cannot insert duplicate key in object 'dbo.tblsalesheaderERP'.
The statement has been terminated.
The statement has been terminated.; Date & Time 10/07/2019 11:24:22; MethodName: fncTender; Form Name: PosForms.frmPOS; User Code:admin
-----------------------------------------------------------------------------

 Error: Column 'AreaCode' does not belong to table .; Date & Time 10/07/2019 11:35:37; MethodName: fncLoadSelectedCustomer; Form Name: PosForms.frmCustomerSearch; User Code:admin
-----------------------------------------------------------------------------

 Error: Violation of PRIMARY KEY constraint 'PK_tblsaleshistory'. Cannot insert duplicate key in object 'dbo.tblsaleshistory'.
The statement has been terminated.
fd
False; Date & Time 10/07/2019 12:15:51; MethodName: Bill Save; Form Name: USP_SET_SALES_HEADER; User Code:admin
-----------------------------------------------------------------------------

 Error: Violation of PRIMARY KEY constraint 'PK_tblsaleshistory'. Cannot insert duplicate key in object 'dbo.tblsaleshistory'.
The statement has been terminated.
fd
False; Date & Time 10/07/2019 12:15:59; MethodName: fncTender; Form Name: PosForms.frmPOS; User Code:admin
-----------------------------------------------------------------------------

 Error: 'count' must be non-negative.
Parameter name: count; Date & Time 10/07/2019 12:57:09; MethodName: fncPrint; Form Name: PrinterTemplate.clsPrinterTemplate; User Code:admin
-----------------------------------------------------------------------------

 Error: Incorrect syntax near ','.; Date & Time 10/07/2019 12:57:09; MethodName: fncItemDetail; Form Name: PrinterTemplate.clsPrinterTemplate; User Code:admin
-----------------------------------------------------------------------------

 Error: 'count' must be non-negative.
Parameter name: count; Date & Time 10/07/2019 12:57:09; MethodName: fncTotalAndDiscount; Form Name: PrinterTemplate.clsPrinterTemplate; User Code:admin
-----------------------------------------------------------------------------

 Error: Incorrect syntax near ','.; Date & Time 10/07/2019 12:57:09; MethodName: fncBagItemPrint; Form Name: PrinterTemplate.clsPrinterTemplate; User Code:admin
-----------------------------------------------------------------------------

 Error: Incorrect syntax near ','.; Date & Time 10/07/2019 12:57:11; MethodName: fncFreeItemPrint; Form Name: PrinterTemplate.clsPrinterTemplate; User Code:admin
-----------------------------------------------------------------------------

 Error: 'count' must be non-negative.
Parameter name: count; Date & Time 10/07/2019 13:07:50; MethodName: fncPrint; Form Name: PrinterTemplate.clsPrinterTemplate; User Code:admin
-----------------------------------------------------------------------------

 Error: Incorrect syntax near ','.; Date & Time 10/07/2019 13:07:50; MethodName: fncItemDetail; Form Name: PrinterTemplate.clsPrinterTemplate; User Code:admin
-----------------------------------------------------------------------------

 Error: 'count' must be non-negative.
Parameter name: count; Date & Time 10/07/2019 13:07:50; MethodName: fncTotalAndDiscount; Form Name: PrinterTemplate.clsPrinterTemplate; User Code:admin
-----------------------------------------------------------------------------

 Error: Incorrect syntax near ','.; Date & Time 10/07/2019 13:07:50; MethodName: fncBagItemPrint; Form Name: PrinterTemplate.clsPrinterTemplate; User Code:admin
-----------------------------------------------------------------------------

 Error: Incorrect syntax near ','.; Date & Time 10/07/2019 13:07:52; MethodName: fncFreeItemPrint; Form Name: PrinterTemplate.clsPrinterTemplate; User Code:admin
-----------------------------------------------------------------------------

 Error: 'count' must be non-negative.
Parameter name: count; Date & Time 10/07/2019 13:18:53; MethodName: fncPrint; Form Name: PrinterTemplate.clsPrinterTemplate; User Code:admin
-----------------------------------------------------------------------------

 Error: Incorrect syntax near ','.; Date & Time 10/07/2019 13:18:54; MethodName: fncItemDetail; Form Name: PrinterTemplate.clsPrinterTemplate; User Code:admin
-----------------------------------------------------------------------------

 Error: 'count' must be non-negative.
Parameter name: count; Date & Time 10/07/2019 13:18:54; MethodName: fncTotalAndDiscount; Form Name: PrinterTemplate.clsPrinterTemplate; User Code:admin
-----------------------------------------------------------------------------

 Error: Incorrect syntax near ','.; Date & Time 10/07/2019 13:18:54; MethodName: fncBagItemPrint; Form Name: PrinterTemplate.clsPrinterTemplate; User Code:admin
-----------------------------------------------------------------------------

 Error: Incorrect syntax near ','.; Date & Time 10/07/2019 13:18:56; MethodName: fncFreeItemPrint; Form Name: PrinterTemplate.clsPrinterTemplate; User Code:admin
-----------------------------------------------------------------------------

 Error: Index was outside the bounds of the array.; Date & Time 10/07/2019 13:21:21; MethodName: fncCommondetail; Form Name: PrinterTemplate.clsSettlement; User Code:admin
-----------------------------------------------------------------------------

 Error: Index was outside the bounds of the array.; Date & Time 10/07/2019 13:23:02; MethodName: fncCommondetail; Form Name: PrinterTemplate.clsSettlement; User Code:admin
-----------------------------------------------------------------------------

 Error: Index was outside the bounds of the array.; Date & Time 10/07/2019 13:26:56; MethodName: fncCommondetail; Form Name: PrinterTemplate.clsSettlement; User Code:admin
-----------------------------------------------------------------------------

 Error: Index was outside the bounds of the array.; Date & Time 10/07/2019 13:29:03; MethodName: fncCommondetail; Form Name: PrinterTemplate.clsSettlement; User Code:admin
-----------------------------------------------------------------------------

 Error: 'count' must be non-negative.
Parameter name: count; Date & Time 10/07/2019 13:36:46; MethodName: fncPrint; Form Name: PrinterTemplate.clsPrinterTemplate; User Code:admin
-----------------------------------------------------------------------------

 Error: Incorrect syntax near ','.; Date & Time 10/07/2019 13:36:47; MethodName: fncItemDetail; Form Name: PrinterTemplate.clsPrinterTemplate; User Code:admin
-----------------------------------------------------------------------------

 Error: 'count' must be non-negative.
Parameter name: count; Date & Time 10/07/2019 13:36:47; MethodName: fncTotalAndDiscount; Form Name: PrinterTemplate.clsPrinterTemplate; User Code:admin
-----------------------------------------------------------------------------

 Error: Incorrect syntax near ','.; Date & Time 10/07/2019 13:36:47; MethodName: fncBagItemPrint; Form Name: PrinterTemplate.clsPrinterTemplate; User Code:admin
-----------------------------------------------------------------------------

 Error: Incorrect syntax near ','.; Date & Time 10/07/2019 13:36:50; MethodName: fncFreeItemPrint; Form Name: PrinterTemplate.clsPrinterTemplate; User Code:admin
-----------------------------------------------------------------------------

 Error: Index was outside the bounds of the array.; Date & Time 10/07/2019 13:37:24; MethodName: fncCommondetail; Form Name: PrinterTemplate.clsSettlement; User Code:admin
-----------------------------------------------------------------------------

 Error: Could not find stored procedure 'USP_GET_SALES_SETTLEMENT'.; Date & Time 10/07/2019 13:37:33; MethodName: fncCashDetails; Form Name: PrinterTemplate.clsSettlement; User Code:admin
-----------------------------------------------------------------------------

 Error: Index was outside the bounds of the array.; Date & Time 10/07/2019 13:38:28; MethodName: fncCommondetail; Form Name: PrinterTemplate.clsSettlement; User Code:admin
-----------------------------------------------------------------------------

 Error: Could not find stored procedure 'USP_GET_SALES_SETTLEMENT'.; Date & Time 10/07/2019 13:38:29; MethodName: fncCashDetails; Form Name: PrinterTemplate.clsSettlement; User Code:admin
-----------------------------------------------------------------------------

 Error: method=getCustomerOffers&data={
  "businessId": "30537631",
  "customer_number": "9840981675",
  "pageType": "register",
  "generateOtp": "Y"
}; Date & Time 10/07/2019 13:48:31; MethodName: Request; Form Name: CRM upload Get Offers; User Code:admin
-----------------------------------------------------------------------------

 Error: {"status":"success","message":"get offers data","customerName":"SALEEM BASHA.T","customerNumber":"9840981675","loyalty":{},"offers":[],"membership":[]}; Date & Time 10/07/2019 13:48:35; MethodName: Response; Form Name: CRM upload; User Code:admin
-----------------------------------------------------------------------------

 Error: Violation of PRIMARY KEY constraint 'PK_tblSalesHeaderCur'. Cannot insert duplicate key in object 'dbo.tblSalesHeaderCur'.
Violation of PRIMARY KEY constraint 'PK_tblsalesheaderERP'. Cannot insert duplicate key in object 'dbo.tblsalesheaderERP'.
The statement has been terminated.
The statement has been terminated.; Date & Time 10/07/2019 13:48:43; MethodName: Bill Save; Form Name: ; User Code:admin
-----------------------------------------------------------------------------

 Error: Violation of PRIMARY KEY constraint 'PK_tblSalesHeaderCur'. Cannot insert duplicate key in object 'dbo.tblSalesHeaderCur'.
Violation of PRIMARY KEY constraint 'PK_tblsalesheaderERP'. Cannot insert duplicate key in object 'dbo.tblsalesheaderERP'.
The statement has been terminated.
The statement has been terminated.; Date & Time 10/07/2019 13:48:45; MethodName: fncTender; Form Name: PosForms.frmPOS; User Code:admin
-----------------------------------------------------------------------------

 Error: method=getCustomerOffers&data={
  "businessId": "30537631",
  "customer_number": "9940330682",
  "pageType": "register",
  "generateOtp": "Y"
}; Date & Time 10/07/2019 14:40:51; MethodName: Request; Form Name: CRM upload Get Offers; User Code:admin
-----------------------------------------------------------------------------

 Error: {"status":"success","message":"get offers data","customerName":"SABAPATHI. ","customerNumber":"9940330682","loyalty":{},"offers":[],"membership":[]}; Date & Time 10/07/2019 14:40:52; MethodName: Response; Form Name: CRM upload; User Code:admin
-----------------------------------------------------------------------------

 Error: method=getCustomerOffers&data={
  "businessId": "30537631",
  "customer_number": "26651797",
  "pageType": "register",
  "generateOtp": "Y"
}; Date & Time 10/07/2019 14:42:27; MethodName: Request; Form Name: CRM upload Get Offers; User Code:admin
-----------------------------------------------------------------------------

 Error: {"status":"success","message":"get offers data","customerName":null,"customerNumber":"26651797","loyalty":{},"offers":[],"membership":[]}; Date & Time 10/07/2019 14:42:28; MethodName: Response; Form Name: CRM upload; User Code:admin
-----------------------------------------------------------------------------

 Error: Index was outside the bounds of the array.; Date & Time 10/07/2019 14:44:07; MethodName: fncCommondetail; Form Name: PrinterTemplate.clsSettlement; User Code:admin
-----------------------------------------------------------------------------

 Error: Could not find stored procedure 'USP_GET_SHIFT_SETTLEMENT'.; Date & Time 10/07/2019 14:45:42; MethodName: fncShiftDetails; Form Name: PrinterTemplate.clsSettlement; User Code:admin
-----------------------------------------------------------------------------

 Error: Could not find stored procedure 'USP_GET_SALES_SETTLEMENT'.; Date & Time 10/07/2019 14:46:09; MethodName: fncCashDetails; Form Name: PrinterTemplate.clsSettlement; User Code:admin
-----------------------------------------------------------------------------

 Error: Index was outside the bounds of the array.; Date & Time 10/07/2019 14:46:55; MethodName: fncCommondetail; Form Name: PrinterTemplate.clsSettlement; User Code:admin
-----------------------------------------------------------------------------

 Error: Could not find stored procedure 'USP_GET_SALES_SETTLEMENT'.; Date & Time 10/07/2019 14:47:28; MethodName: fncCashDetails; Form Name: PrinterTemplate.clsSettlement; User Code:admin
-----------------------------------------------------------------------------

 Error: Index was outside the bounds of the array.; Date & Time 10/07/2019 17:05:47; MethodName: btnLogOn_Click; Form Name: RetailPointofSale.frmLogOn; User Code:admin
-----------------------------------------------------------------------------

 Error: Index was outside the bounds of the array.; Date & Time 10/07/2019 17:07:54; MethodName: btnLogOn_Click; Form Name: RetailPointofSale.frmLogOn; User Code:admin
-----------------------------------------------------------------------------

 Error: Index was outside the bounds of the array.; Date & Time 10/07/2019 17:08:08; MethodName: btnLogOn_Click; Form Name: RetailPointofSale.frmLogOn; User Code:admin
-----------------------------------------------------------------------------

 Error: Object reference not set to an instance of an object.; Date & Time 10/07/2019 17:52:00; MethodName: frmCustomer_Load; Form Name: PosForms.frmCustomer; User Code:admin
-----------------------------------------------------------------------------

 Error: Index was outside the bounds of the array.; Date & Time 10/07/2019 18:58:04; MethodName: fncCommondetail; Form Name: PrinterTemplate.clsSettlement; User Code:admin
-----------------------------------------------------------------------------

 Error: There is no row at position 0.; Date & Time 10/07/2019 18:58:06; MethodName: fncTerminalDetails; Form Name: PrinterTemplate.clsSettlement; User Code:admin
-----------------------------------------------------------------------------

 Error: 'count' must be non-negative.
Parameter name: count; Date & Time 10/07/2019 19:06:06; MethodName: fncPrint; Form Name: PrinterTemplate.clsPrinterTemplate; User Code:admin
-----------------------------------------------------------------------------

 Error: Incorrect syntax near ','.; Date & Time 10/07/2019 19:06:07; MethodName: fncItemDetail; Form Name: PrinterTemplate.clsPrinterTemplate; User Code:admin
-----------------------------------------------------------------------------

 Error: 'count' must be non-negative.
Parameter name: count; Date & Time 10/07/2019 19:06:07; MethodName: fncTotalAndDiscount; Form Name: PrinterTemplate.clsPrinterTemplate; User Code:admin
-----------------------------------------------------------------------------

 Error: Incorrect syntax near ','.; Date & Time 10/07/2019 19:06:07; MethodName: fncBagItemPrint; Form Name: PrinterTemplate.clsPrinterTemplate; User Code:admin
-----------------------------------------------------------------------------

 Error: Incorrect syntax near ','.; Date & Time 10/07/2019 19:06:10; MethodName: fncFreeItemPrint; Form Name: PrinterTemplate.clsPrinterTemplate; User Code:admin
-----------------------------------------------------------------------------

 Error: Index was outside the bounds of the array.; Date & Time 10/07/2019 19:06:50; MethodName: fncCommondetail; Form Name: PrinterTemplate.clsSettlement; User Code:admin
-----------------------------------------------------------------------------

 Error: Could not find stored procedure 'USP_GET_SALES_SETTLEMENT'.; Date & Time 10/07/2019 19:07:34; MethodName: fncCashDetails; Form Name: PrinterTemplate.clsSettlement; User Code:admin
-----------------------------------------------------------------------------

 Error: Index was outside the bounds of the array.; Date & Time 10/07/2019 19:11:15; MethodName: fncCommondetail; Form Name: PrinterTemplate.clsSettlement; User Code:admin
-----------------------------------------------------------------------------

 Error: Could not find stored procedure 'USP_GET_SALES_SETTLEMENT'.; Date & Time 10/07/2019 19:11:16; MethodName: fncCashDetails; Form Name: PrinterTemplate.clsSettlement; User Code:admin
-----------------------------------------------------------------------------

 Error: Violation of PRIMARY KEY constraint 'PK_tblsaleshistory'. Cannot insert duplicate key in object 'dbo.tblsaleshistory'.
The statement has been terminated.
fd
False; Date & Time 10/07/2019 19:12:56; MethodName: Bill Save; Form Name: USP_SET_SALES_DETAIL; User Code:admin
-----------------------------------------------------------------------------

 Error: Violation of PRIMARY KEY constraint 'PK_tblsaleshistory'. Cannot insert duplicate key in object 'dbo.tblsaleshistory'.
The statement has been terminated.
fd
False; Date & Time 10/07/2019 19:13:02; MethodName: fncTender; Form Name: PosForms.frmPOS; User Code:admin
-----------------------------------------------------------------------------

 Error: Index was outside the bounds of the array.; Date & Time 10/07/2019 19:16:27; MethodName: fncCommondetail; Form Name: PrinterTemplate.clsSettlement; User Code:admin
-----------------------------------------------------------------------------

 Error: Could not find stored procedure 'USP_GET_SALES_SETTLEMENT'.; Date & Time 10/07/2019 19:16:30; MethodName: fncCashDetails; Form Name: PrinterTemplate.clsSettlement; User Code:admin
-----------------------------------------------------------------------------

 Error: Index was outside the bounds of the array.; Date & Time 10/07/2019 19:17:46; MethodName: fncCommondetail; Form Name: PrinterTemplate.clsSettlement; User Code:admin
-----------------------------------------------------------------------------

 Error: Could not find stored procedure 'USP_GET_SALES_SETTLEMENT'.; Date & Time 10/07/2019 19:17:48; MethodName: fncCashDetails; Form Name: PrinterTemplate.clsSettlement; User Code:admin
-----------------------------------------------------------------------------
