
 Error: Cannot insert the value NULL into column 'BatchNo', table 'SKDS_HQ.dbo.tblsaleshistory'; column does not allow nulls. INSERT fails.
The statement has been terminated.; Date & Time 25-06-2022 10:10:31; MethodName: Bill Save; Form Name: ; User Code:admin
-----------------------------------------------------------------------------

 Error: Cannot insert the value NULL into column 'BatchNo', table 'SKDS_HQ.dbo.tblsaleshistory'; column does not allow nulls. INSERT fails.
The statement has been terminated.; Date & Time 25-06-2022 10:10:34; MethodName: btnMakeAutoSettlement_Click; Form Name: PosForms.frmDayEndChild; User Code:admin
-----------------------------------------------------------------------------

 Error: Cannot insert the value NULL into column 'BatchNo', table 'SKDS_HQ.dbo.tblsaleshistory'; column does not allow nulls. INSERT fails.
The statement has been terminated.; Date & Time 25-06-2022 10:10:37; MethodName: Bill Save; Form Name: ; User Code:admin
-----------------------------------------------------------------------------

 Error: Cannot insert the value NULL into column 'BatchNo', table 'SKDS_HQ.dbo.tblsaleshistory'; column does not allow nulls. INSERT fails.
The statement has been terminated.; Date & Time 25-06-2022 10:10:40; MethodName: btnMakeAutoSettlement_Click; Form Name: PosForms.frmDayEndChild; User Code:admin
-----------------------------------------------------------------------------

 Error: Cannot insert the value NULL into column 'BatchNo', table 'SKDS_HQ.dbo.tblsaleshistory'; column does not allow nulls. INSERT fails.
The statement has been terminated.; Date & Time 25-06-2022 10:11:06; MethodName: Bill Save; Form Name: ; User Code:admin
-----------------------------------------------------------------------------

 Error: Cannot insert the value NULL into column 'BatchNo', table 'SKDS_HQ.dbo.tblsaleshistory'; column does not allow nulls. INSERT fails.
The statement has been terminated.; Date & Time 25-06-2022 10:11:11; MethodName: btnMakeAutoSettlement_Click; Form Name: PosForms.frmDayEndChild; User Code:admin
-----------------------------------------------------------------------------

 Error: Day End updated successfully; Date & Time 25-06-2022 10:21:25; MethodName: getExecuteSPTransactions; Form Name: System.Data.SqlClient.SqlException; User Code:admin
-----------------------------------------------------------------------------

 Error: Input string was not in a correct format.; Date & Time 25-06-2022 14:26:38; MethodName: fncTender; Form Name: PosForms.frmPOS; User Code:admin
-----------------------------------------------------------------------------

 Error: NF; Date & Time 25-06-2022 14:28:13; MethodName: Bill Save; Form Name: ; User Code:admin
-----------------------------------------------------------------------------
