
 Error: Cannot find the object "TBL_PT_HEADERERP" because it does not exist or you do not have permissions.; Date & Time 01/12/2021 10:56:16; MethodName: fncDownloadPTHeader; Form Name: clsDataMovingMaster; User Code:SASI
-----------------------------------------------------------------------------

 Error: Object reference not set to an instance of an object.; Date & Time 01/12/2021 16:25:40; MethodName: fncPrint; Form Name: PrinterTemplate.clsPrinterTemplate; User Code:SASI
-----------------------------------------------------------------------------
