
 Error: Load report failed.; Date & Time 11/03/2020 14:48:10; MethodName: frmInVoiceReport_Load; Form Name: PosForms.frmInvoiceReport; User Code:admin
-----------------------------------------------------------------------------

 Error: Load report failed.; Date & Time 11/03/2020 14:52:15; MethodName: frmInVoiceReport_Load; Form Name: PosForms.frmInvoiceReport; User Code:admin
-----------------------------------------------------------------------------

 Error: Load report failed.; Date & Time 11/03/2020 15:03:18; MethodName: frmInVoiceReport_Load; Form Name: PosForms.frmInvoiceReport; User Code:admin
-----------------------------------------------------------------------------

 Error: Load report failed.; Date & Time 11/03/2020 15:04:42; MethodName: frmInVoiceReport_Load; Form Name: PosForms.frmInvoiceReport; User Code:admin
-----------------------------------------------------------------------------
