
 Error: Cannot find the object "TBL_PT_HEADERERP" because it does not exist or you do not have permissions.; Date & Time 01/02/2022 17:17:01; MethodName: fncDownloadPTHeader; Form Name: clsDataMovingMaster; User Code:admin
-----------------------------------------------------------------------------

 Error: Object reference not set to an instance of an object.; Date & Time 01/02/2022 17:37:57; MethodName: .ctor; Form Name: PosForms.frmHomeDeliveryDispatch; User Code:admin
-----------------------------------------------------------------------------

 Error: Object reference not set to an instance of an object.; Date & Time 01/02/2022 17:38:00; MethodName: frmHomeDeliveryDispatch_Load; Form Name: PosForms.frmHomeDeliveryDispatch; User Code:admin
-----------------------------------------------------------------------------

 Error: Error in File C:\Users\UPS_1018\AppData\Local\Temp\rpt40ColumPrints {ABB82675-1365-4603-BA7E-0549DD4AA0ED}.rpt:
Unable to connect: incorrect log on parameters.; Date & Time 01/02/2022 17:53:54; MethodName: frmInVoiceReport_Load; Form Name: PosForms.frmInvoiceReport; User Code:admin
-----------------------------------------------------------------------------

 Error: Error in File C:\Users\UPS_1018\AppData\Local\Temp\rpt40ColumPrints {BB60516A-886B-437F-93FF-8E6E8A1EA71B}.rpt:
Unable to connect: incorrect log on parameters.; Date & Time 01/02/2022 18:02:04; MethodName: frmInVoiceReport_Load; Form Name: PosForms.frmInvoiceReport; User Code:admin
-----------------------------------------------------------------------------

 Error: Procedure or function 'USP_SET_HOMEPAYMODE_DETAIL' expects parameter '@Employee', which was not supplied.; Date & Time 01/02/2022 18:02:56; MethodName: Bill Save; Form Name: USP_SET_HOMEDELIVERY_DISPATCH; User Code:admin
-----------------------------------------------------------------------------

 Error: Procedure or function 'USP_SET_HOMEPAYMODE_DETAIL' expects parameter '@Employee', which was not supplied.; Date & Time 01/02/2022 18:03:01; MethodName: fncTender; Form Name: PosForms.frmPOS; User Code:admin
-----------------------------------------------------------------------------

 Error: Procedure or function 'USP_SET_HOMEPAYMODE_DETAIL' expects parameter '@Employee', which was not supplied.; Date & Time 01/02/2022 18:04:23; MethodName: Bill Save; Form Name: USP_SET_HOMEDELIVERY_DISPATCH; User Code:admin
-----------------------------------------------------------------------------

 Error: Procedure or function 'USP_SET_HOMEPAYMODE_DETAIL' expects parameter '@Employee', which was not supplied.; Date & Time 01/02/2022 18:04:24; MethodName: fncTender; Form Name: PosForms.frmPOS; User Code:admin
-----------------------------------------------------------------------------

 Error: Error in File C:\Users\UPS_1018\AppData\Local\Temp\rpt40ColumPrints {B4B8E8B6-1E30-4C89-8AB7-DB1754B7ADE7}.rpt:
Unable to connect: incorrect log on parameters.; Date & Time 01/02/2022 18:04:38; MethodName: frmInVoiceReport_Load; Form Name: PosForms.frmInvoiceReport; User Code:admin
-----------------------------------------------------------------------------
