
 Error: Column 'MasterDiscount' does not belong to table .; Date & Time 25/02/2019 17:14:37; MethodName: fncBatchSelection; Form Name: PosForms.frmPOS; User Code:admin
-----------------------------------------------------------------------------

 Error: Object reference not set to an instance of an object.; Date & Time 25/02/2019 17:14:38; MethodName: fncBatchSelection; Form Name: PosForms.frmPOS; User Code:admin
-----------------------------------------------------------------------------

 Error: Column 'MasterDiscount' does not belong to table .; Date & Time 25/02/2019 17:14:45; MethodName: txtItem_KeyDown; Form Name: PosForms.frmPOS; User Code:admin
-----------------------------------------------------------------------------

 Error: Column 'MasterDiscount' does not belong to table .; Date & Time 25/02/2019 17:14:49; MethodName: txtItem_KeyDown; Form Name: PosForms.frmPOS; User Code:admin
-----------------------------------------------------------------------------

 Error: Column 'MasterDiscount' does not belong to table .; Date & Time 25/02/2019 17:14:50; MethodName: txtItem_KeyDown; Form Name: PosForms.frmPOS; User Code:admin
-----------------------------------------------------------------------------

 Error: Column 'MasterDiscount' does not belong to table .; Date & Time 25/02/2019 17:14:51; MethodName: txtItem_KeyDown; Form Name: PosForms.frmPOS; User Code:admin
-----------------------------------------------------------------------------

 Error: Column 'MasterDiscount' does not belong to table .; Date & Time 25/02/2019 17:17:51; MethodName: txtItem_KeyDown; Form Name: PosForms.frmPOS; User Code:admin
-----------------------------------------------------------------------------

 Error: Procedure or function USP_SET_SALES_HEADER has too many arguments specified.; Date & Time 25/02/2019 17:18:05; MethodName: Bill Save; Form Name: ; User Code:admin
-----------------------------------------------------------------------------

 Error: Procedure or function USP_SET_SALES_HEADER has too many arguments specified.; Date & Time 25/02/2019 17:18:31; MethodName: fncTender; Form Name: PosForms.frmPOS; User Code:admin
-----------------------------------------------------------------------------
