
 Error: Cannot insert the value NULL into column 'PDC_SALES_DATE', table 'EnterpriserV8_Latest.dbo.TBL_POS_DOC_CONTROL'; column does not allow nulls. UPDATE fails.
The statement has been terminated.; Date & Time 16/10/2018 11:49:28; MethodName: getExecuteSPTransactions; Form Name: System.Data.SqlClient.SqlException; User Code:admin
-----------------------------------------------------------------------------

 Error: Object reference not set to an instance of an object.; Date & Time 16/10/2018 11:49:59; MethodName: fncLoadSelectedCustomer; Form Name: PosForms.frmCustomerSearch; User Code:admin
-----------------------------------------------------------------------------

 Error: method=getCustomerOffers&data={
  "businessId": "30537638",
  "customer_number": "9787845217          ",
  "pageType": "register",
  "generateOtp": "Y"
}; Date & Time 16/10/2018 11:50:21; MethodName: Request; Form Name: CRM upload Get Offers; User Code:admin
-----------------------------------------------------------------------------

 Error: {"status":"success","message":"get offers data","loyalty":{},"offers":[],"membership":[]}; Date & Time 16/10/2018 11:50:22; MethodName: Response; Form Name: CRM upload; User Code:admin
-----------------------------------------------------------------------------

 Error: method=getCustomerOffers&data={
  "businessId": "30537638",
  "customer_number": "8012716442",
  "pageType": "register",
  "generateOtp": "Y"
}; Date & Time 16/10/2018 12:05:22; MethodName: Request; Form Name: CRM upload Get Offers; User Code:admin
-----------------------------------------------------------------------------

 Error: {"status":"success","message":"get offers data","loyalty":{},"offers":[],"membership":[]}; Date & Time 16/10/2018 12:05:38; MethodName: Response; Form Name: CRM upload; User Code:admin
-----------------------------------------------------------------------------

 Error: method=getCustomerOffers&data={
  "businessId": "89087",
  "customer_number": "9566044366          ",
  "pageType": "register",
  "generateOtp": "Y"
}; Date & Time 16/10/2018 12:59:07; MethodName: Request; Form Name: CRM upload Get Offers; User Code:admin
-----------------------------------------------------------------------------

 Error: {"status":"success","message":"get offers data","loyalty":{},"offers":[{"discount_arr":{"discountIn":"percentage","discountValue":"10.0000","minimumBillValue":"100","maxDiscountValue":"1000","includeOrExclude":"all","productList":""},"offerId":"568","offerTitle":"For Palraj","offerDesc":"Give 10% discount","createdDate":"2018-10-16 12:43:13","offerImage":"","validTill":"2018-10-31 23:59:59","couponFlag":"Y","isPaidOffer":"","type":"","mem_id":0,"isClaimed":"no","offerType":"Promotion"}],"membership":[]}; Date & Time 16/10/2018 12:59:13; MethodName: Response; Form Name: CRM upload; User Code:admin
-----------------------------------------------------------------------------

 Error: method=getCustomerOffers&data={
  "businessId": "89087",
  "customer_number": "9566044366          ",
  "pageType": "register",
  "generateOtp": "Y"
}; Date & Time 16/10/2018 13:01:18; MethodName: Request; Form Name: CRM upload Get Offers; User Code:admin
-----------------------------------------------------------------------------

 Error: {"status":"success","message":"get offers data","loyalty":{},"offers":[{"discount_arr":{"discountIn":"percentage","discountValue":"10.0000","minimumBillValue":"100","maxDiscountValue":"1000","includeOrExclude":"all","productList":""},"offerId":"568","offerTitle":"For Palraj","offerDesc":"Give 10% discount","createdDate":"2018-10-16 12:43:13","offerImage":"","validTill":"2018-10-31 23:59:59","couponFlag":"Y","isPaidOffer":"","type":"","mem_id":0,"isClaimed":"no","offerType":"Promotion"}],"membership":[]}; Date & Time 16/10/2018 13:01:19; MethodName: Response; Form Name: CRM upload; User Code:admin
-----------------------------------------------------------------------------

 Error: method=getCustomerOffers&data={
  "businessId": "89087",
  "customer_number": "9566044366          ",
  "pageType": "register",
  "generateOtp": "Y"
}; Date & Time 16/10/2018 13:01:37; MethodName: Request; Form Name: CRM upload Get Offers; User Code:admin
-----------------------------------------------------------------------------

 Error: {"status":"success","message":"get offers data","loyalty":{},"offers":[{"discount_arr":{"discountIn":"percentage","discountValue":"10.0000","minimumBillValue":"100","maxDiscountValue":"1000","includeOrExclude":"all","productList":""},"offerId":"568","offerTitle":"For Palraj","offerDesc":"Give 10% discount","createdDate":"2018-10-16 12:43:13","offerImage":"","validTill":"2018-10-31 23:59:59","couponFlag":"Y","isPaidOffer":"","type":"","mem_id":0,"isClaimed":"no","offerType":"Promotion"}],"membership":[]}; Date & Time 16/10/2018 13:01:43; MethodName: Response; Form Name: CRM upload; User Code:admin
-----------------------------------------------------------------------------

 Error: Cannot find table 3.; Date & Time 16/10/2018 13:04:02; MethodName: DataMovement; Form Name: CRM upload; User Code:admin
-----------------------------------------------------------------------------

 Error: method=getCustomerOffers&data={
  "businessId": "89087",
  "customer_number": "9566044366          ",
  "pageType": "register",
  "generateOtp": "Y"
}; Date & Time 16/10/2018 13:04:12; MethodName: Request; Form Name: CRM upload Get Offers; User Code:admin
-----------------------------------------------------------------------------

 Error: {"status":"success","message":"get offers data","loyalty":{},"offers":[{"discount_arr":{"discountIn":"percentage","discountValue":"10.0000","minimumBillValue":"100","maxDiscountValue":"1000","includeOrExclude":"all","productList":""},"offerId":"568","offerTitle":"For Palraj","offerDesc":"Give 10% discount","createdDate":"2018-10-16 12:43:13","offerImage":"","validTill":"2018-10-31 23:59:59","couponFlag":"Y","isPaidOffer":"","type":"","mem_id":0,"isClaimed":"no","offerType":"Promotion"}],"membership":[]}; Date & Time 16/10/2018 13:04:31; MethodName: Response; Form Name: CRM upload; User Code:admin
-----------------------------------------------------------------------------

 Error: Cannot find table 3.; Date & Time 16/10/2018 13:04:41; MethodName: DataMovement; Form Name: CRM upload; User Code:admin
-----------------------------------------------------------------------------

 Error: method=getCustomerOffers&data={
  "businessId": "89087",
  "customer_number": "9566044366          ",
  "pageType": "register",
  "generateOtp": "Y"
}; Date & Time 16/10/2018 13:04:56; MethodName: Request; Form Name: CRM upload Get Offers; User Code:admin
-----------------------------------------------------------------------------

 Error: {"status":"success","message":"get offers data","loyalty":{},"offers":[{"discount_arr":{"discountIn":"percentage","discountValue":"10.0000","minimumBillValue":"100","maxDiscountValue":"1000","includeOrExclude":"all","productList":""},"offerId":"568","offerTitle":"For Palraj","offerDesc":"Give 10% discount","createdDate":"2018-10-16 12:43:13","offerImage":"","validTill":"2018-10-31 23:59:59","couponFlag":"Y","isPaidOffer":"","type":"","mem_id":0,"isClaimed":"no","offerType":"Promotion"}],"membership":[]}; Date & Time 16/10/2018 13:05:00; MethodName: Response; Form Name: CRM upload; User Code:admin
-----------------------------------------------------------------------------

 Error: method=getCustomerOffers&data={
  "businessId": "89087",
  "customer_number": "9566044366",
  "pageType": "register",
  "generateOtp": "Y"
}; Date & Time 16/10/2018 13:10:19; MethodName: Request; Form Name: CRM upload Get Offers; User Code:admin
-----------------------------------------------------------------------------

 Error: {"status":"success","message":"get offers data","loyalty":{"status":"Success","message":"Success","loyalty_id":"9815","loyalty_type":"POINT","stages":[{"stage_id":"23442","stage_points":"50","customer_points":0,"stage_description":"Get 5% discount","stage_status":"COUNTING"},{"stage_id":"23443","stage_points":"100","customer_points":0,"stage_description":"get 10% discount","stage_status":"COUNTING"},{"stage_id":"23444","stage_points":"150","customer_points":0,"stage_description":"get 15% discount","stage_status":"COUNTING"},{"stage_id":"23445","stage_points":"200","customer_points":0,"stage_description":"get 20% discount","stage_status":"COUNTING"}]},"offers":[{"discount_arr":{"discountIn":"percentage","discountValue":"10.0000","minimumBillValue":"100","maxDiscountValue":"1000","includeOrExclude":"all","productList":""},"offerId":"568","offerTitle":"For Palraj","offerDesc":"Give 10% discount","createdDate":"2018-10-16 12:43:13","offerImage":"","validTill":"2018-10-31 23:59:59","couponFlag":"Y","isPaidOffer":"","type":"","mem_id":0,"isClaimed":"no","offerType":"Promotion"}],"membership":[]}; Date & Time 16/10/2018 13:10:24; MethodName: Response; Form Name: CRM upload; User Code:admin
-----------------------------------------------------------------------------

 Error: method=getCustomerOffers&data={
  "businessId": "89087",
  "customer_number": "9566044366",
  "pageType": "register",
  "generateOtp": "Y"
}; Date & Time 16/10/2018 13:11:42; MethodName: Request; Form Name: CRM upload Get Offers; User Code:admin
-----------------------------------------------------------------------------

 Error: {"status":"success","message":"get offers data","loyalty":{"status":"Success","message":"Success","loyalty_id":"9815","loyalty_type":"POINT","stages":[{"stage_id":"23442","stage_points":"50","customer_points":0,"stage_description":"Get 5% discount","stage_status":"COUNTING"},{"stage_id":"23443","stage_points":"100","customer_points":0,"stage_description":"get 10% discount","stage_status":"COUNTING"},{"stage_id":"23444","stage_points":"150","customer_points":0,"stage_description":"get 15% discount","stage_status":"COUNTING"},{"stage_id":"23445","stage_points":"200","customer_points":0,"stage_description":"get 20% discount","stage_status":"COUNTING"}]},"offers":[{"discount_arr":{"discountIn":"percentage","discountValue":"10.0000","minimumBillValue":"100","maxDiscountValue":"1000","includeOrExclude":"all","productList":""},"offerId":"568","offerTitle":"For Palraj","offerDesc":"Give 10% discount","createdDate":"2018-10-16 12:43:13","offerImage":"","validTill":"2018-10-31 23:59:59","couponFlag":"Y","isPaidOffer":"","type":"","mem_id":0,"isClaimed":"no","offerType":"Promotion"}],"membership":[]}; Date & Time 16/10/2018 13:11:43; MethodName: Response; Form Name: CRM upload; User Code:admin
-----------------------------------------------------------------------------

 Error: method=getCustomerOffers&data={
  "businessId": "89087",
  "customer_number": "9566044366",
  "pageType": "register",
  "generateOtp": "Y"
}; Date & Time 16/10/2018 13:12:03; MethodName: Request; Form Name: CRM upload Get Offers; User Code:admin
-----------------------------------------------------------------------------

 Error: {"status":"success","message":"get offers data","loyalty":{"status":"Success","message":"Success","loyalty_id":"9815","loyalty_type":"POINT","stages":[{"stage_id":"23442","stage_points":"50","customer_points":0,"stage_description":"Get 5% discount","stage_status":"COUNTING"},{"stage_id":"23443","stage_points":"100","customer_points":0,"stage_description":"get 10% discount","stage_status":"COUNTING"},{"stage_id":"23444","stage_points":"150","customer_points":0,"stage_description":"get 15% discount","stage_status":"COUNTING"},{"stage_id":"23445","stage_points":"200","customer_points":0,"stage_description":"get 20% discount","stage_status":"COUNTING"}]},"offers":[{"discount_arr":{"discountIn":"percentage","discountValue":"10.0000","minimumBillValue":"100","maxDiscountValue":"1000","includeOrExclude":"all","productList":""},"offerId":"568","offerTitle":"For Palraj","offerDesc":"Give 10% discount","createdDate":"2018-10-16 12:43:13","offerImage":"","validTill":"2018-10-31 23:59:59","couponFlag":"Y","isPaidOffer":"","type":"","mem_id":0,"isClaimed":"no","offerType":"Promotion"}],"membership":[]}; Date & Time 16/10/2018 13:12:04; MethodName: Response; Form Name: CRM upload; User Code:admin
-----------------------------------------------------------------------------

 Error: method=confirmOtp&data={
  "businessId": "89087",
  "customerMobile": "9566044366",
  "otp": ""
}; Date & Time 16/10/2018 13:12:21; MethodName: Request; Form Name: CRM upload Get Offers; User Code:admin
-----------------------------------------------------------------------------

 Error: Object reference not set to an instance of an object.; Date & Time 16/10/2018 13:13:03; MethodName: fncTender; Form Name: PosForms.frmPOS; User Code:admin
-----------------------------------------------------------------------------

 Error: method=getCustomerOffers&data={
  "businessId": "89087",
  "customer_number": "9566044366",
  "pageType": "register",
  "generateOtp": "Y"
}; Date & Time 16/10/2018 13:34:34; MethodName: Request; Form Name: CRM upload Get Offers; User Code:admin
-----------------------------------------------------------------------------

 Error: {"status":"success","message":"get offers data","loyalty":{"status":"Success","message":"Success","loyalty_id":"9815","loyalty_type":"POINT","stages":[{"stage_id":"23442","stage_points":"50","customer_points":0,"stage_description":"Get 5% discount","stage_status":"COUNTING"},{"stage_id":"23443","stage_points":"100","customer_points":0,"stage_description":"get 10% discount","stage_status":"COUNTING"},{"stage_id":"23444","stage_points":"150","customer_points":0,"stage_description":"get 15% discount","stage_status":"COUNTING"},{"stage_id":"23445","stage_points":"200","customer_points":0,"stage_description":"get 20% discount","stage_status":"COUNTING"}]},"offers":[{"discount_arr":{"discountIn":"percentage","discountValue":"10.0000","minimumBillValue":"100","maxDiscountValue":"1000","includeOrExclude":"all","productList":""},"offerId":"568","offerTitle":"For Palraj","offerDesc":"Give 10% discount","createdDate":"2018-10-16 12:43:13","offerImage":"","validTill":"2018-10-31 23:59:59","couponFlag":"Y","isPaidOffer":"","type":"","mem_id":0,"isClaimed":"no","offerType":"Promotion"}],"membership":[]}; Date & Time 16/10/2018 13:34:49; MethodName: Response; Form Name: CRM upload; User Code:admin
-----------------------------------------------------------------------------

 Error: method=confirmOtp&data={
  "businessId": "89087",
  "customerMobile": "9566044366",
  "otp": "1555"
}; Date & Time 16/10/2018 13:37:11; MethodName: Request; Form Name: CRM upload Get Offers; User Code:admin
-----------------------------------------------------------------------------

 Error: method=getCustomerOffers&data={
  "businessId": "89087",
  "customer_number": "9566044366",
  "pageType": "register",
  "generateOtp": "Y"
}; Date & Time 16/10/2018 13:43:41; MethodName: Request; Form Name: CRM upload Get Offers; User Code:admin
-----------------------------------------------------------------------------

 Error: {"status":"success","message":"get offers data","loyalty":{"status":"Success","message":"Success","loyalty_id":"9815","loyalty_type":"POINT","stages":[{"stage_id":"23442","stage_points":"50","customer_points":0,"stage_description":"Get 5% discount","stage_status":"COUNTING"},{"stage_id":"23443","stage_points":"100","customer_points":0,"stage_description":"get 10% discount","stage_status":"COUNTING"},{"stage_id":"23444","stage_points":"150","customer_points":0,"stage_description":"get 15% discount","stage_status":"COUNTING"},{"stage_id":"23445","stage_points":"200","customer_points":0,"stage_description":"get 20% discount","stage_status":"COUNTING"}]},"offers":[{"discount_arr":{"discountIn":"percentage","discountValue":"10.0000","minimumBillValue":"100","maxDiscountValue":"1000","includeOrExclude":"all","productList":""},"offerId":"568","offerTitle":"For Palraj","offerDesc":"Give 10% discount","createdDate":"2018-10-16 12:43:13","offerImage":"","validTill":"2018-10-31 23:59:59","couponFlag":"Y","isPaidOffer":"","type":"","mem_id":0,"isClaimed":"no","offerType":"Promotion"}],"membership":[]}; Date & Time 16/10/2018 13:43:42; MethodName: Response; Form Name: CRM upload; User Code:admin
-----------------------------------------------------------------------------

 Error: method=confirmOtp&data={
  "businessId": "89087",
  "customerMobile": "9566044366",
  "otp": "221552"
}; Date & Time 16/10/2018 13:44:18; MethodName: Request; Form Name: CRM upload Get Offers; User Code:admin
-----------------------------------------------------------------------------

 Error: {"status":"success","message":"success"}; Date & Time 16/10/2018 13:44:36; MethodName: Response; Form Name: CRM upload; User Code:admin
-----------------------------------------------------------------------------

 Error: String or binary data would be truncated.
The statement has been terminated.; Date & Time 16/10/2018 13:45:35; MethodName: Bill Save; Form Name: ; User Code:admin
-----------------------------------------------------------------------------

 Error: String or binary data would be truncated.
The statement has been terminated.; Date & Time 16/10/2018 13:45:39; MethodName: fncTender; Form Name: PosForms.frmPOS; User Code:admin
-----------------------------------------------------------------------------

 Error: method=getCustomerOffers&data={
  "businessId": "89087",
  "customer_number": "9566044366",
  "pageType": "register",
  "generateOtp": "Y"
}; Date & Time 16/10/2018 14:36:04; MethodName: Request; Form Name: CRM upload Get Offers; User Code:admin
-----------------------------------------------------------------------------

 Error: {"status":"success","message":"get offers data","loyalty":{"status":"Success","message":"Success","loyalty_id":"9815","loyalty_type":"POINT","stages":[{"stage_id":"23442","stage_points":"50","customer_points":0,"stage_description":"Get 5% discount","stage_status":"COUNTING"},{"stage_id":"23443","stage_points":"100","customer_points":0,"stage_description":"get 10% discount","stage_status":"COUNTING"},{"stage_id":"23444","stage_points":"150","customer_points":0,"stage_description":"get 15% discount","stage_status":"COUNTING"},{"stage_id":"23445","stage_points":"200","customer_points":0,"stage_description":"get 20% discount","stage_status":"COUNTING"}]},"offers":[{"discount_arr":{"discountIn":"percentage","discountValue":"10.0000","minimumBillValue":"100","maxDiscountValue":"1000","includeOrExclude":"all","productList":""},"offerId":"568","offerTitle":"For Palraj","offerDesc":"Give 10% discount","createdDate":"2018-10-16 12:43:13","offerImage":"","validTill":"2018-10-31 23:59:59","couponFlag":"Y","isPaidOffer":"","type":"","mem_id":0,"isClaimed":"no","offerType":"Promotion"}],"membership":[]}; Date & Time 16/10/2018 14:36:08; MethodName: Response; Form Name: CRM upload; User Code:admin
-----------------------------------------------------------------------------

 Error: method=confirmOtp&data={
  "businessId": "89087",
  "customerMobile": "9566044366",
  "otp": "377374"
}; Date & Time 16/10/2018 14:37:13; MethodName: Request; Form Name: CRM upload Get Offers; User Code:admin
-----------------------------------------------------------------------------

 Error: {"status":"success","message":"success"}; Date & Time 16/10/2018 14:37:30; MethodName: Response; Form Name: CRM upload; User Code:admin
-----------------------------------------------------------------------------

 Error: String or binary data would be truncated.
The statement has been terminated.; Date & Time 16/10/2018 14:42:57; MethodName: Bill Save; Form Name: ; User Code:admin
-----------------------------------------------------------------------------

 Error: String or binary data would be truncated.
The statement has been terminated.; Date & Time 16/10/2018 14:42:58; MethodName: fncTender; Form Name: PosForms.frmPOS; User Code:admin
-----------------------------------------------------------------------------

 Error: method=getCustomerOffers&data={
  "businessId": "89087",
  "customer_number": "9566044366",
  "pageType": "register",
  "generateOtp": "Y"
}; Date & Time 16/10/2018 14:56:44; MethodName: Request; Form Name: CRM upload Get Offers; User Code:admin
-----------------------------------------------------------------------------

 Error: {"status":"success","message":"get offers data","loyalty":{"status":"Success","message":"Success","loyalty_id":"9815","loyalty_type":"POINT","stages":[{"stage_id":"23442","stage_points":"50","customer_points":0,"stage_description":"Get 5% discount","stage_status":"COUNTING"},{"stage_id":"23443","stage_points":"100","customer_points":0,"stage_description":"get 10% discount","stage_status":"COUNTING"},{"stage_id":"23444","stage_points":"150","customer_points":0,"stage_description":"get 15% discount","stage_status":"COUNTING"},{"stage_id":"23445","stage_points":"200","customer_points":0,"stage_description":"get 20% discount","stage_status":"COUNTING"}]},"offers":[{"discount_arr":{"discountIn":"percentage","discountValue":"10.0000","minimumBillValue":"100","maxDiscountValue":"1000","includeOrExclude":"all","productList":""},"offerId":"568","offerTitle":"For Palraj","offerDesc":"Give 10% discount","createdDate":"2018-10-16 12:43:13","offerImage":"","validTill":"2018-10-31 23:59:59","couponFlag":"Y","isPaidOffer":"","type":"","mem_id":0,"isClaimed":"no","offerType":"Promotion"}],"membership":[]}; Date & Time 16/10/2018 14:56:45; MethodName: Response; Form Name: CRM upload; User Code:admin
-----------------------------------------------------------------------------

 Error: method=confirmOtp&data={
  "businessId": "89087",
  "customerMobile": "9566044366",
  "otp": "5526966"
}; Date & Time 16/10/2018 14:57:39; MethodName: Request; Form Name: CRM upload Get Offers; User Code:admin
-----------------------------------------------------------------------------

 Error: method=redeemptionOtp&data={
  "businessId": "89087",
  "customerMobile": "9566044366",
  "resendOtp": "Y"
}; Date & Time 16/10/2018 14:58:47; MethodName: Request; Form Name: CRM upload Get Offers; User Code:admin
-----------------------------------------------------------------------------

 Error: {"status":"success","message":"OTP Sent"}; Date & Time 16/10/2018 14:58:48; MethodName: Response; Form Name: CRM upload; User Code:admin
-----------------------------------------------------------------------------

 Error: method=confirmOtp&data={
  "businessId": "89087",
  "customerMobile": "9566044366",
  "otp": "931982"
}; Date & Time 16/10/2018 14:59:31; MethodName: Request; Form Name: CRM upload Get Offers; User Code:admin
-----------------------------------------------------------------------------

 Error: {"status":"success","message":"success"}; Date & Time 16/10/2018 15:00:00; MethodName: Response; Form Name: CRM upload; User Code:admin
-----------------------------------------------------------------------------

 Error: Column 'stageId' does not belong to table .; Date & Time 16/10/2018 15:00:58; MethodName: Redeem Offers; Form Name: CRM upload; User Code:admin
-----------------------------------------------------------------------------

 Error: Index and length must refer to a location within the string.
Parameter name: length; Date & Time 16/10/2018 15:01:07; MethodName: fncMember; Form Name: PrinterTemplate.clsPrinterTemplate; User Code:admin
-----------------------------------------------------------------------------

 Error: method=getCustomerOffers&data={
  "businessId": "89087",
  "customer_number": "9566044366",
  "pageType": "register",
  "generateOtp": "Y"
}; Date & Time 16/10/2018 15:19:01; MethodName: Request; Form Name: CRM upload Get Offers; User Code:admin
-----------------------------------------------------------------------------

 Error: {"status":"success","message":"get offers data","loyalty":{"status":"Success","message":"Success","loyalty_id":"9815","loyalty_type":"POINT","stages":[{"stage_id":"23442","stage_points":"50","customer_points":0,"stage_description":"Get 5% discount","stage_status":"COUNTING"},{"stage_id":"23443","stage_points":"100","customer_points":0,"stage_description":"get 10% discount","stage_status":"COUNTING"},{"stage_id":"23444","stage_points":"150","customer_points":0,"stage_description":"get 15% discount","stage_status":"COUNTING"},{"stage_id":"23445","stage_points":"200","customer_points":0,"stage_description":"get 20% discount","stage_status":"COUNTING"}]},"offers":[{"discount_arr":{"discountIn":"percentage","discountValue":"10.0000","minimumBillValue":"100","maxDiscountValue":"1000","includeOrExclude":"all","productList":""},"offerId":"568","offerTitle":"For Palraj","offerDesc":"Give 10% discount","createdDate":"2018-10-16 12:43:13","offerImage":"","validTill":"2018-10-31 23:59:59","couponFlag":"Y","isPaidOffer":"","type":"","mem_id":0,"isClaimed":"no","offerType":"Promotion"}],"membership":[]}; Date & Time 16/10/2018 15:19:04; MethodName: Response; Form Name: CRM upload; User Code:admin
-----------------------------------------------------------------------------

 Error: method=redeemptionOtp&data={
  "businessId": "89087",
  "customerMobile": "9566044366",
  "resendOtp": "Y"
}; Date & Time 16/10/2018 15:19:57; MethodName: Request; Form Name: CRM upload Get Offers; User Code:admin
-----------------------------------------------------------------------------

 Error: {"status":"success","message":"OTP Sent"}; Date & Time 16/10/2018 15:20:06; MethodName: Response; Form Name: CRM upload; User Code:admin
-----------------------------------------------------------------------------

 Error: method=confirmOtp&data={
  "businessId": "89087",
  "customerMobile": "9566044366",
  "otp": "669189"
}; Date & Time 16/10/2018 15:20:24; MethodName: Request; Form Name: CRM upload Get Offers; User Code:admin
-----------------------------------------------------------------------------

 Error: {"status":"success","message":"success"}; Date & Time 16/10/2018 15:20:24; MethodName: Response; Form Name: CRM upload; User Code:admin
-----------------------------------------------------------------------------

 Error: method=getCustomerOffers&data={
  "businessId": "89087",
  "customer_number": "9566044366",
  "pageType": "register",
  "generateOtp": "Y"
}; Date & Time 16/10/2018 15:31:49; MethodName: Request; Form Name: CRM upload Get Offers; User Code:admin
-----------------------------------------------------------------------------

 Error: {"status":"success","message":"get offers data","loyalty":{"status":"Success","message":"Success","loyalty_id":"9815","loyalty_type":"POINT","stages":[{"stage_id":"23442","stage_points":"50","customer_points":0,"stage_description":"Get 5% discount","stage_status":"COUNTING"},{"stage_id":"23443","stage_points":"100","customer_points":0,"stage_description":"get 10% discount","stage_status":"COUNTING"},{"stage_id":"23444","stage_points":"150","customer_points":0,"stage_description":"get 15% discount","stage_status":"COUNTING"},{"stage_id":"23445","stage_points":"200","customer_points":0,"stage_description":"get 20% discount","stage_status":"COUNTING"}]},"offers":[{"discount_arr":{"discountIn":"percentage","discountValue":"10.0000","minimumBillValue":"100","maxDiscountValue":"1000","includeOrExclude":"all","productList":""},"offerId":"568","offerTitle":"For Palraj","offerDesc":"Give 10% discount","createdDate":"2018-10-16 12:43:13","offerImage":"","validTill":"2018-10-31 23:59:59","couponFlag":"Y","isPaidOffer":"","type":"","mem_id":0,"isClaimed":"no","offerType":"Promotion"}],"membership":[]}; Date & Time 16/10/2018 15:31:50; MethodName: Response; Form Name: CRM upload; User Code:admin
-----------------------------------------------------------------------------

 Error: method=confirmOtp&data={
  "businessId": "89087",
  "customerMobile": "9566044366",
  "otp": ""
}; Date & Time 16/10/2018 15:32:12; MethodName: Request; Form Name: CRM upload Get Offers; User Code:admin
-----------------------------------------------------------------------------

 Error: method=getCustomerOffers&data={
  "businessId": "89087",
  "customer_number": "9566044366",
  "pageType": "register",
  "generateOtp": "Y"
}; Date & Time 16/10/2018 15:32:28; MethodName: Request; Form Name: CRM upload Get Offers; User Code:admin
-----------------------------------------------------------------------------

 Error: {"status":"success","message":"get offers data","loyalty":{"status":"Success","message":"Success","loyalty_id":"9815","loyalty_type":"POINT","stages":[{"stage_id":"23442","stage_points":"50","customer_points":0,"stage_description":"Get 5% discount","stage_status":"COUNTING"},{"stage_id":"23443","stage_points":"100","customer_points":0,"stage_description":"get 10% discount","stage_status":"COUNTING"},{"stage_id":"23444","stage_points":"150","customer_points":0,"stage_description":"get 15% discount","stage_status":"COUNTING"},{"stage_id":"23445","stage_points":"200","customer_points":0,"stage_description":"get 20% discount","stage_status":"COUNTING"}]},"offers":[{"discount_arr":{"discountIn":"percentage","discountValue":"10.0000","minimumBillValue":"100","maxDiscountValue":"1000","includeOrExclude":"all","productList":""},"offerId":"568","offerTitle":"For Palraj","offerDesc":"Give 10% discount","createdDate":"2018-10-16 12:43:13","offerImage":"","validTill":"2018-10-31 23:59:59","couponFlag":"Y","isPaidOffer":"","type":"","mem_id":0,"isClaimed":"no","offerType":"Promotion"}],"membership":[]}; Date & Time 16/10/2018 15:32:28; MethodName: Response; Form Name: CRM upload; User Code:admin
-----------------------------------------------------------------------------

 Error: method=getCustomerOffers&data={
  "businessId": "89087",
  "customer_number": "9566044366",
  "pageType": "register",
  "generateOtp": "Y"
}; Date & Time 16/10/2018 15:32:46; MethodName: Request; Form Name: CRM upload Get Offers; User Code:admin
-----------------------------------------------------------------------------

 Error: {"status":"success","message":"get offers data","loyalty":{"status":"Success","message":"Success","loyalty_id":"9815","loyalty_type":"POINT","stages":[{"stage_id":"23442","stage_points":"50","customer_points":0,"stage_description":"Get 5% discount","stage_status":"COUNTING"},{"stage_id":"23443","stage_points":"100","customer_points":0,"stage_description":"get 10% discount","stage_status":"COUNTING"},{"stage_id":"23444","stage_points":"150","customer_points":0,"stage_description":"get 15% discount","stage_status":"COUNTING"},{"stage_id":"23445","stage_points":"200","customer_points":0,"stage_description":"get 20% discount","stage_status":"COUNTING"}]},"offers":[{"discount_arr":{"discountIn":"percentage","discountValue":"10.0000","minimumBillValue":"100","maxDiscountValue":"1000","includeOrExclude":"all","productList":""},"offerId":"568","offerTitle":"For Palraj","offerDesc":"Give 10% discount","createdDate":"2018-10-16 12:43:13","offerImage":"","validTill":"2018-10-31 23:59:59","couponFlag":"Y","isPaidOffer":"","type":"","mem_id":0,"isClaimed":"no","offerType":"Promotion"}],"membership":[]}; Date & Time 16/10/2018 15:32:46; MethodName: Response; Form Name: CRM upload; User Code:admin
-----------------------------------------------------------------------------

 Error: method=redeemptionOtp&data={
  "businessId": "89087",
  "customerMobile": "9566044366",
  "resendOtp": "Y"
}; Date & Time 16/10/2018 15:33:22; MethodName: Request; Form Name: CRM upload Get Offers; User Code:admin
-----------------------------------------------------------------------------

 Error: {"status":"success","message":"OTP Sent"}; Date & Time 16/10/2018 15:33:23; MethodName: Response; Form Name: CRM upload; User Code:admin
-----------------------------------------------------------------------------

 Error: method=confirmOtp&data={
  "businessId": "89087",
  "customerMobile": "9566044366",
  "otp": "398875"
}; Date & Time 16/10/2018 15:33:46; MethodName: Request; Form Name: CRM upload Get Offers; User Code:admin
-----------------------------------------------------------------------------

 Error: {"status":"success","message":"success"}; Date & Time 16/10/2018 15:33:47; MethodName: Response; Form Name: CRM upload; User Code:admin
-----------------------------------------------------------------------------

 Error: method=redeemOffers&data={
  "businessId": "89087",
  "customer_number": "9566044366",
  "offerId": "568",
  "offerType": "Promotion",
  "loyaltyId": "",
  "stageId": ""
}; Date & Time 16/10/2018 15:34:01; MethodName: Request; Form Name: CRM upload Get Offers; User Code:admin
-----------------------------------------------------------------------------

 Error: {"status":"success","message":"Offer redeem successfully."}; Date & Time 16/10/2018 15:34:07; MethodName: Redeem Offers; Form Name: CRM upload; User Code:admin
-----------------------------------------------------------------------------

 Error: Index and length must refer to a location within the string.
Parameter name: length; Date & Time 16/10/2018 15:34:08; MethodName: fncMember; Form Name: PrinterTemplate.clsPrinterTemplate; User Code:admin
-----------------------------------------------------------------------------

 Error: method=getCustomerOffers&data={
  "businessId": "89087",
  "customer_number": "9566044366",
  "pageType": "register",
  "generateOtp": "Y"
}; Date & Time 16/10/2018 15:59:53; MethodName: Request; Form Name: CRM upload Get Offers; User Code:admin
-----------------------------------------------------------------------------

 Error: {"status":"success","message":"get offers data","loyalty":{"status":"Success","message":"Success","loyalty_id":"9815","loyalty_type":"POINT","stages":[{"stage_id":"23442","stage_points":"50","customer_points":0,"stage_description":"Get 5% discount","stage_status":"COUNTING"},{"stage_id":"23443","stage_points":"100","customer_points":0,"stage_description":"get 10% discount","stage_status":"COUNTING"},{"stage_id":"23444","stage_points":"150","customer_points":0,"stage_description":"get 15% discount","stage_status":"COUNTING"},{"stage_id":"23445","stage_points":"200","customer_points":0,"stage_description":"get 20% discount","stage_status":"COUNTING"}]},"offers":[{"discount_arr":{"discountIn":"percentage","discountValue":"10.0000","minimumBillValue":"100","maxDiscountValue":"1000","includeOrExclude":"all","productList":""},"offerId":"568","offerTitle":"For Palraj","offerDesc":"Give 10% discount","createdDate":"2018-10-16 12:43:13","offerImage":"","validTill":"2018-10-31 23:59:59","couponFlag":"Y","isPaidOffer":"","type":"","mem_id":0,"isClaimed":"no","offerType":"Promotion"}],"membership":[]}; Date & Time 16/10/2018 15:59:54; MethodName: Response; Form Name: CRM upload; User Code:admin
-----------------------------------------------------------------------------

 Error: method=redeemptionOtp&data={
  "businessId": "89087",
  "customerMobile": "9566044366",
  "resendOtp": "Y"
}; Date & Time 16/10/2018 16:14:17; MethodName: Request; Form Name: CRM upload Get Offers; User Code:admin
-----------------------------------------------------------------------------

 Error: {"status":"success","message":"OTP Sent"}; Date & Time 16/10/2018 16:14:18; MethodName: Response; Form Name: CRM upload; User Code:admin
-----------------------------------------------------------------------------

 Error: Object reference not set to an instance of an object.; Date & Time 16/10/2018 16:17:14; MethodName: fncTender; Form Name: PosForms.frmPOS; User Code:admin
-----------------------------------------------------------------------------

 Error: method=getCustomerOffers&data={
  "businessId": "89087",
  "customer_number": "9566044366",
  "pageType": "register",
  "generateOtp": "Y"
}; Date & Time 16/10/2018 16:17:20; MethodName: Request; Form Name: CRM upload Get Offers; User Code:admin
-----------------------------------------------------------------------------

 Error: {"status":"success","message":"get offers data","loyalty":{"status":"Success","message":"Success","loyalty_id":"9815","loyalty_type":"POINT","stages":[{"stage_id":"23442","stage_points":"50","customer_points":0,"stage_description":"Get 5% discount","stage_status":"COUNTING"},{"stage_id":"23443","stage_points":"100","customer_points":0,"stage_description":"get 10% discount","stage_status":"COUNTING"},{"stage_id":"23444","stage_points":"150","customer_points":0,"stage_description":"get 15% discount","stage_status":"COUNTING"},{"stage_id":"23445","stage_points":"200","customer_points":0,"stage_description":"get 20% discount","stage_status":"COUNTING"}]},"offers":[{"discount_arr":{"discountIn":"percentage","discountValue":"10.0000","minimumBillValue":"100","maxDiscountValue":"1000","includeOrExclude":"all","productList":""},"offerId":"568","offerTitle":"For Palraj","offerDesc":"Give 10% discount","createdDate":"2018-10-16 12:43:13","offerImage":"","validTill":"2018-10-31 23:59:59","couponFlag":"Y","isPaidOffer":"","type":"","mem_id":0,"isClaimed":"no","offerType":"Promotion"}],"membership":[]}; Date & Time 16/10/2018 16:17:20; MethodName: Response; Form Name: CRM upload; User Code:admin
-----------------------------------------------------------------------------

 Error: Object reference not set to an instance of an object.; Date & Time 16/10/2018 16:17:43; MethodName: fncTender; Form Name: PosForms.frmPOS; User Code:admin
-----------------------------------------------------------------------------

 Error: method=getCustomerOffers&data={
  "businessId": "89087",
  "customer_number": "9566044366",
  "pageType": "register",
  "generateOtp": "Y"
}; Date & Time 16/10/2018 16:17:47; MethodName: Request; Form Name: CRM upload Get Offers; User Code:admin
-----------------------------------------------------------------------------

 Error: {"status":"success","message":"get offers data","loyalty":{"status":"Success","message":"Success","loyalty_id":"9815","loyalty_type":"POINT","stages":[{"stage_id":"23442","stage_points":"50","customer_points":0,"stage_description":"Get 5% discount","stage_status":"COUNTING"},{"stage_id":"23443","stage_points":"100","customer_points":0,"stage_description":"get 10% discount","stage_status":"COUNTING"},{"stage_id":"23444","stage_points":"150","customer_points":0,"stage_description":"get 15% discount","stage_status":"COUNTING"},{"stage_id":"23445","stage_points":"200","customer_points":0,"stage_description":"get 20% discount","stage_status":"COUNTING"}]},"offers":[{"discount_arr":{"discountIn":"percentage","discountValue":"10.0000","minimumBillValue":"100","maxDiscountValue":"1000","includeOrExclude":"all","productList":""},"offerId":"568","offerTitle":"For Palraj","offerDesc":"Give 10% discount","createdDate":"2018-10-16 12:43:13","offerImage":"","validTill":"2018-10-31 23:59:59","couponFlag":"Y","isPaidOffer":"","type":"","mem_id":0,"isClaimed":"no","offerType":"Promotion"}],"membership":[]}; Date & Time 16/10/2018 16:17:47; MethodName: Response; Form Name: CRM upload; User Code:admin
-----------------------------------------------------------------------------

 Error: Index and length must refer to a location within the string.
Parameter name: length; Date & Time 16/10/2018 16:20:02; MethodName: fncMember; Form Name: PrinterTemplate.clsPrinterTemplate; User Code:admin
-----------------------------------------------------------------------------

 Error: method=getCustomerOffers&data={
  "businessId": "89087",
  "customer_number": "9566044366",
  "pageType": "register",
  "generateOtp": "Y"
}; Date & Time 16/10/2018 16:43:32; MethodName: Request; Form Name: CRM upload Get Offers; User Code:admin
-----------------------------------------------------------------------------

 Error: {"status":"success","message":"get offers data","loyalty":{"status":"Success","message":"Success","loyalty_id":"9815","loyalty_type":"POINT","stages":[{"stage_id":"23442","stage_points":"50","customer_points":0,"stage_description":"Get 5% discount","stage_status":"COUNTING"},{"stage_id":"23443","stage_points":"100","customer_points":0,"stage_description":"get 10% discount","stage_status":"COUNTING"},{"stage_id":"23444","stage_points":"150","customer_points":0,"stage_description":"get 15% discount","stage_status":"COUNTING"},{"stage_id":"23445","stage_points":"200","customer_points":0,"stage_description":"get 20% discount","stage_status":"COUNTING"}]},"offers":[{"discount_arr":{"discountIn":"percentage","discountValue":"10.0000","minimumBillValue":"100","maxDiscountValue":"1000","includeOrExclude":"all","productList":""},"offerId":"568","offerTitle":"For Palraj","offerDesc":"Give 10% discount","createdDate":"2018-10-16 12:43:13","offerImage":"","validTill":"2018-10-31 23:59:59","couponFlag":"Y","isPaidOffer":"","type":"","mem_id":0,"isClaimed":"no","offerType":"Promotion"}],"membership":[]}; Date & Time 16/10/2018 16:43:33; MethodName: Response; Form Name: CRM upload; User Code:admin
-----------------------------------------------------------------------------

 Error: method=getCustomerOffers&data={
  "businessId": "89087",
  "customer_number": "9566044366",
  "pageType": "register",
  "generateOtp": "Y"
}; Date & Time 16/10/2018 16:43:50; MethodName: Request; Form Name: CRM upload Get Offers; User Code:admin
-----------------------------------------------------------------------------

 Error: {"status":"success","message":"get offers data","loyalty":{"status":"Success","message":"Success","loyalty_id":"9815","loyalty_type":"POINT","stages":[{"stage_id":"23442","stage_points":"50","customer_points":0,"stage_description":"Get 5% discount","stage_status":"COUNTING"},{"stage_id":"23443","stage_points":"100","customer_points":0,"stage_description":"get 10% discount","stage_status":"COUNTING"},{"stage_id":"23444","stage_points":"150","customer_points":0,"stage_description":"get 15% discount","stage_status":"COUNTING"},{"stage_id":"23445","stage_points":"200","customer_points":0,"stage_description":"get 20% discount","stage_status":"COUNTING"}]},"offers":[{"discount_arr":{"discountIn":"percentage","discountValue":"10.0000","minimumBillValue":"100","maxDiscountValue":"1000","includeOrExclude":"all","productList":""},"offerId":"568","offerTitle":"For Palraj","offerDesc":"Give 10% discount","createdDate":"2018-10-16 12:43:13","offerImage":"","validTill":"2018-10-31 23:59:59","couponFlag":"Y","isPaidOffer":"","type":"","mem_id":0,"isClaimed":"no","offerType":"Promotion"}],"membership":[]}; Date & Time 16/10/2018 16:43:50; MethodName: Response; Form Name: CRM upload; User Code:admin
-----------------------------------------------------------------------------

 Error: method=getCustomerOffers&data={
  "businessId": "89087",
  "customer_number": "9566044366",
  "pageType": "register",
  "generateOtp": "Y"
}; Date & Time 16/10/2018 16:45:50; MethodName: Request; Form Name: CRM upload Get Offers; User Code:admin
-----------------------------------------------------------------------------

 Error: {"status":"success","message":"get offers data","loyalty":{"status":"Success","message":"Success","loyalty_id":"9815","loyalty_type":"POINT","stages":[{"stage_id":"23442","stage_points":"50","customer_points":0,"stage_description":"Get 5% discount","stage_status":"COUNTING"},{"stage_id":"23443","stage_points":"100","customer_points":0,"stage_description":"get 10% discount","stage_status":"COUNTING"},{"stage_id":"23444","stage_points":"150","customer_points":0,"stage_description":"get 15% discount","stage_status":"COUNTING"},{"stage_id":"23445","stage_points":"200","customer_points":0,"stage_description":"get 20% discount","stage_status":"COUNTING"}]},"offers":[{"discount_arr":{"discountIn":"percentage","discountValue":"10.0000","minimumBillValue":"100","maxDiscountValue":"1000","includeOrExclude":"all","productList":""},"offerId":"568","offerTitle":"For Palraj","offerDesc":"Give 10% discount","createdDate":"2018-10-16 12:43:13","offerImage":"","validTill":"2018-10-31 23:59:59","couponFlag":"Y","isPaidOffer":"","type":"","mem_id":0,"isClaimed":"no","offerType":"Promotion"}],"membership":[]}; Date & Time 16/10/2018 16:45:51; MethodName: Response; Form Name: CRM upload; User Code:admin
-----------------------------------------------------------------------------

 Error: method=confirmOtp&data={
  "businessId": "89087",
  "customerMobile": "9566044366",
  "otp": "524176"
}; Date & Time 16/10/2018 16:47:04; MethodName: Request; Form Name: CRM upload Get Offers; User Code:admin
-----------------------------------------------------------------------------

 Error: method=getCustomerOffers&data={
  "businessId": "89087",
  "customer_number": "9566044366",
  "pageType": "register",
  "generateOtp": "Y"
}; Date & Time 16/10/2018 16:57:18; MethodName: Request; Form Name: CRM upload Get Offers; User Code:admin
-----------------------------------------------------------------------------

 Error: {"status":"success","message":"get offers data","loyalty":{"status":"Success","message":"Success","loyalty_id":"9815","loyalty_type":"POINT","stages":[{"stage_id":"23442","stage_points":"50","customer_points":0,"stage_description":"Get 5% discount","stage_status":"COUNTING"},{"stage_id":"23443","stage_points":"100","customer_points":0,"stage_description":"get 10% discount","stage_status":"COUNTING"},{"stage_id":"23444","stage_points":"150","customer_points":0,"stage_description":"get 15% discount","stage_status":"COUNTING"},{"stage_id":"23445","stage_points":"200","customer_points":0,"stage_description":"get 20% discount","stage_status":"COUNTING"}]},"offers":[{"discount_arr":{"discountIn":"percentage","discountValue":"10.0000","minimumBillValue":"100","maxDiscountValue":"1000","includeOrExclude":"all","productList":""},"offerId":"568","offerTitle":"For Palraj","offerDesc":"Give 10% discount","createdDate":"2018-10-16 12:43:13","offerImage":"","validTill":"2018-10-31 23:59:59","couponFlag":"Y","isPaidOffer":"","type":"","mem_id":0,"isClaimed":"no","offerType":"Promotion"}],"membership":[]}; Date & Time 16/10/2018 16:57:18; MethodName: Response; Form Name: CRM upload; User Code:admin
-----------------------------------------------------------------------------

 Error: method=getCustomerOffers&data={
  "businessId": "89087",
  "customer_number": "9566044366",
  "pageType": "register",
  "generateOtp": "Y"
}; Date & Time 16/10/2018 17:01:55; MethodName: Request; Form Name: CRM upload Get Offers; User Code:admin
-----------------------------------------------------------------------------

 Error: {"status":"success","message":"get offers data","loyalty":{"status":"Success","message":"Success","loyalty_id":"9815","loyalty_type":"POINT","stages":[{"stage_id":"23442","stage_points":"50","customer_points":0,"stage_description":"Get 5% discount","stage_status":"COUNTING"},{"stage_id":"23443","stage_points":"100","customer_points":0,"stage_description":"get 10% discount","stage_status":"COUNTING"},{"stage_id":"23444","stage_points":"150","customer_points":0,"stage_description":"get 15% discount","stage_status":"COUNTING"},{"stage_id":"23445","stage_points":"200","customer_points":0,"stage_description":"get 20% discount","stage_status":"COUNTING"}]},"offers":[{"discount_arr":{"discountIn":"percentage","discountValue":"10.0000","minimumBillValue":"100","maxDiscountValue":"1000","includeOrExclude":"all","productList":""},"offerId":"568","offerTitle":"For Palraj","offerDesc":"Give 10% discount","createdDate":"2018-10-16 12:43:13","offerImage":"","validTill":"2018-10-31 23:59:59","couponFlag":"Y","isPaidOffer":"","type":"","mem_id":0,"isClaimed":"no","offerType":"Promotion"}],"membership":[]}; Date & Time 16/10/2018 17:01:56; MethodName: Response; Form Name: CRM upload; User Code:admin
-----------------------------------------------------------------------------

 Error: method=getCustomerOffers&data={
  "businessId": "89087",
  "customer_number": "9566044366",
  "pageType": "register",
  "generateOtp": "Y"
}; Date & Time 16/10/2018 17:02:31; MethodName: Request; Form Name: CRM upload Get Offers; User Code:admin
-----------------------------------------------------------------------------

 Error: {"status":"success","message":"get offers data","loyalty":{"status":"Success","message":"Success","loyalty_id":"9815","loyalty_type":"POINT","stages":[{"stage_id":"23442","stage_points":"50","customer_points":0,"stage_description":"Get 5% discount","stage_status":"COUNTING"},{"stage_id":"23443","stage_points":"100","customer_points":0,"stage_description":"get 10% discount","stage_status":"COUNTING"},{"stage_id":"23444","stage_points":"150","customer_points":0,"stage_description":"get 15% discount","stage_status":"COUNTING"},{"stage_id":"23445","stage_points":"200","customer_points":0,"stage_description":"get 20% discount","stage_status":"COUNTING"}]},"offers":[{"discount_arr":{"discountIn":"percentage","discountValue":"10.0000","minimumBillValue":"100","maxDiscountValue":"1000","includeOrExclude":"all","productList":""},"offerId":"568","offerTitle":"For Palraj","offerDesc":"Give 10% discount","createdDate":"2018-10-16 12:43:13","offerImage":"","validTill":"2018-10-31 23:59:59","couponFlag":"Y","isPaidOffer":"","type":"","mem_id":0,"isClaimed":"no","offerType":"Promotion"}],"membership":[]}; Date & Time 16/10/2018 17:02:32; MethodName: Response; Form Name: CRM upload; User Code:admin
-----------------------------------------------------------------------------

 Error: method=redeemptionOtp&data={
  "businessId": "89087",
  "customerMobile": "9566044366",
  "resendOtp": "Y"
}; Date & Time 16/10/2018 17:02:48; MethodName: Request; Form Name: CRM upload Get Offers; User Code:admin
-----------------------------------------------------------------------------

 Error: {"status":"success","message":"OTP Sent"}; Date & Time 16/10/2018 17:02:48; MethodName: Response; Form Name: CRM upload; User Code:admin
-----------------------------------------------------------------------------

 Error: method=confirmOtp&data={
  "businessId": "89087",
  "customerMobile": "9566044366",
  "otp": "427176"
}; Date & Time 16/10/2018 17:03:40; MethodName: Request; Form Name: CRM upload Get Offers; User Code:admin
-----------------------------------------------------------------------------

 Error: method=redeemptionOtp&data={
  "businessId": "89087",
  "customerMobile": "9566044366",
  "resendOtp": "Y"
}; Date & Time 16/10/2018 17:04:18; MethodName: Request; Form Name: CRM upload Get Offers; User Code:admin
-----------------------------------------------------------------------------

 Error: {"status":"success","message":"OTP Sent"}; Date & Time 16/10/2018 17:04:19; MethodName: Response; Form Name: CRM upload; User Code:admin
-----------------------------------------------------------------------------

 Error: method=confirmOtp&data={
  "businessId": "89087",
  "customerMobile": "9566044366",
  "otp": "368519"
}; Date & Time 16/10/2018 17:04:58; MethodName: Request; Form Name: CRM upload Get Offers; User Code:admin
-----------------------------------------------------------------------------

 Error: method=confirmOtp&data={
  "businessId": "89087",
  "customerMobile": "9566044366",
  "otp": "533744"
}; Date & Time 16/10/2018 17:07:24; MethodName: Request; Form Name: CRM upload Get Offers; User Code:admin
-----------------------------------------------------------------------------

 Error: {"status":"success","message":"success"}; Date & Time 16/10/2018 17:07:24; MethodName: Response; Form Name: CRM upload; User Code:admin
-----------------------------------------------------------------------------

 Error: method=redeemOffers&data={
  "businessId": "89087",
  "customer_number": "9566044366",
  "offerId": "568",
  "offerType": "Promotion",
  "loyaltyId": "",
  "stageId": ""
}; Date & Time 16/10/2018 17:08:03; MethodName: Request; Form Name: CRM upload Get Offers; User Code:admin
-----------------------------------------------------------------------------

 Error: {"status":"success","message":"Offer redeem successfully."}; Date & Time 16/10/2018 17:08:49; MethodName: Redeem Offers; Form Name: CRM upload; User Code:admin
-----------------------------------------------------------------------------

 Error: method=getCustomerOffers&data={
  "businessId": "89087",
  "customer_number": "9566044366",
  "pageType": "register",
  "generateOtp": "Y"
}; Date & Time 16/10/2018 17:14:40; MethodName: Request; Form Name: CRM upload Get Offers; User Code:admin
-----------------------------------------------------------------------------

 Error: {"status":"success","message":"get offers data","loyalty":{"status":"Success","message":"Success","loyalty_id":"9815","loyalty_type":"POINT","stages":[{"stage_id":"23442","stage_points":"50","customer_points":0,"stage_description":"Get 5% discount","stage_status":"COUNTING"},{"stage_id":"23443","stage_points":"100","customer_points":0,"stage_description":"get 10% discount","stage_status":"COUNTING"},{"stage_id":"23444","stage_points":"150","customer_points":0,"stage_description":"get 15% discount","stage_status":"COUNTING"},{"stage_id":"23445","stage_points":"200","customer_points":0,"stage_description":"get 20% discount","stage_status":"COUNTING"}]},"offers":[{"discount_arr":{"discountIn":"percentage","discountValue":"10.0000","minimumBillValue":"100","maxDiscountValue":"1000","includeOrExclude":"all","productList":""},"offerId":"568","offerTitle":"For Palraj","offerDesc":"Give 10% discount","createdDate":"2018-10-16 12:43:13","offerImage":"","validTill":"2018-10-31 23:59:59","couponFlag":"Y","isPaidOffer":"","type":"","mem_id":0,"isClaimed":"no","offerType":"Promotion"}],"membership":[]}; Date & Time 16/10/2018 17:14:40; MethodName: Response; Form Name: CRM upload; User Code:admin
-----------------------------------------------------------------------------

 Error: method=redeemptionOtp&data={
  "businessId": "89087",
  "customerMobile": "9566044366",
  "resendOtp": "Y"
}; Date & Time 16/10/2018 17:19:19; MethodName: Request; Form Name: CRM upload Get Offers; User Code:admin
-----------------------------------------------------------------------------

 Error: {"status":"success","message":"OTP Sent"}; Date & Time 16/10/2018 17:19:19; MethodName: Response; Form Name: CRM upload; User Code:admin
-----------------------------------------------------------------------------

 Error: method=confirmOtp&data={
  "businessId": "89087",
  "customerMobile": "9566044366",
  "otp": "513544"
}; Date & Time 16/10/2018 17:20:02; MethodName: Request; Form Name: CRM upload Get Offers; User Code:admin
-----------------------------------------------------------------------------

 Error: {"status":"success","message":"success"}; Date & Time 16/10/2018 17:20:02; MethodName: Response; Form Name: CRM upload; User Code:admin
-----------------------------------------------------------------------------

 Error: method=redeemOffers&data={
  "businessId": "89087",
  "customer_number": "9566044366",
  "offerId": "568",
  "offerType": "Promotion",
  "loyaltyId": "",
  "stageId": ""
}; Date & Time 16/10/2018 17:21:08; MethodName: Request; Form Name: CRM upload Get Offers; User Code:admin
-----------------------------------------------------------------------------

 Error: {"status":"success","message":"Offer redeem successfully."}; Date & Time 16/10/2018 17:21:15; MethodName: Redeem Offers; Form Name: CRM upload; User Code:admin
-----------------------------------------------------------------------------

 Error: Index and length must refer to a location within the string.
Parameter name: length; Date & Time 16/10/2018 17:21:16; MethodName: fncMember; Form Name: PrinterTemplate.clsPrinterTemplate; User Code:admin
-----------------------------------------------------------------------------

 Error: The process cannot access the file 'C:\Free.txt' because it is being used by another process.; Date & Time 16/10/2018 17:21:44; MethodName: fncPrint; Form Name: PrinterTemplate.clsPrinterTemplate; User Code:admin
-----------------------------------------------------------------------------
