
 Error: Load report failed.; Date & Time 30/07/2019 16:10:11; MethodName: frmInVoiceReport_Load; Form Name: PosForms.frmInvoiceReport; User Code:admin
-----------------------------------------------------------------------------

 Error: Column 'AddnCess' does not belong to table Table9.; Date & Time 30/07/2019 16:16:09; MethodName: fncSettlementDenomination; Form Name: PrinterTemplate.clsPrinterTemplate; User Code:admin
-----------------------------------------------------------------------------

 Error: Invalid column name 'PTM_UOM_MAX_WPRICE'.; Date & Time 30/07/2019 20:16:48; MethodName: fncLoadTerminalSettings; Form Name: LOGIN- Terminal Settings; User Code:admin
-----------------------------------------------------------------------------

 Error: Procedure or function USP_SET_TILL_CONFIG has too many arguments specified.; Date & Time 30/07/2019 20:17:02; MethodName: getExecuteSPTransactions; Form Name: System.Data.SqlClient.SqlException; User Code:admin
-----------------------------------------------------------------------------

 Error: Invalid column name 'PTM_UOM_MAX_WPRICE'.; Date & Time 30/07/2019 20:19:43; MethodName: fncLoadTerminalSettings; Form Name: LOGIN- Terminal Settings; User Code:admin
-----------------------------------------------------------------------------

 Error: Column 'MasterDiscount' does not belong to table .; Date & Time 30/07/2019 20:20:18; MethodName: txtSMan_KeyDown; Form Name: PosForms.frmPOS; User Code:admin
-----------------------------------------------------------------------------

 Error: Column 'MasterDiscount' does not belong to table .; Date & Time 30/07/2019 20:23:52; MethodName: txtSMan_KeyDown; Form Name: PosForms.frmPOS; User Code:admin
-----------------------------------------------------------------------------

 Error: Column 'MasterDiscount' does not belong to table .; Date & Time 30/07/2019 20:23:54; MethodName: txtSMan_KeyDown; Form Name: PosForms.frmPOS; User Code:admin
-----------------------------------------------------------------------------

 Error: Column 'MasterDiscount' does not belong to table .; Date & Time 30/07/2019 20:24:39; MethodName: txtSMan_KeyDown; Form Name: PosForms.frmPOS; User Code:admin
-----------------------------------------------------------------------------

 Error: Column 'MasterDiscount' does not belong to table .; Date & Time 30/07/2019 20:24:40; MethodName: txtSMan_KeyDown; Form Name: PosForms.frmPOS; User Code:admin
-----------------------------------------------------------------------------

 Error: Column 'MasterDiscount' does not belong to table .; Date & Time 30/07/2019 20:24:40; MethodName: txtSMan_KeyDown; Form Name: PosForms.frmPOS; User Code:admin
-----------------------------------------------------------------------------

 Error: Procedure or function USP_SET_SALES_HEADER has too many arguments specified.; Date & Time 30/07/2019 20:25:11; MethodName: Bill Save; Form Name: ; User Code:admin
-----------------------------------------------------------------------------

 Error: Procedure or function USP_SET_SALES_HEADER has too many arguments specified.; Date & Time 30/07/2019 20:29:49; MethodName: fncTender; Form Name: PosForms.frmPOS; User Code:admin
-----------------------------------------------------------------------------

 Error: Could not find stored procedure 'USP_PRINTER_TEMPLATE_VALUES'.; Date & Time 30/07/2019 20:35:07; MethodName: fncCommondetail; Form Name: PrinterTemplate.clsPrinterTemplate; User Code:admin
-----------------------------------------------------------------------------

 Error: Cannot find table 3.; Date & Time 30/07/2019 20:35:07; MethodName: fncFontdetail; Form Name: PrinterTemplate.clsPrinterTemplate; User Code:admin
-----------------------------------------------------------------------------

 Error: 'count' must be non-negative.
Parameter name: count; Date & Time 30/07/2019 20:35:08; MethodName: fncPrint; Form Name: PrinterTemplate.clsPrinterTemplate; User Code:admin
-----------------------------------------------------------------------------

 Error: Cannot find table 1.; Date & Time 30/07/2019 20:35:08; MethodName: fncHeader; Form Name: PrinterTemplate.clsPrinterTemplate; User Code:admin
-----------------------------------------------------------------------------

 Error: Cannot find table 2.; Date & Time 30/07/2019 20:35:08; MethodName: fncSubHeader; Form Name: PrinterTemplate.clsPrinterTemplate; User Code:admin
-----------------------------------------------------------------------------

 Error: Incorrect syntax near ','.; Date & Time 30/07/2019 20:35:08; MethodName: fncItemDetail; Form Name: PrinterTemplate.clsPrinterTemplate; User Code:admin
-----------------------------------------------------------------------------

 Error: Cannot find table 4.; Date & Time 30/07/2019 20:35:08; MethodName: fncTotalAndDiscount; Form Name: PrinterTemplate.clsPrinterTemplate; User Code:admin
-----------------------------------------------------------------------------

 Error: Cannot find table 4.; Date & Time 30/07/2019 20:35:08; MethodName: fncSettlementDenomination; Form Name: PrinterTemplate.clsPrinterTemplate; User Code:admin
-----------------------------------------------------------------------------

 Error: Cannot find table 10.; Date & Time 30/07/2019 20:35:08; MethodName: fncMember; Form Name: PrinterTemplate.clsPrinterTemplate; User Code:admin
-----------------------------------------------------------------------------

 Error: Cannot find table 5.; Date & Time 30/07/2019 20:35:09; MethodName: fncFooter; Form Name: PrinterTemplate.clsPrinterTemplate; User Code:admin
-----------------------------------------------------------------------------

 Error: Incorrect syntax near ','.; Date & Time 30/07/2019 20:35:09; MethodName: fncBagItemPrint; Form Name: PrinterTemplate.clsPrinterTemplate; User Code:admin
-----------------------------------------------------------------------------

 Error: Incorrect syntax near ','.; Date & Time 30/07/2019 20:35:11; MethodName: fncFreeItemPrint; Form Name: PrinterTemplate.clsPrinterTemplate; User Code:admin
-----------------------------------------------------------------------------

 Error: Invalid column name 'Quotation'.
Invalid column name 'UOM'.; Date & Time 30/07/2019 20:35:35; MethodName: fncItemDetail; Form Name: PrinterTemplate.clsPrinterTemplate; User Code:admin
-----------------------------------------------------------------------------

 Error: Column 'AddnCess' does not belong to table Table9.; Date & Time 30/07/2019 20:35:36; MethodName: fncSettlementDenomination; Form Name: PrinterTemplate.clsPrinterTemplate; User Code:admin
-----------------------------------------------------------------------------
