
 Error: Timeout expired.  The timeout period elapsed prior to completion of the operation or the server is not responding.; Date & Time 11/12/2018 15:44:32; MethodName: frmRecallPOSActivities_Load; Form Name: PosForms.frmRecallPOSActivities; User Code:admin
-----------------------------------------------------------------------------

 Error: method=getCustomerOffers&data={
  "businessId": "89087",
  "customer_number": "8988977789",
  "pageType": "register",
  "generateOtp": "Y"
}; Date & Time 11/12/2018 17:26:56; MethodName: Request; Form Name: CRM upload Get Offers; User Code:admin
-----------------------------------------------------------------------------

 Error: {"status":"success","message":"get offers data","loyalty":{},"offers":[{"discount_arr":{"discountIn":"percentage","discountValue":"10.0000","minimumBillValue":"100","maxDiscountValue":"1000","includeOrExclude":"all","productList":""},"offerId":"568","offerTitle":"For Palraj","offerDesc":"Give 10% discount","createdDate":"2018-10-16 12:43:13","offerImage":"","validTill":"2018-12-31 23:59:59","couponFlag":"Y","isPaidOffer":"","type":"","mem_id":0,"isClaimed":"no","offerType":"Promotion"}],"membership":[]}; Date & Time 11/12/2018 17:26:58; MethodName: Response; Form Name: CRM upload; User Code:admin
-----------------------------------------------------------------------------

 Error: Index and length must refer to a location within the string.
Parameter name: length; Date & Time 11/12/2018 17:27:16; MethodName: fncMember; Form Name: PrinterTemplate.clsPrinterTemplate; User Code:admin
-----------------------------------------------------------------------------

 Error: method=getCustomerOffers&data={
  "businessId": "89087",
  "customer_number": "8988977789",
  "pageType": "register",
  "generateOtp": "Y"
}; Date & Time 11/12/2018 17:28:01; MethodName: Request; Form Name: CRM upload Get Offers; User Code:admin
-----------------------------------------------------------------------------

 Error: {"status":"success","message":"get offers data","loyalty":{},"offers":[{"discount_arr":{"discountIn":"percentage","discountValue":"10.0000","minimumBillValue":"100","maxDiscountValue":"1000","includeOrExclude":"all","productList":""},"offerId":"568","offerTitle":"For Palraj","offerDesc":"Give 10% discount","createdDate":"2018-10-16 12:43:13","offerImage":"","validTill":"2018-12-31 23:59:59","couponFlag":"Y","isPaidOffer":"","type":"","mem_id":0,"isClaimed":"no","offerType":"Promotion"}],"membership":[]}; Date & Time 11/12/2018 17:28:02; MethodName: Response; Form Name: CRM upload; User Code:admin
-----------------------------------------------------------------------------

 Error: Object cannot be cast from DBNull to other types.; Date & Time 11/12/2018 17:28:39; MethodName: fncMember; Form Name: PrinterTemplate.clsPrinterTemplate; User Code:admin
-----------------------------------------------------------------------------

 Error: NF; Date & Time 11/12/2018 17:29:44; MethodName: Bill Save; Form Name: ; User Code:admin
-----------------------------------------------------------------------------
