
 Error: Execution Timeout Expired.  The timeout period elapsed prior to completion of the operation or the server is not responding.; Date & Time 03-07-2021 10:27:28; MethodName: Bill Save; Form Name: ; User Code:admin
-----------------------------------------------------------------------------

 Error: Execution Timeout Expired.  The timeout period elapsed prior to completion of the operation or the server is not responding.; Date & Time 03-07-2021 10:27:42; MethodName: fncTender; Form Name: PosForms.frmPOS; User Code:admin
-----------------------------------------------------------------------------

 Error: Cannot open database "EntV8_SriKrishna" requested by the login. The login failed.
Login failed for user 'sa'.; Date & Time 03-07-2021 10:27:59; MethodName: fncTender; Form Name: PosForms.frmPOS; User Code:admin
-----------------------------------------------------------------------------
