
 Error: Object reference not set to an instance of an object.; Date & Time 25-08-2020 15:27:06; MethodName: fncPrint; Form Name: PrinterTemplate.clsPrinterTemplate; User Code:admin
-----------------------------------------------------------------------------
