
 Error: Object reference not set to an instance of an object.; Date & Time 15-04-2020 13:59:12; MethodName: fncPrint; Form Name: PrinterTemplate.clsPrinterTemplate; User Code:admin
-----------------------------------------------------------------------------
