
 Error: Column 'Discount' does not belong to table .; Date & Time 20/08/2022 06:54:46 PM; MethodName: fncBatchSelection; Form Name: PosForms.frmPOS; User Code:admin
-----------------------------------------------------------------------------

 Error: Column 'Discount' does not belong to table .; Date & Time 20/08/2022 06:54:47 PM; MethodName: fncBatchSelection; Form Name: PosForms.frmPOS; User Code:admin
-----------------------------------------------------------------------------

 Error: Column 'Discount' does not belong to table .; Date & Time 20/08/2022 06:55:15 PM; MethodName: fncBatchSelection; Form Name: PosForms.frmPOS; User Code:admin
-----------------------------------------------------------------------------
