
 Error: Error converting data type nvarchar to datetime.; Date & Time 22-07-2020 19:34:30; MethodName: Bill Save; Form Name: ; User Code:admin
-----------------------------------------------------------------------------
