
 Error: Cannot find the object "TBL_PT_HEADERERP" because it does not exist or you do not have permissions.; Date & Time 02/02/2022 10:34:14; MethodName: fncDownloadPTHeader; Form Name: clsDataMovingMaster; User Code:admin
-----------------------------------------------------------------------------

 Error: Invalid object name 'tbl_PT_HeaderERP'.; Date & Time 02/02/2022 13:20:54; MethodName: fncPrinterAttached; Form Name: clsPrint; User Code:admin
-----------------------------------------------------------------------------

 Error: Invalid object name 'tbl_PT_HeaderERP'.; Date & Time 02/02/2022 13:21:00; MethodName: fncPrinterAttached; Form Name: clsPrint; User Code:admin
-----------------------------------------------------------------------------

 Error: Invalid object name 'tbl_PT_HeaderERP'.; Date & Time 02/02/2022 13:21:02; MethodName: fncPrinterAttached; Form Name: clsPrint; User Code:admin
-----------------------------------------------------------------------------

 Error: There is no row at position 0.; Date & Time 02/02/2022 13:21:04; MethodName: frmPOS_Shown; Form Name: PosForms.frmPOS; User Code:admin
-----------------------------------------------------------------------------

 Error: Object reference not set to an instance of an object.; Date & Time 02/02/2022 13:21:08; MethodName: fncLogOff; Form Name: PosForms.frmPOS; User Code:admin
-----------------------------------------------------------------------------

 Error: Invalid object name 'tbl_PT_HeaderERP'.; Date & Time 02/02/2022 16:10:24; MethodName: fncPrinterAttached; Form Name: clsPrint; User Code:admin
-----------------------------------------------------------------------------

 Error: Invalid object name 'tbl_PT_HeaderERP'.; Date & Time 02/02/2022 16:10:49; MethodName: fncPrinterAttached; Form Name: clsPrint; User Code:admin
-----------------------------------------------------------------------------

 Error: Invalid object name 'tbl_PT_HeaderERP'.; Date & Time 02/02/2022 16:10:57; MethodName: fncPrinterAttached; Form Name: clsPrint; User Code:admin
-----------------------------------------------------------------------------

 Error: There is no row at position 0.; Date & Time 02/02/2022 16:11:13; MethodName: frmPOS_Shown; Form Name: PosForms.frmPOS; User Code:admin
-----------------------------------------------------------------------------
