
 Error: method=getCustomerOffers&data={
  "businessId": "89087",
  "customer_number": "8012895555",
  "pageType": "register",
  "generateOtp": "Y"
}; Date & Time 04/12/2018 11:25:43; MethodName: Request; Form Name: CRM upload Get Offers; User Code:admin
-----------------------------------------------------------------------------

 Error: {"status":"success","message":"get offers data","loyalty":{},"offers":[{"discount_arr":{"discountIn":"percentage","discountValue":"10.0000","minimumBillValue":"100","maxDiscountValue":"1000","includeOrExclude":"all","productList":""},"offerId":"568","offerTitle":"For Palraj","offerDesc":"Give 10% discount","createdDate":"2018-10-16 12:43:13","offerImage":"","validTill":"2018-12-31 23:59:59","couponFlag":"Y","isPaidOffer":"","type":"","mem_id":0,"isClaimed":"no","offerType":"Promotion"}],"membership":[]}; Date & Time 04/12/2018 11:25:45; MethodName: Response; Form Name: CRM upload; User Code:admin
-----------------------------------------------------------------------------

 Error: method=getCustomerOffers&data={
  "businessId": "89087",
  "customer_number": "8012895555",
  "pageType": "register",
  "generateOtp": "Y"
}; Date & Time 04/12/2018 11:26:18; MethodName: Request; Form Name: CRM upload Get Offers; User Code:admin
-----------------------------------------------------------------------------

 Error: {"status":"success","message":"get offers data","loyalty":{},"offers":[{"discount_arr":{"discountIn":"percentage","discountValue":"10.0000","minimumBillValue":"100","maxDiscountValue":"1000","includeOrExclude":"all","productList":""},"offerId":"568","offerTitle":"For Palraj","offerDesc":"Give 10% discount","createdDate":"2018-10-16 12:43:13","offerImage":"","validTill":"2018-12-31 23:59:59","couponFlag":"Y","isPaidOffer":"","type":"","mem_id":0,"isClaimed":"no","offerType":"Promotion"}],"membership":[]}; Date & Time 04/12/2018 11:26:18; MethodName: Response; Form Name: CRM upload; User Code:admin
-----------------------------------------------------------------------------

 Error: method=getCustomerOffers&data={
  "businessId": "89087",
  "customer_number": "8012895555",
  "pageType": "register",
  "generateOtp": "Y"
}; Date & Time 04/12/2018 11:26:52; MethodName: Request; Form Name: CRM upload Get Offers; User Code:admin
-----------------------------------------------------------------------------

 Error: {"status":"success","message":"get offers data","loyalty":{},"offers":[{"discount_arr":{"discountIn":"percentage","discountValue":"10.0000","minimumBillValue":"100","maxDiscountValue":"1000","includeOrExclude":"all","productList":""},"offerId":"568","offerTitle":"For Palraj","offerDesc":"Give 10% discount","createdDate":"2018-10-16 12:43:13","offerImage":"","validTill":"2018-12-31 23:59:59","couponFlag":"Y","isPaidOffer":"","type":"","mem_id":0,"isClaimed":"no","offerType":"Promotion"}],"membership":[]}; Date & Time 04/12/2018 11:26:53; MethodName: Response; Form Name: CRM upload; User Code:admin
-----------------------------------------------------------------------------

 Error: method=getCustomerOffers&data={
  "businessId": "89087",
  "customer_number": "8012895555",
  "pageType": "register",
  "generateOtp": "Y"
}; Date & Time 04/12/2018 11:27:09; MethodName: Request; Form Name: CRM upload Get Offers; User Code:admin
-----------------------------------------------------------------------------

 Error: {"status":"success","message":"get offers data","loyalty":{},"offers":[{"discount_arr":{"discountIn":"percentage","discountValue":"10.0000","minimumBillValue":"100","maxDiscountValue":"1000","includeOrExclude":"all","productList":""},"offerId":"568","offerTitle":"For Palraj","offerDesc":"Give 10% discount","createdDate":"2018-10-16 12:43:13","offerImage":"","validTill":"2018-12-31 23:59:59","couponFlag":"Y","isPaidOffer":"","type":"","mem_id":0,"isClaimed":"no","offerType":"Promotion"}],"membership":[]}; Date & Time 04/12/2018 11:27:10; MethodName: Response; Form Name: CRM upload; User Code:admin
-----------------------------------------------------------------------------

 Error: 'count' must be non-negative.
Parameter name: count; Date & Time 04/12/2018 11:29:05; MethodName: fncHeader; Form Name: PrinterTemplate.clsReceipts; User Code:admin
-----------------------------------------------------------------------------

 Error: 'count' must be non-negative.
Parameter name: count; Date & Time 04/12/2018 11:29:05; MethodName: fncSubHeader; Form Name: PrinterTemplate.clsReceipts; User Code:admin
-----------------------------------------------------------------------------

 Error: 'count' must be non-negative.
Parameter name: count; Date & Time 04/12/2018 11:29:51; MethodName: fncHeader; Form Name: PrinterTemplate.clsReceipts; User Code:admin
-----------------------------------------------------------------------------

 Error: 'count' must be non-negative.
Parameter name: count; Date & Time 04/12/2018 11:29:51; MethodName: fncSubHeader; Form Name: PrinterTemplate.clsReceipts; User Code:admin
-----------------------------------------------------------------------------

 Error: 'count' must be non-negative.
Parameter name: count; Date & Time 04/12/2018 11:30:28; MethodName: fncHeader; Form Name: PrinterTemplate.clsReceipts; User Code:admin
-----------------------------------------------------------------------------

 Error: 'count' must be non-negative.
Parameter name: count; Date & Time 04/12/2018 11:30:28; MethodName: fncSubHeader; Form Name: PrinterTemplate.clsReceipts; User Code:admin
-----------------------------------------------------------------------------

 Error: 'count' must be non-negative.
Parameter name: count; Date & Time 04/12/2018 11:30:52; MethodName: fncHeader; Form Name: PrinterTemplate.clsReceipts; User Code:admin
-----------------------------------------------------------------------------

 Error: 'count' must be non-negative.
Parameter name: count; Date & Time 04/12/2018 11:30:52; MethodName: fncSubHeader; Form Name: PrinterTemplate.clsReceipts; User Code:admin
-----------------------------------------------------------------------------

 Error: Column 'Remarks' does not belong to table .; Date & Time 04/12/2018 11:31:55; MethodName: btnAccept_Click; Form Name: PosForms.frmChequeApproval; User Code:admin
-----------------------------------------------------------------------------

 Error: Column 'Remarks' does not belong to table .; Date & Time 04/12/2018 11:31:57; MethodName: btnAccept_Click; Form Name: PosForms.frmChequeApproval; User Code:admin
-----------------------------------------------------------------------------

 Error: Column 'Remarks' does not belong to table .; Date & Time 04/12/2018 11:32:00; MethodName: btnAccept_Click; Form Name: PosForms.frmChequeApproval; User Code:admin
-----------------------------------------------------------------------------

 Error: Column 'Remarks' does not belong to table .; Date & Time 04/12/2018 11:32:03; MethodName: btnAccept_Click; Form Name: PosForms.frmChequeApproval; User Code:admin
-----------------------------------------------------------------------------

 Error: Column 'Remarks' does not belong to table .; Date & Time 04/12/2018 11:33:02; MethodName: btnAccept_Click; Form Name: PosForms.frmChequeApproval; User Code:admin
-----------------------------------------------------------------------------

 Error: Timeout expired.  The timeout period elapsed prior to completion of the operation or the server is not responding.; Date & Time 04/12/2018 11:51:50; MethodName: frmRecallPOSActivities_Load; Form Name: PosForms.frmRecallPOSActivities; User Code:admin
-----------------------------------------------------------------------------

 Error: 'count' must be non-negative.
Parameter name: count; Date & Time 04/12/2018 12:23:53; MethodName: fncHeader; Form Name: PrinterTemplate.clsReceipts; User Code:admin
-----------------------------------------------------------------------------

 Error: 'count' must be non-negative.
Parameter name: count; Date & Time 04/12/2018 12:23:53; MethodName: fncSubHeader; Form Name: PrinterTemplate.clsReceipts; User Code:admin
-----------------------------------------------------------------------------

 Error: 'count' must be non-negative.
Parameter name: count; Date & Time 04/12/2018 12:25:08; MethodName: fncHeader; Form Name: PrinterTemplate.clsReceipts; User Code:admin
-----------------------------------------------------------------------------

 Error: 'count' must be non-negative.
Parameter name: count; Date & Time 04/12/2018 12:25:08; MethodName: fncSubHeader; Form Name: PrinterTemplate.clsReceipts; User Code:admin
-----------------------------------------------------------------------------

 Error: 'count' must be non-negative.
Parameter name: count; Date & Time 04/12/2018 12:25:28; MethodName: fncHeader; Form Name: PrinterTemplate.clsReceipts; User Code:admin
-----------------------------------------------------------------------------

 Error: 'count' must be non-negative.
Parameter name: count; Date & Time 04/12/2018 12:25:28; MethodName: fncSubHeader; Form Name: PrinterTemplate.clsReceipts; User Code:admin
-----------------------------------------------------------------------------

 Error: 'count' must be non-negative.
Parameter name: count; Date & Time 04/12/2018 12:26:00; MethodName: fncHeader; Form Name: PrinterTemplate.clsReceipts; User Code:admin
-----------------------------------------------------------------------------

 Error: 'count' must be non-negative.
Parameter name: count; Date & Time 04/12/2018 12:26:00; MethodName: fncSubHeader; Form Name: PrinterTemplate.clsReceipts; User Code:admin
-----------------------------------------------------------------------------

 Error: 'count' must be non-negative.
Parameter name: count; Date & Time 04/12/2018 12:44:33; MethodName: fncHeader; Form Name: PrinterTemplate.clsReceipts; User Code:admin
-----------------------------------------------------------------------------

 Error: 'count' must be non-negative.
Parameter name: count; Date & Time 04/12/2018 12:44:33; MethodName: fncSubHeader; Form Name: PrinterTemplate.clsReceipts; User Code:admin
-----------------------------------------------------------------------------

 Error: 'count' must be non-negative.
Parameter name: count; Date & Time 04/12/2018 12:44:53; MethodName: fncHeader; Form Name: PrinterTemplate.clsReceipts; User Code:admin
-----------------------------------------------------------------------------

 Error: 'count' must be non-negative.
Parameter name: count; Date & Time 04/12/2018 12:44:53; MethodName: fncSubHeader; Form Name: PrinterTemplate.clsReceipts; User Code:admin
-----------------------------------------------------------------------------

 Error: 'count' must be non-negative.
Parameter name: count; Date & Time 04/12/2018 12:51:15; MethodName: fncHeader; Form Name: PrinterTemplate.clsReceipts; User Code:admin
-----------------------------------------------------------------------------

 Error: 'count' must be non-negative.
Parameter name: count; Date & Time 04/12/2018 12:51:15; MethodName: fncSubHeader; Form Name: PrinterTemplate.clsReceipts; User Code:admin
-----------------------------------------------------------------------------

 Error: 'count' must be non-negative.
Parameter name: count; Date & Time 04/12/2018 12:51:32; MethodName: fncHeader; Form Name: PrinterTemplate.clsReceipts; User Code:admin
-----------------------------------------------------------------------------

 Error: 'count' must be non-negative.
Parameter name: count; Date & Time 04/12/2018 12:51:32; MethodName: fncSubHeader; Form Name: PrinterTemplate.clsReceipts; User Code:admin
-----------------------------------------------------------------------------

 Error: 'count' must be non-negative.
Parameter name: count; Date & Time 04/12/2018 12:51:52; MethodName: fncHeader; Form Name: PrinterTemplate.clsReceipts; User Code:admin
-----------------------------------------------------------------------------

 Error: 'count' must be non-negative.
Parameter name: count; Date & Time 04/12/2018 12:51:52; MethodName: fncSubHeader; Form Name: PrinterTemplate.clsReceipts; User Code:admin
-----------------------------------------------------------------------------

 Error: 'count' must be non-negative.
Parameter name: count; Date & Time 04/12/2018 12:52:16; MethodName: fncHeader; Form Name: PrinterTemplate.clsReceipts; User Code:admin
-----------------------------------------------------------------------------

 Error: 'count' must be non-negative.
Parameter name: count; Date & Time 04/12/2018 12:52:16; MethodName: fncSubHeader; Form Name: PrinterTemplate.clsReceipts; User Code:admin
-----------------------------------------------------------------------------

 Error: 'count' must be non-negative.
Parameter name: count; Date & Time 04/12/2018 13:15:35; MethodName: fncHeader; Form Name: PrinterTemplate.clsReceipts; User Code:admin
-----------------------------------------------------------------------------

 Error: 'count' must be non-negative.
Parameter name: count; Date & Time 04/12/2018 13:15:35; MethodName: fncSubHeader; Form Name: PrinterTemplate.clsReceipts; User Code:admin
-----------------------------------------------------------------------------

 Error: 'count' must be non-negative.
Parameter name: count; Date & Time 04/12/2018 13:15:59; MethodName: fncHeader; Form Name: PrinterTemplate.clsReceipts; User Code:admin
-----------------------------------------------------------------------------

 Error: 'count' must be non-negative.
Parameter name: count; Date & Time 04/12/2018 13:15:59; MethodName: fncSubHeader; Form Name: PrinterTemplate.clsReceipts; User Code:admin
-----------------------------------------------------------------------------

 Error: 'count' must be non-negative.
Parameter name: count; Date & Time 04/12/2018 13:16:22; MethodName: fncHeader; Form Name: PrinterTemplate.clsReceipts; User Code:admin
-----------------------------------------------------------------------------

 Error: 'count' must be non-negative.
Parameter name: count; Date & Time 04/12/2018 13:16:22; MethodName: fncSubHeader; Form Name: PrinterTemplate.clsReceipts; User Code:admin
-----------------------------------------------------------------------------

 Error: 'count' must be non-negative.
Parameter name: count; Date & Time 04/12/2018 13:17:57; MethodName: fncHeader; Form Name: PrinterTemplate.clsReceipts; User Code:admin
-----------------------------------------------------------------------------

 Error: 'count' must be non-negative.
Parameter name: count; Date & Time 04/12/2018 13:17:57; MethodName: fncSubHeader; Form Name: PrinterTemplate.clsReceipts; User Code:admin
-----------------------------------------------------------------------------

 Error: 'count' must be non-negative.
Parameter name: count; Date & Time 04/12/2018 14:28:20; MethodName: fncHeader; Form Name: PrinterTemplate.clsReceipts; User Code:admin
-----------------------------------------------------------------------------

 Error: 'count' must be non-negative.
Parameter name: count; Date & Time 04/12/2018 14:28:20; MethodName: fncSubHeader; Form Name: PrinterTemplate.clsReceipts; User Code:admin
-----------------------------------------------------------------------------

 Error: 'count' must be non-negative.
Parameter name: count; Date & Time 04/12/2018 14:30:44; MethodName: fncHeader; Form Name: PrinterTemplate.clsReceipts; User Code:admin
-----------------------------------------------------------------------------

 Error: 'count' must be non-negative.
Parameter name: count; Date & Time 04/12/2018 14:30:44; MethodName: fncSubHeader; Form Name: PrinterTemplate.clsReceipts; User Code:admin
-----------------------------------------------------------------------------

 Error: 'count' must be non-negative.
Parameter name: count; Date & Time 04/12/2018 14:31:02; MethodName: fncHeader; Form Name: PrinterTemplate.clsReceipts; User Code:admin
-----------------------------------------------------------------------------

 Error: 'count' must be non-negative.
Parameter name: count; Date & Time 04/12/2018 14:31:02; MethodName: fncSubHeader; Form Name: PrinterTemplate.clsReceipts; User Code:admin
-----------------------------------------------------------------------------

 Error: 'count' must be non-negative.
Parameter name: count; Date & Time 04/12/2018 14:31:21; MethodName: fncHeader; Form Name: PrinterTemplate.clsReceipts; User Code:admin
-----------------------------------------------------------------------------

 Error: 'count' must be non-negative.
Parameter name: count; Date & Time 04/12/2018 14:31:21; MethodName: fncSubHeader; Form Name: PrinterTemplate.clsReceipts; User Code:admin
-----------------------------------------------------------------------------

 Error: 'count' must be non-negative.
Parameter name: count; Date & Time 04/12/2018 14:31:40; MethodName: fncHeader; Form Name: PrinterTemplate.clsReceipts; User Code:admin
-----------------------------------------------------------------------------

 Error: 'count' must be non-negative.
Parameter name: count; Date & Time 04/12/2018 14:31:40; MethodName: fncSubHeader; Form Name: PrinterTemplate.clsReceipts; User Code:admin
-----------------------------------------------------------------------------

 Error: 'count' must be non-negative.
Parameter name: count; Date & Time 04/12/2018 14:42:57; MethodName: fncHeader; Form Name: PrinterTemplate.clsReceipts; User Code:admin
-----------------------------------------------------------------------------

 Error: 'count' must be non-negative.
Parameter name: count; Date & Time 04/12/2018 14:42:57; MethodName: fncSubHeader; Form Name: PrinterTemplate.clsReceipts; User Code:admin
-----------------------------------------------------------------------------

 Error: 'count' must be non-negative.
Parameter name: count; Date & Time 04/12/2018 14:43:14; MethodName: fncHeader; Form Name: PrinterTemplate.clsReceipts; User Code:admin
-----------------------------------------------------------------------------

 Error: 'count' must be non-negative.
Parameter name: count; Date & Time 04/12/2018 14:43:14; MethodName: fncSubHeader; Form Name: PrinterTemplate.clsReceipts; User Code:admin
-----------------------------------------------------------------------------

 Error: 'count' must be non-negative.
Parameter name: count; Date & Time 04/12/2018 14:57:05; MethodName: fncHeader; Form Name: PrinterTemplate.clsReceipts; User Code:admin
-----------------------------------------------------------------------------

 Error: 'count' must be non-negative.
Parameter name: count; Date & Time 04/12/2018 14:57:05; MethodName: fncSubHeader; Form Name: PrinterTemplate.clsReceipts; User Code:admin
-----------------------------------------------------------------------------

 Error: 'count' must be non-negative.
Parameter name: count; Date & Time 04/12/2018 14:59:30; MethodName: fncHeader; Form Name: PrinterTemplate.clsReceipts; User Code:admin
-----------------------------------------------------------------------------

 Error: 'count' must be non-negative.
Parameter name: count; Date & Time 04/12/2018 14:59:30; MethodName: fncSubHeader; Form Name: PrinterTemplate.clsReceipts; User Code:admin
-----------------------------------------------------------------------------

 Error: 'count' must be non-negative.
Parameter name: count; Date & Time 04/12/2018 14:59:53; MethodName: fncHeader; Form Name: PrinterTemplate.clsReceipts; User Code:admin
-----------------------------------------------------------------------------

 Error: 'count' must be non-negative.
Parameter name: count; Date & Time 04/12/2018 14:59:53; MethodName: fncSubHeader; Form Name: PrinterTemplate.clsReceipts; User Code:admin
-----------------------------------------------------------------------------

 Error: 'count' must be non-negative.
Parameter name: count; Date & Time 04/12/2018 15:00:12; MethodName: fncHeader; Form Name: PrinterTemplate.clsReceipts; User Code:admin
-----------------------------------------------------------------------------

 Error: 'count' must be non-negative.
Parameter name: count; Date & Time 04/12/2018 15:00:12; MethodName: fncSubHeader; Form Name: PrinterTemplate.clsReceipts; User Code:admin
-----------------------------------------------------------------------------

 Error: 'count' must be non-negative.
Parameter name: count; Date & Time 04/12/2018 15:00:53; MethodName: fncHeader; Form Name: PrinterTemplate.clsReceipts; User Code:admin
-----------------------------------------------------------------------------

 Error: 'count' must be non-negative.
Parameter name: count; Date & Time 04/12/2018 15:00:53; MethodName: fncSubHeader; Form Name: PrinterTemplate.clsReceipts; User Code:admin
-----------------------------------------------------------------------------

 Error: 'count' must be non-negative.
Parameter name: count; Date & Time 04/12/2018 15:06:55; MethodName: fncHeader; Form Name: PrinterTemplate.clsReceipts; User Code:admin
-----------------------------------------------------------------------------

 Error: 'count' must be non-negative.
Parameter name: count; Date & Time 04/12/2018 15:06:55; MethodName: fncSubHeader; Form Name: PrinterTemplate.clsReceipts; User Code:admin
-----------------------------------------------------------------------------

 Error: 'count' must be non-negative.
Parameter name: count; Date & Time 04/12/2018 15:38:24; MethodName: fncHeader; Form Name: PrinterTemplate.clsReceipts; User Code:admin
-----------------------------------------------------------------------------

 Error: 'count' must be non-negative.
Parameter name: count; Date & Time 04/12/2018 15:38:24; MethodName: fncSubHeader; Form Name: PrinterTemplate.clsReceipts; User Code:admin
-----------------------------------------------------------------------------

 Error: 'count' must be non-negative.
Parameter name: count; Date & Time 04/12/2018 15:38:43; MethodName: fncHeader; Form Name: PrinterTemplate.clsReceipts; User Code:admin
-----------------------------------------------------------------------------

 Error: 'count' must be non-negative.
Parameter name: count; Date & Time 04/12/2018 15:38:43; MethodName: fncSubHeader; Form Name: PrinterTemplate.clsReceipts; User Code:admin
-----------------------------------------------------------------------------

 Error: 'count' must be non-negative.
Parameter name: count; Date & Time 04/12/2018 15:39:13; MethodName: fncHeader; Form Name: PrinterTemplate.clsReceipts; User Code:admin
-----------------------------------------------------------------------------

 Error: 'count' must be non-negative.
Parameter name: count; Date & Time 04/12/2018 15:39:13; MethodName: fncSubHeader; Form Name: PrinterTemplate.clsReceipts; User Code:admin
-----------------------------------------------------------------------------

 Error: 'count' must be non-negative.
Parameter name: count; Date & Time 04/12/2018 15:39:36; MethodName: fncHeader; Form Name: PrinterTemplate.clsReceipts; User Code:admin
-----------------------------------------------------------------------------

 Error: 'count' must be non-negative.
Parameter name: count; Date & Time 04/12/2018 15:39:36; MethodName: fncSubHeader; Form Name: PrinterTemplate.clsReceipts; User Code:admin
-----------------------------------------------------------------------------

 Error: Index was outside the bounds of the array.; Date & Time 04/12/2018 16:32:41; MethodName: fncCommondetail; Form Name: PrinterTemplate.clsSettlement; User Code:admin
-----------------------------------------------------------------------------

 Error: Could not find stored procedure 'USP_GET_SHIFT_SETTLEMENT'.; Date & Time 04/12/2018 16:32:45; MethodName: fncShiftDetails; Form Name: PrinterTemplate.clsSettlement; User Code:admin
-----------------------------------------------------------------------------

 Error: Could not find stored procedure 'USP_GET_SALES_SETTLEMENT'.; Date & Time 04/12/2018 16:32:49; MethodName: fncCashDetails; Form Name: PrinterTemplate.clsSettlement; User Code:admin
-----------------------------------------------------------------------------

 Error: Cannot find table 31.; Date & Time 04/12/2018 16:32:49; MethodName: fncWalletCardDetails; Form Name: PrinterTemplate.clsSettlement; User Code:admin
-----------------------------------------------------------------------------
