
 Error: The port is closed.; Date & Time 21-07-2022 16:06:09; MethodName: fncSetWeightzero; Form Name: PosForms.frmPOS; User Code:admin
-----------------------------------------------------------------------------

 Error: The port is closed.; Date & Time 21-07-2022 16:10:52; MethodName: fncSetWeightzero; Form Name: PosForms.frmPOS; User Code:admin
-----------------------------------------------------------------------------

 Error: Column 'Discount' does not belong to table .; Date & Time 21-07-2022 18:12:17; MethodName: fncBatchSelection; Form Name: PosForms.frmPOS; User Code:admin
-----------------------------------------------------------------------------

 Error: Column 'Discount' does not belong to table .; Date & Time 21-07-2022 18:13:00; MethodName: fncBatchSelection; Form Name: PosForms.frmPOS; User Code:admin
-----------------------------------------------------------------------------

 Error: Column 'Discount' does not belong to table .; Date & Time 21-07-2022 18:13:06; MethodName: fncBatchSelection; Form Name: PosForms.frmPOS; User Code:admin
-----------------------------------------------------------------------------

 Error: Column 'Discount' does not belong to table .; Date & Time 21-07-2022 18:13:13; MethodName: fncBatchSelection; Form Name: PosForms.frmPOS; User Code:admin
-----------------------------------------------------------------------------

 Error: Column 'Discount' does not belong to table .; Date & Time 21-07-2022 18:13:28; MethodName: fncBatchSelection; Form Name: PosForms.frmPOS; User Code:admin
-----------------------------------------------------------------------------

 Error: Column 'Discount' does not belong to table .; Date & Time 21-07-2022 18:13:38; MethodName: fncBatchSelection; Form Name: PosForms.frmPOS; User Code:admin
-----------------------------------------------------------------------------

 Error: Column 'Discount' does not belong to table .; Date & Time 21-07-2022 18:13:46; MethodName: fncBatchSelection; Form Name: PosForms.frmPOS; User Code:admin
-----------------------------------------------------------------------------

 Error: Column 'Discount' does not belong to table .; Date & Time 21-07-2022 18:14:10; MethodName: fncBatchSelection; Form Name: PosForms.frmPOS; User Code:admin
-----------------------------------------------------------------------------

 Error: Column 'Discount' does not belong to table .; Date & Time 21-07-2022 18:17:45; MethodName: fncBatchSelection; Form Name: PosForms.frmPOS; User Code:admin
-----------------------------------------------------------------------------
