
 Error: Violation of PRIMARY KEY constraint 'PK_tblsalesHeader'. Cannot insert duplicate key in object 'dbo.tblsalesHeader'.
The statement has been terminated.; Date & Time 19/03/2020 10:56:50; MethodName: getExecuteSPTransactions; Form Name: System.Data.SqlClient.SqlException; User Code:admin
-----------------------------------------------------------------------------

 Error: Violation of PRIMARY KEY constraint 'PK_tblsalesHeader'. Cannot insert duplicate key in object 'dbo.tblsalesHeader'.
The statement has been terminated.; Date & Time 19/03/2020 10:56:58; MethodName: getExecuteSPTransactions; Form Name: System.Data.SqlClient.SqlException; User Code:admin
-----------------------------------------------------------------------------

 Error: Violation of PRIMARY KEY constraint 'PK_tblsalesHeader'. Cannot insert duplicate key in object 'dbo.tblsalesHeader'.
The statement has been terminated.; Date & Time 19/03/2020 10:58:05; MethodName: getExecuteSPTransactions; Form Name: System.Data.SqlClient.SqlException; User Code:admin
-----------------------------------------------------------------------------

 Error: Violation of PRIMARY KEY constraint 'PK_tblsalesHeader'. Cannot insert duplicate key in object 'dbo.tblsalesHeader'.
The statement has been terminated.; Date & Time 19/03/2020 10:58:47; MethodName: getExecuteSPTransactions; Form Name: System.Data.SqlClient.SqlException; User Code:admin
-----------------------------------------------------------------------------

 Error: Violation of PRIMARY KEY constraint 'PK_tblsalesHeader'. Cannot insert duplicate key in object 'dbo.tblsalesHeader'.
The statement has been terminated.; Date & Time 19/03/2020 13:23:34; MethodName: getExecuteSPTransactions; Form Name: System.Data.SqlClient.SqlException; User Code:11
-----------------------------------------------------------------------------

 Error: Violation of PRIMARY KEY constraint 'PK_tblsalesHeader'. Cannot insert duplicate key in object 'dbo.tblsalesHeader'.
The statement has been terminated.; Date & Time 19/03/2020 13:23:52; MethodName: getExecuteSPTransactions; Form Name: System.Data.SqlClient.SqlException; User Code:11
-----------------------------------------------------------------------------

 Error: Day End updated successfully; Date & Time 19/03/2020 13:26:00; MethodName: getExecuteSPTransactions; Form Name: System.Data.SqlClient.SqlException; User Code:11
-----------------------------------------------------------------------------

 Error: Input string was not in a correct format.; Date & Time 19/03/2020 13:26:49; MethodName: fncTender; Form Name: PosForms.frmPOS; User Code:11
-----------------------------------------------------------------------------
