
 Error: Cannot find table 41.; Date & Time 21-11-2022 17:10:05; MethodName: fncDUPIDetails; Form Name: PrinterTemplate.clsSettlement; User Code:admin
-----------------------------------------------------------------------------
