
 Error: ; Date & Time 13-05-2021 11:24:02; MethodName: websocket_MessageReceived; Form Name: ; User Code:admin
-----------------------------------------------------------------------------

 Error: ; Date & Time 13-05-2021 11:41:05; MethodName: fncPaymentOnlineAGSdatacheck; Form Name: A; User Code:admin
-----------------------------------------------------------------------------

 Error: ; Date & Time 13-05-2021 11:41:05; MethodName: fncPaymentOnlineAGSdatacheck; Form Name: B; User Code:admin
-----------------------------------------------------------------------------

 Error: ; Date & Time 13-05-2021 11:41:09; MethodName: fncPaymentOnlineAGSdatacheck; Form Name: C; User Code:admin
-----------------------------------------------------------------------------

 Error: ; Date & Time 13-05-2021 11:41:13; MethodName: btnAdd_Click; Form Name: D; User Code:admin
-----------------------------------------------------------------------------

 Error: Object reference not set to an instance of an object.; Date & Time 13-05-2021 11:42:07; MethodName: btnAdd_Click; Form Name: PosForms.frmCreditCardPopup; User Code:admin
-----------------------------------------------------------------------------

 Error: ; Date & Time 13-05-2021 11:42:13; MethodName: btnAdd_Click; Form Name: D; User Code:admin
-----------------------------------------------------------------------------

 Error: Object reference not set to an instance of an object.; Date & Time 13-05-2021 11:45:58; MethodName: btnAdd_Click; Form Name: PosForms.frmCreditCardPopup; User Code:admin
-----------------------------------------------------------------------------

 Error: ; Date & Time 13-05-2021 11:49:23; MethodName: fncPaymentOnlineAGSdatacheck; Form Name: A; User Code:admin
-----------------------------------------------------------------------------

 Error: ; Date & Time 13-05-2021 11:49:23; MethodName: fncPaymentOnlineAGSdatacheck; Form Name: B; User Code:admin
-----------------------------------------------------------------------------

 Error: ; Date & Time 13-05-2021 11:49:27; MethodName: fncPaymentOnlineAGSdatacheck; Form Name: C; User Code:admin
-----------------------------------------------------------------------------

 Error: ; Date & Time 13-05-2021 11:49:31; MethodName: btnAdd_Click; Form Name: D; User Code:admin
-----------------------------------------------------------------------------

 Error: ; Date & Time 13-05-2021 11:51:54; MethodName: fncPaymentOnlineAGSdatacheck; Form Name: A; User Code:admin
-----------------------------------------------------------------------------

 Error: ; Date & Time 13-05-2021 11:51:54; MethodName: fncPaymentOnlineAGSdatacheck; Form Name: B; User Code:admin
-----------------------------------------------------------------------------

 Error: ; Date & Time 13-05-2021 11:52:01; MethodName: fncPaymentOnlineAGSdatacheck; Form Name: C; User Code:admin
-----------------------------------------------------------------------------

 Error: ; Date & Time 13-05-2021 11:52:08; MethodName: btnAdd_Click; Form Name: D; User Code:admin
-----------------------------------------------------------------------------

 Error: ; Date & Time 13-05-2021 11:53:20; MethodName: fncPaymentOnlineAGSdatacheck; Form Name: A; User Code:admin
-----------------------------------------------------------------------------

 Error: ; Date & Time 13-05-2021 11:53:20; MethodName: fncPaymentOnlineAGSdatacheck; Form Name: B; User Code:admin
-----------------------------------------------------------------------------

 Error: ; Date & Time 13-05-2021 11:53:23; MethodName: fncPaymentOnlineAGSdatacheck; Form Name: C; User Code:admin
-----------------------------------------------------------------------------

 Error: ; Date & Time 13-05-2021 11:53:27; MethodName: btnAdd_Click; Form Name: D; User Code:admin
-----------------------------------------------------------------------------

 Error: ; Date & Time 13-05-2021 11:56:19; MethodName: fncPaymentOnlineAGSdatacheck; Form Name: A; User Code:admin
-----------------------------------------------------------------------------

 Error: ; Date & Time 13-05-2021 11:56:19; MethodName: fncPaymentOnlineAGSdatacheck; Form Name: B; User Code:admin
-----------------------------------------------------------------------------

 Error: ; Date & Time 13-05-2021 11:56:23; MethodName: fncPaymentOnlineAGSdatacheck; Form Name: C; User Code:admin
-----------------------------------------------------------------------------

 Error: ; Date & Time 13-05-2021 11:56:26; MethodName: btnAdd_Click; Form Name: D; User Code:admin
-----------------------------------------------------------------------------

 Error: Object reference not set to an instance of an object.; Date & Time 13-05-2021 12:34:47; MethodName: fncPaymentOnlineAGS; Form Name: PosForms.frmCreditCardPopup; User Code:admin
-----------------------------------------------------------------------------

 Error: ; Date & Time 13-05-2021 13:13:23; MethodName: fncPaymentOnlineAGSdatacheck; Form Name: A; User Code:admin
-----------------------------------------------------------------------------

 Error: ; Date & Time 13-05-2021 13:13:24; MethodName: fncPaymentOnlineAGSdatacheck; Form Name: B; User Code:admin
-----------------------------------------------------------------------------

 Error: ; Date & Time 13-05-2021 13:13:27; MethodName: fncPaymentOnlineAGSdatacheck; Form Name: C; User Code:admin
-----------------------------------------------------------------------------

 Error: ; Date & Time 13-05-2021 13:13:30; MethodName: btnAdd_Click; Form Name: D; User Code:admin
-----------------------------------------------------------------------------

 Error: ; Date & Time 13-05-2021 13:13:37; MethodName: btnAdd_Click; Form Name: E; User Code:admin
-----------------------------------------------------------------------------

 Error: ; Date & Time 13-05-2021 13:13:40; MethodName: fncAddToGrid; Form Name: F; User Code:admin
-----------------------------------------------------------------------------

 Error: ; Date & Time 13-05-2021 13:13:41; MethodName: fncAddToGrid; Form Name: G; User Code:admin
-----------------------------------------------------------------------------

 Error: ; Date & Time 13-05-2021 13:13:44; MethodName: fncAddToGrid; Form Name: H; User Code:admin
-----------------------------------------------------------------------------

 Error: ; Date & Time 13-05-2021 13:13:49; MethodName: btnAdd_Click; Form Name: I; User Code:admin
-----------------------------------------------------------------------------

 Error: ; Date & Time 13-05-2021 13:13:50; MethodName: btnAdd_Click; Form Name: J; User Code:admin
-----------------------------------------------------------------------------
