
 Error: Load report failed.; Date & Time 10-02-2021 12:30:24; MethodName: frmInVoiceReport_Load; Form Name: PosForms.frmInvoiceReport; User Code:admin
-----------------------------------------------------------------------------

 Error: Load report failed.; Date & Time 10-02-2021 12:30:50; MethodName: frmInVoiceReport_Load; Form Name: PosForms.frmInvoiceReport; User Code:admin
-----------------------------------------------------------------------------

 Error: Load report failed.; Date & Time 10-02-2021 12:31:20; MethodName: frmInVoiceReport_Load; Form Name: PosForms.frmInvoiceReport; User Code:admin
-----------------------------------------------------------------------------

 Error: Load report failed.; Date & Time 10-02-2021 12:31:44; MethodName: frmInVoiceReport_Load; Form Name: PosForms.frmInvoiceReport; User Code:admin
-----------------------------------------------------------------------------

 Error: Load report failed.; Date & Time 10-02-2021 12:32:05; MethodName: frmInVoiceReport_Load; Form Name: PosForms.frmInvoiceReport; User Code:admin
-----------------------------------------------------------------------------

 Error: Load report failed.; Date & Time 10-02-2021 12:32:26; MethodName: frmInVoiceReport_Load; Form Name: PosForms.frmInvoiceReport; User Code:admin
-----------------------------------------------------------------------------

 Error: Index was outside the bounds of the array.; Date & Time 10-02-2021 17:37:13; MethodName: btnLogOn_Click; Form Name: RetailPointofSale.frmLogOn; User Code:admin
-----------------------------------------------------------------------------

 Error: Object reference not set to an instance of an object.; Date & Time 10-02-2021 17:42:53; MethodName: fncPrint; Form Name: PrinterTemplate.clsUnpaidPrinterTemplate; User Code:admin
-----------------------------------------------------------------------------

 Error: Object reference not set to an instance of an object.; Date & Time 10-02-2021 17:58:13; MethodName: fncPrint; Form Name: PrinterTemplate.clsUnpaidPrinterTemplate; User Code:admin
-----------------------------------------------------------------------------

 Error: Load report failed.; Date & Time 10-02-2021 18:06:16; MethodName: frmInVoiceReport_Load; Form Name: PosForms.frmInvoiceReport; User Code:admin
-----------------------------------------------------------------------------

 Error: Load report failed.; Date & Time 10-02-2021 18:06:32; MethodName: frmInVoiceReport_Load; Form Name: PosForms.frmInvoiceReport; User Code:admin
-----------------------------------------------------------------------------

 Error: Load report failed.; Date & Time 10-02-2021 18:06:46; MethodName: frmInVoiceReport_Load; Form Name: PosForms.frmInvoiceReport; User Code:admin
-----------------------------------------------------------------------------

 Error: Load report failed.; Date & Time 10-02-2021 18:07:06; MethodName: frmInVoiceReport_Load; Form Name: PosForms.frmInvoiceReport; User Code:admin
-----------------------------------------------------------------------------

 Error: Load report failed.; Date & Time 10-02-2021 18:07:32; MethodName: frmInVoiceReport_Load; Form Name: PosForms.frmInvoiceReport; User Code:admin
-----------------------------------------------------------------------------

 Error: Load report failed.; Date & Time 10-02-2021 18:07:47; MethodName: frmInVoiceReport_Load; Form Name: PosForms.frmInvoiceReport; User Code:admin
-----------------------------------------------------------------------------

 Error: Load report failed.; Date & Time 10-02-2021 18:08:02; MethodName: frmInVoiceReport_Load; Form Name: PosForms.frmInvoiceReport; User Code:admin
-----------------------------------------------------------------------------

 Error: Load report failed.; Date & Time 10-02-2021 18:08:23; MethodName: frmInVoiceReport_Load; Form Name: PosForms.frmInvoiceReport; User Code:admin
-----------------------------------------------------------------------------

 Error: Load report failed.; Date & Time 10-02-2021 18:08:50; MethodName: frmInVoiceReport_Load; Form Name: PosForms.frmInvoiceReport; User Code:admin
-----------------------------------------------------------------------------

 Error: 'count' must be non-negative.
Parameter name: count; Date & Time 10-02-2021 18:11:04; MethodName: fncPrint; Form Name: PrinterTemplate.clsUnpaidPrinterTemplate; User Code:admin
-----------------------------------------------------------------------------

 Error: Object reference not set to an instance of an object.; Date & Time 10-02-2021 18:11:04; MethodName: fncPrint; Form Name: PrinterTemplate.clsUnpaidPrinterTemplate; User Code:admin
-----------------------------------------------------------------------------

 Error: Object reference not set to an instance of an object.; Date & Time 10-02-2021 18:27:06; MethodName: fncPrint; Form Name: PrinterTemplate.clsUnpaidPrinterTemplate; User Code:admin
-----------------------------------------------------------------------------

 Error: Object reference not set to an instance of an object.; Date & Time 10-02-2021 18:47:11; MethodName: fncPrint; Form Name: PrinterTemplate.clsSettlement; User Code:admin
-----------------------------------------------------------------------------
