
 Error: Conversion failed when converting the varchar value '0.00' to data type int.; Date & Time 02-05-2022 10:43:06; MethodName: frmSettlement_Shown; Form Name: PosForms.frmSettlement; User Code:admin
-----------------------------------------------------------------------------

 Error: Day End updated successfully; Date & Time 02-05-2022 11:20:56; MethodName: getExecuteSPTransactions; Form Name: System.Data.SqlClient.SqlException; User Code:admin
-----------------------------------------------------------------------------

 Error: The port is closed.; Date & Time 02-05-2022 12:50:41; MethodName: fncSetWeightzero; Form Name: PosForms.frmPOS; User Code:admin
-----------------------------------------------------------------------------

 Error: 'count' must be non-negative.
Parameter name: count; Date & Time 02-05-2022 13:09:56; MethodName: fncHeader; Form Name: PrinterTemplate.clsTradeIN; User Code:admin
-----------------------------------------------------------------------------

 Error: 'count' must be non-negative.
Parameter name: count; Date & Time 02-05-2022 13:10:03; MethodName: fncHeader; Form Name: PrinterTemplate.clsTradeIN; User Code:admin
-----------------------------------------------------------------------------

 Error: The port is closed.; Date & Time 02-05-2022 13:14:59; MethodName: fncSetWeightzero; Form Name: PosForms.frmPOS; User Code:admin
-----------------------------------------------------------------------------

 Error: Could not find stored procedure 'USP_GET_SALES_SETTLEMENT'.; Date & Time 02-05-2022 13:16:02; MethodName: fncCashDetails; Form Name: PrinterTemplate.clsSettlement; User Code:admin
-----------------------------------------------------------------------------

 Error: Could not find stored procedure 'USP_GET_SALES_SETTLEMENT'.; Date & Time 02-05-2022 13:26:56; MethodName: fncCashDetails; Form Name: PrinterTemplate.clsSettlement; User Code:admin
-----------------------------------------------------------------------------

 Error: Could not find stored procedure 'USP_GET_SALES_SETTLEMENT'.; Date & Time 02-05-2022 13:30:28; MethodName: fncCashDetails; Form Name: PrinterTemplate.clsSettlement; User Code:admin
-----------------------------------------------------------------------------

 Error: The port is closed.; Date & Time 02-05-2022 14:51:31; MethodName: fncSetWeightzero; Form Name: PosForms.frmPOS; User Code:admin
-----------------------------------------------------------------------------

 Error: The port is closed.; Date & Time 02-05-2022 15:43:10; MethodName: fncSetWeightzero; Form Name: PosForms.frmPOS; User Code:admin
-----------------------------------------------------------------------------

 Error: The port is closed.; Date & Time 02-05-2022 16:27:59; MethodName: fncSetWeightzero; Form Name: PosForms.frmPOS; User Code:admin
-----------------------------------------------------------------------------

 Error: Could not find stored procedure 'USP_GET_SALES_SETTLEMENT'.; Date & Time 02-05-2022 16:29:11; MethodName: fncCashDetails; Form Name: PrinterTemplate.clsSettlement; User Code:admin
-----------------------------------------------------------------------------

 Error: Could not find stored procedure 'USP_GET_SALES_SETTLEMENT'.; Date & Time 02-05-2022 16:29:30; MethodName: fncCashDetails; Form Name: PrinterTemplate.clsSettlement; User Code:admin
-----------------------------------------------------------------------------

 Error: Could not find stored procedure 'USP_GET_SALES_SETTLEMENT'.; Date & Time 02-05-2022 16:30:02; MethodName: fncCashDetails; Form Name: PrinterTemplate.clsSettlement; User Code:admin
-----------------------------------------------------------------------------

 Error: Could not find stored procedure 'USP_GET_SALES_SETTLEMENT'.; Date & Time 02-05-2022 18:11:26; MethodName: fncCashDetails; Form Name: PrinterTemplate.clsSettlement; User Code:admin
-----------------------------------------------------------------------------
