
 Error: Conversion failed when converting the varchar value 'a' to data type int.; Date & Time 22/06/2019 11:29:24; MethodName: getExecuteSPTransactions; Form Name: System.Data.SqlClient.SqlException; User Code:admin
-----------------------------------------------------------------------------

 Error: Conversion failed when converting the varchar value 'a' to data type int.; Date & Time 22/06/2019 11:29:33; MethodName: bbtnSave_ItemClick; Form Name: PosForms.frmCustomerReceipts; User Code:admin
-----------------------------------------------------------------------------

 Error: Conversion failed when converting the varchar value 'a' to data type int.; Date & Time 22/06/2019 11:30:04; MethodName: getExecuteSPTransactions; Form Name: System.Data.SqlClient.SqlException; User Code:admin
-----------------------------------------------------------------------------

 Error: Conversion failed when converting the varchar value 'a' to data type int.; Date & Time 22/06/2019 11:30:05; MethodName: bbtnSave_ItemClick; Form Name: PosForms.frmCustomerReceipts; User Code:admin
-----------------------------------------------------------------------------

 Error: Conversion failed when converting the varchar value 'a' to data type int.; Date & Time 22/06/2019 11:51:27; MethodName: getExecuteSPTransactions; Form Name: System.Data.SqlClient.SqlException; User Code:admin
-----------------------------------------------------------------------------

 Error: Conversion failed when converting the varchar value 'a' to data type int.; Date & Time 22/06/2019 11:51:29; MethodName: bbtnSave_ItemClick; Form Name: PosForms.frmCustomerReceipts; User Code:admin
-----------------------------------------------------------------------------

 Error: Conversion failed when converting the varchar value 'a' to data type int.; Date & Time 22/06/2019 12:35:22; MethodName: getExecuteSPTransactions; Form Name: System.Data.SqlClient.SqlException; User Code:admin
-----------------------------------------------------------------------------

 Error: Conversion failed when converting the varchar value 'a' to data type int.; Date & Time 22/06/2019 12:35:24; MethodName: bbtnSave_ItemClick; Form Name: PosForms.frmCustomerReceipts; User Code:admin
-----------------------------------------------------------------------------

 Error: Column 'AreaCode' does not belong to table .; Date & Time 22/06/2019 13:19:09; MethodName: fncLoadSelectedCustomer; Form Name: PosForms.frmCustomerSearch; User Code:admin
-----------------------------------------------------------------------------

 Error: Conversion failed when converting the varchar value 'a' to data type int.; Date & Time 22/06/2019 14:47:13; MethodName: getExecuteSPTransactions; Form Name: System.Data.SqlClient.SqlException; User Code:admin
-----------------------------------------------------------------------------

 Error: Conversion failed when converting the varchar value 'a' to data type int.; Date & Time 22/06/2019 14:47:29; MethodName: bbtnSave_ItemClick; Form Name: PosForms.frmCustomerReceipts; User Code:admin
-----------------------------------------------------------------------------

 Error: Conversion failed when converting the varchar value 'a' to data type int.; Date & Time 22/06/2019 14:57:17; MethodName: getExecuteSPTransactions; Form Name: System.Data.SqlClient.SqlException; User Code:admin
-----------------------------------------------------------------------------

 Error: Conversion failed when converting the varchar value 'a' to data type int.; Date & Time 22/06/2019 14:57:19; MethodName: bbtnSave_ItemClick; Form Name: PosForms.frmCustomerReceipts; User Code:admin
-----------------------------------------------------------------------------

 Error: Conversion failed when converting the varchar value 'a' to data type int.; Date & Time 22/06/2019 14:59:14; MethodName: getExecuteSPTransactions; Form Name: System.Data.SqlClient.SqlException; User Code:admin
-----------------------------------------------------------------------------

 Error: Conversion failed when converting the varchar value 'a' to data type int.; Date & Time 22/06/2019 14:59:21; MethodName: bbtnSave_ItemClick; Form Name: PosForms.frmCustomerReceipts; User Code:admin
-----------------------------------------------------------------------------

 Error: 'count' must be non-negative.
Parameter name: count; Date & Time 22/06/2019 15:05:12; MethodName: fncHeader; Form Name: PrinterTemplate.clsReceipts; User Code:admin
-----------------------------------------------------------------------------

 Error: 'count' must be non-negative.
Parameter name: count; Date & Time 22/06/2019 15:05:12; MethodName: fncSubHeader; Form Name: PrinterTemplate.clsReceipts; User Code:admin
-----------------------------------------------------------------------------

 Error: Procedure or function USP_SET_POS_RECEIPTS_DETAIL has too many arguments specified.; Date & Time 22/06/2019 15:56:21; MethodName: getExecuteSPTransactions; Form Name: System.Data.SqlClient.SqlException; User Code:ADMIN
-----------------------------------------------------------------------------

 Error: Procedure or function USP_SET_POS_RECEIPTS_DETAIL has too many arguments specified.; Date & Time 22/06/2019 15:56:30; MethodName: bbtnSave_ItemClick; Form Name: PosForms.frmCustomerReceipts; User Code:ADMIN
-----------------------------------------------------------------------------

 Error: Procedure or function USP_SET_POS_RECEIPTS_DETAIL has too many arguments specified.; Date & Time 22/06/2019 15:57:56; MethodName: getExecuteSPTransactions; Form Name: System.Data.SqlClient.SqlException; User Code:ADMIN
-----------------------------------------------------------------------------

 Error: Procedure or function USP_SET_POS_RECEIPTS_DETAIL has too many arguments specified.; Date & Time 22/06/2019 15:58:12; MethodName: bbtnSave_ItemClick; Form Name: PosForms.frmCustomerReceipts; User Code:ADMIN
-----------------------------------------------------------------------------

 Error: Procedure or function USP_SET_POS_RECEIPTS_DETAIL has too many arguments specified.; Date & Time 22/06/2019 15:58:46; MethodName: getExecuteSPTransactions; Form Name: System.Data.SqlClient.SqlException; User Code:ADMIN
-----------------------------------------------------------------------------

 Error: Procedure or function USP_SET_POS_RECEIPTS_DETAIL has too many arguments specified.; Date & Time 22/06/2019 15:58:48; MethodName: bbtnSave_ItemClick; Form Name: PosForms.frmCustomerReceipts; User Code:ADMIN
-----------------------------------------------------------------------------

 Error: Error converting data type nvarchar to numeric.; Date & Time 22/06/2019 16:16:37; MethodName: fncTerminalDetails; Form Name: PrinterTemplate.clsSettlement; User Code:ADMIN
-----------------------------------------------------------------------------

 Error: Error converting data type nvarchar to numeric.; Date & Time 22/06/2019 16:16:38; MethodName: fncShiftDetails; Form Name: PrinterTemplate.clsSettlement; User Code:ADMIN
-----------------------------------------------------------------------------

 Error: Error converting data type nvarchar to numeric.; Date & Time 22/06/2019 16:16:39; MethodName: fncShiftDetails; Form Name: PrinterTemplate.clsSettlement; User Code:ADMIN
-----------------------------------------------------------------------------

 Error: Error converting data type nvarchar to numeric.; Date & Time 22/06/2019 16:16:39; MethodName: fncShiftDetails; Form Name: PrinterTemplate.clsSettlement; User Code:ADMIN
-----------------------------------------------------------------------------

 Error: Error converting data type nvarchar to numeric.; Date & Time 22/06/2019 16:16:40; MethodName: fncShiftDetails; Form Name: PrinterTemplate.clsSettlement; User Code:ADMIN
-----------------------------------------------------------------------------

 Error: Error converting data type nvarchar to numeric.; Date & Time 22/06/2019 16:16:40; MethodName: fncShiftDetails; Form Name: PrinterTemplate.clsSettlement; User Code:ADMIN
-----------------------------------------------------------------------------

 Error: Error converting data type varchar to numeric.; Date & Time 22/06/2019 16:16:41; MethodName: fncALLSettlementDetails; Form Name: PrinterTemplate.clsSettlement; User Code:ADMIN
-----------------------------------------------------------------------------

 Error: Object reference not set to an instance of an object.; Date & Time 22/06/2019 16:16:45; MethodName: fncCreditCardDetails; Form Name: PrinterTemplate.clsSettlement; User Code:ADMIN
-----------------------------------------------------------------------------

 Error: Object reference not set to an instance of an object.; Date & Time 22/06/2019 16:16:46; MethodName: fncWalletCardDetails; Form Name: PrinterTemplate.clsSettlement; User Code:ADMIN
-----------------------------------------------------------------------------

 Error: Object reference not set to an instance of an object.; Date & Time 22/06/2019 16:16:46; MethodName: fncCouponDetails; Form Name: PrinterTemplate.clsSettlement; User Code:ADMIN
-----------------------------------------------------------------------------

 Error: Object reference not set to an instance of an object.; Date & Time 22/06/2019 16:16:46; MethodName: fncVoucherDetails; Form Name: PrinterTemplate.clsSettlement; User Code:ADMIN
-----------------------------------------------------------------------------

 Error: Object reference not set to an instance of an object.; Date & Time 22/06/2019 16:16:46; MethodName: fncDueDetails; Form Name: PrinterTemplate.clsSettlement; User Code:ADMIN
-----------------------------------------------------------------------------

 Error: Object reference not set to an instance of an object.; Date & Time 22/06/2019 16:16:48; MethodName: fncCreditDetails; Form Name: PrinterTemplate.clsSettlement; User Code:ADMIN
-----------------------------------------------------------------------------

 Error: Object reference not set to an instance of an object.; Date & Time 22/06/2019 16:16:48; MethodName: fncChequeDetails; Form Name: PrinterTemplate.clsSettlement; User Code:ADMIN
-----------------------------------------------------------------------------

 Error: Object reference not set to an instance of an object.; Date & Time 22/06/2019 16:16:48; MethodName: fncDueReceiptDetails; Form Name: PrinterTemplate.clsSettlement; User Code:ADMIN
-----------------------------------------------------------------------------

 Error: Object reference not set to an instance of an object.; Date & Time 22/06/2019 16:16:48; MethodName: fncCrReceiptDetails; Form Name: PrinterTemplate.clsSettlement; User Code:ADMIN
-----------------------------------------------------------------------------

 Error: Object reference not set to an instance of an object.; Date & Time 22/06/2019 16:16:48; MethodName: fncOutletReceiptDetails; Form Name: PrinterTemplate.clsSettlement; User Code:ADMIN
-----------------------------------------------------------------------------

 Error: Object reference not set to an instance of an object.; Date & Time 22/06/2019 16:16:48; MethodName: fncPayModeDetails; Form Name: PrinterTemplate.clsSettlement; User Code:ADMIN
-----------------------------------------------------------------------------

 Error: Object reference not set to an instance of an object.; Date & Time 22/06/2019 16:16:48; MethodName: fncBankDetails; Form Name: PrinterTemplate.clsSettlement; User Code:ADMIN
-----------------------------------------------------------------------------

 Error: Object reference not set to an instance of an object.; Date & Time 22/06/2019 16:16:48; MethodName: fncOutletDetails; Form Name: PrinterTemplate.clsSettlement; User Code:ADMIN
-----------------------------------------------------------------------------

 Error: Object reference not set to an instance of an object.; Date & Time 22/06/2019 16:16:48; MethodName: fncStaffDetails; Form Name: PrinterTemplate.clsSettlement; User Code:ADMIN
-----------------------------------------------------------------------------

 Error: Object reference not set to an instance of an object.; Date & Time 22/06/2019 16:16:49; MethodName: fncSettlementDetails; Form Name: PrinterTemplate.clsSettlement; User Code:ADMIN
-----------------------------------------------------------------------------

 Error: Object reference not set to an instance of an object.; Date & Time 22/06/2019 16:16:51; MethodName: fncDiscountDetails; Form Name: PrinterTemplate.clsSettlement; User Code:ADMIN
-----------------------------------------------------------------------------

 Error: Object reference not set to an instance of an object.; Date & Time 22/06/2019 16:16:51; MethodName: fncBillCancelDetails; Form Name: PrinterTemplate.clsSettlement; User Code:ADMIN
-----------------------------------------------------------------------------

 Error: Object reference not set to an instance of an object.; Date & Time 22/06/2019 16:16:51; MethodName: fncWholeSales; Form Name: PrinterTemplate.clsSettlement; User Code:ADMIN
-----------------------------------------------------------------------------

 Error: Error converting data type nvarchar to numeric.; Date & Time 22/06/2019 16:17:36; MethodName: fncTerminalDetails; Form Name: PrinterTemplate.clsSettlement; User Code:ADMIN
-----------------------------------------------------------------------------

 Error: Error converting data type nvarchar to numeric.; Date & Time 22/06/2019 16:17:36; MethodName: fncShiftDetails; Form Name: PrinterTemplate.clsSettlement; User Code:ADMIN
-----------------------------------------------------------------------------

 Error: Error converting data type nvarchar to numeric.; Date & Time 22/06/2019 16:17:37; MethodName: fncShiftDetails; Form Name: PrinterTemplate.clsSettlement; User Code:ADMIN
-----------------------------------------------------------------------------

 Error: Error converting data type nvarchar to numeric.; Date & Time 22/06/2019 16:17:38; MethodName: fncShiftDetails; Form Name: PrinterTemplate.clsSettlement; User Code:ADMIN
-----------------------------------------------------------------------------

 Error: Error converting data type nvarchar to numeric.; Date & Time 22/06/2019 16:17:38; MethodName: fncShiftDetails; Form Name: PrinterTemplate.clsSettlement; User Code:ADMIN
-----------------------------------------------------------------------------

 Error: Error converting data type nvarchar to numeric.; Date & Time 22/06/2019 16:17:39; MethodName: fncShiftDetails; Form Name: PrinterTemplate.clsSettlement; User Code:ADMIN
-----------------------------------------------------------------------------

 Error: Error converting data type varchar to numeric.; Date & Time 22/06/2019 16:17:40; MethodName: fncALLSettlementDetails; Form Name: PrinterTemplate.clsSettlement; User Code:ADMIN
-----------------------------------------------------------------------------

 Error: Object reference not set to an instance of an object.; Date & Time 22/06/2019 16:17:49; MethodName: fncCreditCardDetails; Form Name: PrinterTemplate.clsSettlement; User Code:ADMIN
-----------------------------------------------------------------------------

 Error: Object reference not set to an instance of an object.; Date & Time 22/06/2019 16:18:28; MethodName: fncWalletCardDetails; Form Name: PrinterTemplate.clsSettlement; User Code:ADMIN
-----------------------------------------------------------------------------

 Error: Object reference not set to an instance of an object.; Date & Time 22/06/2019 16:18:28; MethodName: fncCouponDetails; Form Name: PrinterTemplate.clsSettlement; User Code:ADMIN
-----------------------------------------------------------------------------

 Error: Object reference not set to an instance of an object.; Date & Time 22/06/2019 16:18:28; MethodName: fncVoucherDetails; Form Name: PrinterTemplate.clsSettlement; User Code:ADMIN
-----------------------------------------------------------------------------

 Error: Object reference not set to an instance of an object.; Date & Time 22/06/2019 16:18:28; MethodName: fncDueDetails; Form Name: PrinterTemplate.clsSettlement; User Code:ADMIN
-----------------------------------------------------------------------------

 Error: Object reference not set to an instance of an object.; Date & Time 22/06/2019 16:18:57; MethodName: fncCreditDetails; Form Name: PrinterTemplate.clsSettlement; User Code:ADMIN
-----------------------------------------------------------------------------

 Error: Object reference not set to an instance of an object.; Date & Time 22/06/2019 16:18:57; MethodName: fncChequeDetails; Form Name: PrinterTemplate.clsSettlement; User Code:ADMIN
-----------------------------------------------------------------------------

 Error: Object reference not set to an instance of an object.; Date & Time 22/06/2019 16:18:57; MethodName: fncDueReceiptDetails; Form Name: PrinterTemplate.clsSettlement; User Code:ADMIN
-----------------------------------------------------------------------------

 Error: Object reference not set to an instance of an object.; Date & Time 22/06/2019 16:18:57; MethodName: fncCrReceiptDetails; Form Name: PrinterTemplate.clsSettlement; User Code:ADMIN
-----------------------------------------------------------------------------

 Error: Object reference not set to an instance of an object.; Date & Time 22/06/2019 16:18:57; MethodName: fncOutletReceiptDetails; Form Name: PrinterTemplate.clsSettlement; User Code:ADMIN
-----------------------------------------------------------------------------

 Error: Object reference not set to an instance of an object.; Date & Time 22/06/2019 16:18:57; MethodName: fncPayModeDetails; Form Name: PrinterTemplate.clsSettlement; User Code:ADMIN
-----------------------------------------------------------------------------

 Error: Object reference not set to an instance of an object.; Date & Time 22/06/2019 16:18:57; MethodName: fncBankDetails; Form Name: PrinterTemplate.clsSettlement; User Code:ADMIN
-----------------------------------------------------------------------------

 Error: Object reference not set to an instance of an object.; Date & Time 22/06/2019 16:18:57; MethodName: fncOutletDetails; Form Name: PrinterTemplate.clsSettlement; User Code:ADMIN
-----------------------------------------------------------------------------

 Error: Object reference not set to an instance of an object.; Date & Time 22/06/2019 16:18:57; MethodName: fncStaffDetails; Form Name: PrinterTemplate.clsSettlement; User Code:ADMIN
-----------------------------------------------------------------------------

 Error: Object reference not set to an instance of an object.; Date & Time 22/06/2019 16:18:57; MethodName: fncSettlementDetails; Form Name: PrinterTemplate.clsSettlement; User Code:ADMIN
-----------------------------------------------------------------------------

 Error: Object reference not set to an instance of an object.; Date & Time 22/06/2019 16:18:58; MethodName: fncDiscountDetails; Form Name: PrinterTemplate.clsSettlement; User Code:ADMIN
-----------------------------------------------------------------------------

 Error: Object reference not set to an instance of an object.; Date & Time 22/06/2019 16:18:58; MethodName: fncBillCancelDetails; Form Name: PrinterTemplate.clsSettlement; User Code:ADMIN
-----------------------------------------------------------------------------

 Error: Object reference not set to an instance of an object.; Date & Time 22/06/2019 16:18:58; MethodName: fncWholeSales; Form Name: PrinterTemplate.clsSettlement; User Code:ADMIN
-----------------------------------------------------------------------------

 Error: Error converting data type nvarchar to numeric.; Date & Time 22/06/2019 16:23:51; MethodName: fncTerminalDetails; Form Name: PrinterTemplate.clsSettlement; User Code:ADMIN
-----------------------------------------------------------------------------

 Error: Error converting data type nvarchar to numeric.; Date & Time 22/06/2019 16:23:53; MethodName: fncShiftDetails; Form Name: PrinterTemplate.clsSettlement; User Code:ADMIN
-----------------------------------------------------------------------------

 Error: Error converting data type nvarchar to numeric.; Date & Time 22/06/2019 16:23:53; MethodName: fncShiftDetails; Form Name: PrinterTemplate.clsSettlement; User Code:ADMIN
-----------------------------------------------------------------------------

 Error: Error converting data type nvarchar to numeric.; Date & Time 22/06/2019 16:23:54; MethodName: fncShiftDetails; Form Name: PrinterTemplate.clsSettlement; User Code:ADMIN
-----------------------------------------------------------------------------

 Error: Error converting data type nvarchar to numeric.; Date & Time 22/06/2019 16:23:54; MethodName: fncShiftDetails; Form Name: PrinterTemplate.clsSettlement; User Code:ADMIN
-----------------------------------------------------------------------------

 Error: Error converting data type nvarchar to numeric.; Date & Time 22/06/2019 16:23:55; MethodName: fncShiftDetails; Form Name: PrinterTemplate.clsSettlement; User Code:ADMIN
-----------------------------------------------------------------------------

 Error: Error converting data type varchar to numeric.; Date & Time 22/06/2019 16:24:00; MethodName: fncALLSettlementDetails; Form Name: PrinterTemplate.clsSettlement; User Code:ADMIN
-----------------------------------------------------------------------------

 Error: Object reference not set to an instance of an object.; Date & Time 22/06/2019 16:30:27; MethodName: fncCreditCardDetails; Form Name: PrinterTemplate.clsSettlement; User Code:ADMIN
-----------------------------------------------------------------------------

 Error: Object reference not set to an instance of an object.; Date & Time 22/06/2019 16:30:28; MethodName: fncWalletCardDetails; Form Name: PrinterTemplate.clsSettlement; User Code:ADMIN
-----------------------------------------------------------------------------

 Error: Object reference not set to an instance of an object.; Date & Time 22/06/2019 16:30:28; MethodName: fncCouponDetails; Form Name: PrinterTemplate.clsSettlement; User Code:ADMIN
-----------------------------------------------------------------------------

 Error: Object reference not set to an instance of an object.; Date & Time 22/06/2019 16:30:28; MethodName: fncVoucherDetails; Form Name: PrinterTemplate.clsSettlement; User Code:ADMIN
-----------------------------------------------------------------------------

 Error: Object reference not set to an instance of an object.; Date & Time 22/06/2019 16:30:28; MethodName: fncDueDetails; Form Name: PrinterTemplate.clsSettlement; User Code:ADMIN
-----------------------------------------------------------------------------

 Error: Object reference not set to an instance of an object.; Date & Time 22/06/2019 16:30:28; MethodName: fncCreditDetails; Form Name: PrinterTemplate.clsSettlement; User Code:ADMIN
-----------------------------------------------------------------------------

 Error: Object reference not set to an instance of an object.; Date & Time 22/06/2019 16:30:28; MethodName: fncChequeDetails; Form Name: PrinterTemplate.clsSettlement; User Code:ADMIN
-----------------------------------------------------------------------------

 Error: Object reference not set to an instance of an object.; Date & Time 22/06/2019 16:30:28; MethodName: fncDueReceiptDetails; Form Name: PrinterTemplate.clsSettlement; User Code:ADMIN
-----------------------------------------------------------------------------

 Error: Object reference not set to an instance of an object.; Date & Time 22/06/2019 16:30:28; MethodName: fncCrReceiptDetails; Form Name: PrinterTemplate.clsSettlement; User Code:ADMIN
-----------------------------------------------------------------------------

 Error: Object reference not set to an instance of an object.; Date & Time 22/06/2019 16:30:28; MethodName: fncOutletReceiptDetails; Form Name: PrinterTemplate.clsSettlement; User Code:ADMIN
-----------------------------------------------------------------------------

 Error: Object reference not set to an instance of an object.; Date & Time 22/06/2019 16:30:28; MethodName: fncPayModeDetails; Form Name: PrinterTemplate.clsSettlement; User Code:ADMIN
-----------------------------------------------------------------------------

 Error: Object reference not set to an instance of an object.; Date & Time 22/06/2019 16:30:28; MethodName: fncBankDetails; Form Name: PrinterTemplate.clsSettlement; User Code:ADMIN
-----------------------------------------------------------------------------

 Error: Object reference not set to an instance of an object.; Date & Time 22/06/2019 16:30:28; MethodName: fncOutletDetails; Form Name: PrinterTemplate.clsSettlement; User Code:ADMIN
-----------------------------------------------------------------------------

 Error: Object reference not set to an instance of an object.; Date & Time 22/06/2019 16:30:28; MethodName: fncStaffDetails; Form Name: PrinterTemplate.clsSettlement; User Code:ADMIN
-----------------------------------------------------------------------------

 Error: Object reference not set to an instance of an object.; Date & Time 22/06/2019 16:30:29; MethodName: fncSettlementDetails; Form Name: PrinterTemplate.clsSettlement; User Code:ADMIN
-----------------------------------------------------------------------------

 Error: Object reference not set to an instance of an object.; Date & Time 22/06/2019 16:30:29; MethodName: fncDiscountDetails; Form Name: PrinterTemplate.clsSettlement; User Code:ADMIN
-----------------------------------------------------------------------------

 Error: Object reference not set to an instance of an object.; Date & Time 22/06/2019 16:30:29; MethodName: fncBillCancelDetails; Form Name: PrinterTemplate.clsSettlement; User Code:ADMIN
-----------------------------------------------------------------------------

 Error: Object reference not set to an instance of an object.; Date & Time 22/06/2019 16:30:29; MethodName: fncWholeSales; Form Name: PrinterTemplate.clsSettlement; User Code:ADMIN
-----------------------------------------------------------------------------

 Error: There is no row at position 0.; Date & Time 22/06/2019 17:13:49; MethodName: fncTerminalDetails; Form Name: PrinterTemplate.clsSettlement; User Code:ADMIN
-----------------------------------------------------------------------------
