
 Error: Invalid column name 'PTM_UOM_MAX_WPRICE'.; Date & Time 28-09-2020 12:39:39; MethodName: fncLoadTerminalSettings; Form Name: LOGIN- Terminal Settings; User Code:admin
-----------------------------------------------------------------------------

 Error: Column 'Quotation' does not belong to table .; Date & Time 28-09-2020 14:09:53; MethodName: fncBatchSelection; Form Name: PosForms.frmPOS; User Code:admin
-----------------------------------------------------------------------------

 Error: Column 'Quotation' does not belong to table .; Date & Time 28-09-2020 14:09:59; MethodName: fncBatchSelection; Form Name: PosForms.frmPOS; User Code:admin
-----------------------------------------------------------------------------

 Error: Column 'Quotation' does not belong to table .; Date & Time 28-09-2020 14:29:35; MethodName: fncBatchSelection; Form Name: PosForms.frmPOS; User Code:admin
-----------------------------------------------------------------------------
