
 Error: Column 'Vendor' does not belong to table .; Date & Time 23/09/2019 10:26:40; MethodName: fncReloadCustomer; Form Name: PosForms.frmCustomer; User Code:admin
-----------------------------------------------------------------------------

 Error: Column 'Vendor' does not belong to table .; Date & Time 23/09/2019 10:27:28; MethodName: fncReloadCustomer; Form Name: PosForms.frmCustomer; User Code:admin
-----------------------------------------------------------------------------

 Error: Column 'Vendor' does not belong to table .; Date & Time 23/09/2019 10:28:07; MethodName: fncReloadCustomer; Form Name: PosForms.frmCustomer; User Code:admin
-----------------------------------------------------------------------------

 Error: Column 'Vendor' does not belong to table .; Date & Time 23/09/2019 10:35:51; MethodName: fncReloadCustomer; Form Name: PosForms.frmCustomer; User Code:admin
-----------------------------------------------------------------------------

 Error: Column 'Vendor' does not belong to table .; Date & Time 23/09/2019 10:38:21; MethodName: fncReloadCustomer; Form Name: PosForms.frmCustomer; User Code:admin
-----------------------------------------------------------------------------

 Error: Column 'Vendor' does not belong to table .; Date & Time 23/09/2019 10:40:48; MethodName: fncReloadCustomer; Form Name: PosForms.frmCustomer; User Code:admin
-----------------------------------------------------------------------------

 Error: Column 'Vendor' does not belong to table .; Date & Time 23/09/2019 10:42:57; MethodName: fncReloadCustomer; Form Name: PosForms.frmCustomer; User Code:admin
-----------------------------------------------------------------------------

 Error: Procedure or function 'USP_SET_CHECK_PASSWORD' expects parameter '@Activity', which was not supplied.; Date & Time 23/09/2019 11:09:38; MethodName: txtPassword_KeyDown; Form Name: PosForms.frmPOS; User Code:admin
-----------------------------------------------------------------------------

 Error: Procedure or function 'USP_SET_CHECK_PASSWORD' expects parameter '@Activity', which was not supplied.; Date & Time 23/09/2019 11:10:21; MethodName: txtPassword_KeyDown; Form Name: PosForms.frmPOS; User Code:admin
-----------------------------------------------------------------------------

 Error: Procedure or function 'USP_SET_CHECK_PASSWORD' expects parameter '@Activity', which was not supplied.; Date & Time 23/09/2019 11:23:13; MethodName: txtPassword_KeyDown; Form Name: PosForms.frmPOS; User Code:admin
-----------------------------------------------------------------------------

 Error: Procedure or function 'USP_SET_CHECK_PASSWORD' expects parameter '@Activity', which was not supplied.; Date & Time 23/09/2019 11:28:55; MethodName: txtPassword_KeyDown; Form Name: PosForms.frmPOS; User Code:admin
-----------------------------------------------------------------------------

 Error: Error in File C:\Users\chida\AppData\Local\Temp\rptA4Invoice {951ACB93-73E9-4978-8AA0-E1AF9231D6EB}.rpt:
Failed to open a rowset.; Date & Time 23/09/2019 12:03:06; MethodName: frmInVoiceReport_Load; Form Name: PosForms.frmInvoiceReport; User Code:admin
-----------------------------------------------------------------------------

 Error: Violation of PRIMARY KEY constraint 'PK_tblExchangeHeader'. Cannot insert duplicate key in object 'dbo.tblExchangeHeader'.
The statement has been terminated.; Date & Time 23/09/2019 12:11:39; MethodName: getExecuteSPTransactions; Form Name: System.Data.SqlClient.SqlException; User Code:admin
-----------------------------------------------------------------------------

 Error: Violation of PRIMARY KEY constraint 'PK_tblExchangeHeader'. Cannot insert duplicate key in object 'dbo.tblExchangeHeader'.
The statement has been terminated.; Date & Time 23/09/2019 12:11:52; MethodName: fncExchangeVoucherSave; Form Name: PosForms.frmExchangeVoucher; User Code:admin
-----------------------------------------------------------------------------

 Error: Violation of PRIMARY KEY constraint 'PK_tblExchangeHeader'. Cannot insert duplicate key in object 'dbo.tblExchangeHeader'.
The statement has been terminated.; Date & Time 23/09/2019 12:12:00; MethodName: getExecuteSPTransactions; Form Name: System.Data.SqlClient.SqlException; User Code:admin
-----------------------------------------------------------------------------

 Error: Violation of PRIMARY KEY constraint 'PK_tblExchangeHeader'. Cannot insert duplicate key in object 'dbo.tblExchangeHeader'.
The statement has been terminated.; Date & Time 23/09/2019 12:12:38; MethodName: fncExchangeVoucherSave; Form Name: PosForms.frmExchangeVoucher; User Code:admin
-----------------------------------------------------------------------------

 Error: Violation of PRIMARY KEY constraint 'PK_tblExchangeHeader'. Cannot insert duplicate key in object 'dbo.tblExchangeHeader'.
The statement has been terminated.; Date & Time 23/09/2019 12:12:40; MethodName: getExecuteSPTransactions; Form Name: System.Data.SqlClient.SqlException; User Code:admin
-----------------------------------------------------------------------------

 Error: Violation of PRIMARY KEY constraint 'PK_tblExchangeHeader'. Cannot insert duplicate key in object 'dbo.tblExchangeHeader'.
The statement has been terminated.; Date & Time 23/09/2019 12:12:41; MethodName: fncExchangeVoucherSave; Form Name: PosForms.frmExchangeVoucher; User Code:admin
-----------------------------------------------------------------------------

 Error: Violation of PRIMARY KEY constraint 'PK_tblExchangeHeader'. Cannot insert duplicate key in object 'dbo.tblExchangeHeader'.
The statement has been terminated.; Date & Time 23/09/2019 12:16:47; MethodName: getExecuteSPTransactions; Form Name: System.Data.SqlClient.SqlException; User Code:admin
-----------------------------------------------------------------------------

 Error: Violation of PRIMARY KEY constraint 'PK_tblExchangeHeader'. Cannot insert duplicate key in object 'dbo.tblExchangeHeader'.
The statement has been terminated.; Date & Time 23/09/2019 12:16:52; MethodName: fncExchangeVoucherSave; Form Name: PosForms.frmExchangeVoucher; User Code:admin
-----------------------------------------------------------------------------

 Error: Violation of PRIMARY KEY constraint 'PK_tblExchangeHeader'. Cannot insert duplicate key in object 'dbo.tblExchangeHeader'.
The statement has been terminated.; Date & Time 23/09/2019 12:16:53; MethodName: getExecuteSPTransactions; Form Name: System.Data.SqlClient.SqlException; User Code:admin
-----------------------------------------------------------------------------

 Error: Violation of PRIMARY KEY constraint 'PK_tblExchangeHeader'. Cannot insert duplicate key in object 'dbo.tblExchangeHeader'.
The statement has been terminated.; Date & Time 23/09/2019 12:16:54; MethodName: fncExchangeVoucherSave; Form Name: PosForms.frmExchangeVoucher; User Code:admin
-----------------------------------------------------------------------------

 Error: Violation of PRIMARY KEY constraint 'PK_tblExchangeHeader'. Cannot insert duplicate key in object 'dbo.tblExchangeHeader'.
The statement has been terminated.; Date & Time 23/09/2019 12:18:04; MethodName: getExecuteSPTransactions; Form Name: System.Data.SqlClient.SqlException; User Code:admin
-----------------------------------------------------------------------------

 Error: Violation of PRIMARY KEY constraint 'PK_tblExchangeHeader'. Cannot insert duplicate key in object 'dbo.tblExchangeHeader'.
The statement has been terminated.; Date & Time 23/09/2019 12:18:05; MethodName: fncExchangeVoucherSave; Form Name: PosForms.frmExchangeVoucher; User Code:admin
-----------------------------------------------------------------------------
