
 Error: method=getCustomerOffers&data={
  "businessId": "89087",
  "customer_number": "9865898966",
  "pageType": "register",
  "generateOtp": "Y"
}; Date & Time 03/12/2018 10:41:33; MethodName: Request; Form Name: CRM upload Get Offers; User Code:admin
-----------------------------------------------------------------------------

 Error: {"status":"success","message":"get offers data","loyalty":{},"offers":[{"discount_arr":{"discountIn":"percentage","discountValue":"10.0000","minimumBillValue":"100","maxDiscountValue":"1000","includeOrExclude":"all","productList":""},"offerId":"568","offerTitle":"For Palraj","offerDesc":"Give 10% discount","createdDate":"2018-10-16 12:43:13","offerImage":"","validTill":"2018-12-31 23:59:59","couponFlag":"Y","isPaidOffer":"","type":"","mem_id":0,"isClaimed":"no","offerType":"Promotion"}],"membership":[]}; Date & Time 03/12/2018 10:41:35; MethodName: Response; Form Name: CRM upload; User Code:admin
-----------------------------------------------------------------------------

 Error: Deleted row information cannot be accessed through the row.; Date & Time 03/12/2018 12:55:47; MethodName: gvMain_FocusedRowChanged; Form Name: PosForms.frmPOS; User Code:admin
-----------------------------------------------------------------------------

 Error: Deleted row information cannot be accessed through the row.; Date & Time 03/12/2018 12:55:59; MethodName: gvMain_FocusedRowChanged; Form Name: PosForms.frmPOS; User Code:admin
-----------------------------------------------------------------------------

 Error: Deleted row information cannot be accessed through the row.; Date & Time 03/12/2018 13:30:06; MethodName: gvMain_FocusedRowChanged; Form Name: PosForms.frmPOS; User Code:admin
-----------------------------------------------------------------------------

 Error: Deleted row information cannot be accessed through the row.; Date & Time 03/12/2018 14:30:08; MethodName: gvMain_FocusedRowChanged; Form Name: PosForms.frmPOS; User Code:admin
-----------------------------------------------------------------------------

 Error: Deleted row information cannot be accessed through the row.; Date & Time 03/12/2018 14:31:12; MethodName: gvMain_FocusedRowChanged; Form Name: PosForms.frmPOS; User Code:admin
-----------------------------------------------------------------------------

 Error: Deleted row information cannot be accessed through the row.; Date & Time 03/12/2018 14:33:40; MethodName: gvMain_FocusedRowChanged; Form Name: PosForms.frmPOS; User Code:admin
-----------------------------------------------------------------------------
