
 Error: Retrieving the COM class factory for component with CLSID {CDB4A134-4920-470B-9A13-00F9C3C6DD76} failed due to the following error: 80040154 Class not registered (Exception from HRESULT: 0x80040154 (REGDB_E_CLASSNOTREG)).; Date & Time 22-09-2021 11:54:53; MethodName: CardPayment; Form Name: PosForms.frmCurrencyPopup; User Code:admin
-----------------------------------------------------------------------------

 Error: Retrieving the COM class factory for component with CLSID {CDB4A134-4920-470B-9A13-00F9C3C6DD76} failed due to the following error: 80040154 Class not registered (Exception from HRESULT: 0x80040154 (REGDB_E_CLASSNOTREG)).; Date & Time 22-09-2021 11:55:44; MethodName: CardPayment; Form Name: PosForms.frmCurrencyPopup; User Code:admin
-----------------------------------------------------------------------------

 Error: Could not find stored procedure 'usp_SET_GET_BijilipayPayment'.; Date & Time 22-09-2021 11:55:55; MethodName: fncPaymentBijilipay; Form Name: PosForms.frmCreditCardPopup; User Code:admin
-----------------------------------------------------------------------------

 Error: Retrieving the COM class factory for component with CLSID {CDB4A134-4920-470B-9A13-00F9C3C6DD76} failed due to the following error: 80040154 Class not registered (Exception from HRESULT: 0x80040154 (REGDB_E_CLASSNOTREG)).; Date & Time 22-09-2021 11:56:10; MethodName: CardPayment; Form Name: PosForms.frmCreditCardPopup; User Code:admin
-----------------------------------------------------------------------------

 Error: Retrieving the COM class factory for component with CLSID {CDB4A134-4920-470B-9A13-00F9C3C6DD76} failed due to the following error: 80040154 Class not registered (Exception from HRESULT: 0x80040154 (REGDB_E_CLASSNOTREG)).; Date & Time 22-09-2021 11:59:00; MethodName: CardPayment; Form Name: PosForms.frmCreditCardPopup; User Code:admin
-----------------------------------------------------------------------------

 Error: 21.00; Date & Time 22-09-2021 13:05:30; MethodName: CardPayment; Form Name: PosForms.frmCurrencyPopup; User Code:admin
-----------------------------------------------------------------------------

 Error: Object reference not set to an instance of an object.; Date & Time 22-09-2021 13:05:45; MethodName: CardPayment; Form Name: PosForms.frmCurrencyPopup; User Code:admin
-----------------------------------------------------------------------------

 Error: 21.00; Date & Time 22-09-2021 13:06:06; MethodName: CardPayment; Form Name: PosForms.frmCurrencyPopup; User Code:admin
-----------------------------------------------------------------------------

 Error: 21.00; Date & Time 22-09-2021 13:15:38; MethodName: CardPayment; Form Name: PosForms.frmCurrencyPopup; User Code:admin
-----------------------------------------------------------------------------

 Error: 21.00; Date & Time 22-09-2021 13:17:17; MethodName: CardPayment; Form Name: PosForms.frmCurrencyPopup; User Code:admin
-----------------------------------------------------------------------------

 Error: 1; Date & Time 22-09-2021 13:17:23; MethodName: CardPayment; Form Name: PosForms.frmCurrencyPopup; User Code:admin
-----------------------------------------------------------------------------

 Error: ; Date & Time 22-09-2021 13:17:28; MethodName: CardPayment; Form Name: PosForms.frmCurrencyPopup; User Code:admin
-----------------------------------------------------------------------------

 Error: 21.00; Date & Time 22-09-2021 13:17:38; MethodName: CardPayment; Form Name: PosForms.frmCurrencyPopup; User Code:admin
-----------------------------------------------------------------------------

 Error: 1; Date & Time 22-09-2021 13:19:10; MethodName: CardPayment; Form Name: PosForms.frmCurrencyPopup; User Code:admin
-----------------------------------------------------------------------------

 Error: ; Date & Time 22-09-2021 13:19:10; MethodName: CardPayment; Form Name: PosForms.frmCurrencyPopup; User Code:admin
-----------------------------------------------------------------------------

 Error: 21.00; Date & Time 22-09-2021 14:32:08; MethodName: CardPayment; Form Name: PosForms.frmCurrencyPopup; User Code:admin
-----------------------------------------------------------------------------

 Error: 1; Date & Time 22-09-2021 14:32:17; MethodName: CardPayment; Form Name: PosForms.frmCurrencyPopup; User Code:admin
-----------------------------------------------------------------------------

 Error: ; Date & Time 22-09-2021 14:32:19; MethodName: CardPayment; Form Name: PosForms.frmCurrencyPopup; User Code:admin
-----------------------------------------------------------------------------

 Error: 21.00; Date & Time 22-09-2021 14:50:34; MethodName: CardPayment; Form Name: PosForms.frmCurrencyPopup; User Code:admin
-----------------------------------------------------------------------------

 Error: 1; Date & Time 22-09-2021 14:50:46; MethodName: CardPayment; Form Name: PosForms.frmCurrencyPopup; User Code:admin
-----------------------------------------------------------------------------

 Error: ; Date & Time 22-09-2021 14:50:46; MethodName: CardPayment; Form Name: PosForms.frmCurrencyPopup; User Code:admin
-----------------------------------------------------------------------------

 Error: 21.00; Date & Time 22-09-2021 17:38:24; MethodName: CardPayment; Form Name: PosForms.frmCurrencyPopup; User Code:admin
-----------------------------------------------------------------------------

 Error: 1; Date & Time 22-09-2021 17:38:29; MethodName: CardPayment; Form Name: PosForms.frmCurrencyPopup; User Code:admin
-----------------------------------------------------------------------------

 Error: ; Date & Time 22-09-2021 17:38:30; MethodName: CardPayment; Form Name: PosForms.frmCurrencyPopup; User Code:admin
-----------------------------------------------------------------------------
