08/11/2017 13:56:18
PostData :method=requestFromMPOSSDK&data=k0NGrJpMwXcaFsYU45VPvKbfDJSF0zMNVRHROrFDz+Qs6R7IJt5UMhgdGYbN4PHV8LXB/wqk1+wVwKWmVslQ7A==&mid=100001000020840&tid=10026070&amount=0.00&requestType=1006
Response :{"StatusCode":"0","StatusMessage":"success message 0","result":[{"message":"Invalid Merchant (0200)","responseCode":"0200"}]}

